(module "JS202011AQN" (layer F.Cu)
  (descr "JS (DPDT)")
  (tags "Switch")
  (fp_text reference S** (at 0.000 -0) (layer F.SilkS)
    (effects (font (size 1.27 1.27) (thickness 0.254)))
  )
  (fp_text user %R (at 0.000 -0) (layer F.Fab)
    (effects (font (size 1.27 1.27) (thickness 0.254)))
  )
  (fp_text value "JS202011AQN" (at 0.000 -0) (layer F.SilkS) hide
    (effects (font (size 1.27 1.27) (thickness 0.254)))
  )
  (fp_line (start -4.5 -2.025) (end 4.5 -2.025) (layer F.Fab) (width 0.2))
  (fp_line (start 4.5 -2.025) (end 4.5 1.575) (layer F.Fab) (width 0.2))
  (fp_line (start 4.5 1.575) (end -4.5 1.575) (layer F.Fab) (width 0.2))
  (fp_line (start -4.5 1.575) (end -4.5 -2.025) (layer F.Fab) (width 0.2))
  (fp_line (start -5.5 -3.575) (end 5.5 -3.575) (layer F.CrtYd) (width 0.1))
  (fp_line (start 5.5 -3.575) (end 5.5 3.575) (layer F.CrtYd) (width 0.1))
  (fp_line (start 5.5 3.575) (end -5.5 3.575) (layer F.CrtYd) (width 0.1))
  (fp_line (start -5.5 3.575) (end -5.5 -3.575) (layer F.CrtYd) (width 0.1))
  (fp_line (start -3.5 -2.025) (end -4.5 -2.025) (layer F.SilkS) (width 0.1))
  (fp_line (start -4.5 -2.025) (end -4.5 1.575) (layer F.SilkS) (width 0.1))
  (fp_line (start -4.5 1.575) (end -3.5 1.575) (layer F.SilkS) (width 0.1))
  (fp_line (start 3.5 -2.025) (end 4.5 -2.025) (layer F.SilkS) (width 0.1))
  (fp_line (start 4.5 -2.025) (end 4.5 1.575) (layer F.SilkS) (width 0.1))
  (fp_line (start 4.5 1.575) (end 3.5 1.575) (layer F.SilkS) (width 0.1))
  (fp_line (start -2.6 2.475) (end -2.6 2.475) (layer F.SilkS) (width 0.2))
  (fp_line (start -2.4 2.475) (end -2.4 2.475) (layer F.SilkS) (width 0.2))
  (fp_arc (start -2.5 2.475) (end -2.600 2.475) (angle 180) (layer F.SilkS) (width 0.2))
  (fp_arc (start -2.5 2.475) (end -2.400 2.475) (angle 180) (layer F.SilkS) (width 0.2))
  (pad 1 thru_hole circle (at -2.500 1.425) (size 1.400 1.400) (drill 0.9) (layers *.Cu *.Mask))
  (pad 2 thru_hole circle (at 0.000 1.425) (size 1.400 1.400) (drill 0.9) (layers *.Cu *.Mask))
  (pad 3 thru_hole circle (at 2.500 1.425) (size 1.400 1.400) (drill 0.9) (layers *.Cu *.Mask))
  (pad 4 thru_hole circle (at -2.500 -1.875) (size 1.400 1.400) (drill 0.9) (layers *.Cu *.Mask))
  (pad 5 thru_hole circle (at 0.000 -1.875) (size 1.400 1.400) (drill 0.9) (layers *.Cu *.Mask))
  (pad 6 thru_hole circle (at 2.500 -1.875) (size 1.400 1.400) (drill 0.9) (layers *.Cu *.Mask))
  (model JS202011AQN.stp
    (at (xyz 0 0.011811024091375 0.065748029806483))
    (scale (xyz 1 1 1))
    (rotate (xyz -90 0 0))
  )
)
