(footprint "SW_DIP_SPSTx01_Piano_10.8x4.1mm_W7.62mm_P2.54mm"
	(version 20240108)
	(generator "kicad-footprint-generator")
	(layer "F.Cu")
	(descr "1x-dip-switch SPST , Piano, row spacing 7.62 mm (300 mils), body size 10.8x4.1mm")
	(tags "DIP Switch SPST Piano 7.62mm 300mil")
	(property "Reference" "REF**"
		(at 3.81 -3.11 0)
		(layer "F.SilkS")
		(effects
			(font
				(size 1 1)
				(thickness 0.15)
			)
		)
	)
	(property "Value" "SW_DIP_SPSTx01_Piano_10.8x4.1mm_W7.62mm_P2.54mm"
		(at 3.81 3.11 0)
		(layer "F.Fab")
		(effects
			(font
				(size 1 1)
				(thickness 0.15)
			)
		)
	)
	(attr through_hole)
	(fp_line
		(start -3.51 -0.81)
		(end -3.51 0.81)
		(stroke
			(width 0.12)
			(type solid)
		)
		(layer "F.SilkS")
	)
	(fp_line
		(start -3.51 -0.81)
		(end -1.65 -0.81)
		(stroke
			(width 0.12)
			(type solid)
		)
		(layer "F.SilkS")
	)
	(fp_line
		(start -3.51 0.81)
		(end -1.65 0.81)
		(stroke
			(width 0.12)
			(type solid)
		)
		(layer "F.SilkS")
	)
	(fp_line
		(start -1.89 -2.35)
		(end -1.89 -0.967)
		(stroke
			(width 0.12)
			(type solid)
		)
		(layer "F.SilkS")
	)
	(fp_line
		(start -1.89 -2.35)
		(end -0.507 -2.35)
		(stroke
			(width 0.12)
			(type solid)
		)
		(layer "F.SilkS")
	)
	(fp_line
		(start -1.65 -2.11)
		(end -1.65 2.11)
		(stroke
			(width 0.12)
			(type solid)
		)
		(layer "F.SilkS")
	)
	(fp_line
		(start -1.65 -2.11)
		(end 9.27 -2.11)
		(stroke
			(width 0.12)
			(type solid)
		)
		(layer "F.SilkS")
	)
	(fp_line
		(start -1.65 -0.81)
		(end -1.65 0.81)
		(stroke
			(width 0.12)
			(type solid)
		)
		(layer "F.SilkS")
	)
	(fp_line
		(start -1.65 2.11)
		(end 9.27 2.11)
		(stroke
			(width 0.12)
			(type solid)
		)
		(layer "F.SilkS")
	)
	(fp_line
		(start 9.27 -2.11)
		(end 9.27 2.11)
		(stroke
			(width 0.12)
			(type solid)
		)
		(layer "F.SilkS")
	)
	(fp_rect
		(start -3.65 -2.36)
		(end 9.47 2.36)
		(stroke
			(width 0.05)
			(type solid)
		)
		(fill none)
		(layer "F.CrtYd")
	)
	(fp_line
		(start -1.59 -1.05)
		(end -0.59 -2.05)
		(stroke
			(width 0.1)
			(type solid)
		)
		(layer "F.Fab")
	)
	(fp_line
		(start -1.59 2.05)
		(end -1.59 -1.05)
		(stroke
			(width 0.1)
			(type solid)
		)
		(layer "F.Fab")
	)
	(fp_line
		(start -0.59 -2.05)
		(end 9.21 -2.05)
		(stroke
			(width 0.1)
			(type solid)
		)
		(layer "F.Fab")
	)
	(fp_line
		(start 9.21 -2.05)
		(end 9.21 2.05)
		(stroke
			(width 0.1)
			(type solid)
		)
		(layer "F.Fab")
	)
	(fp_line
		(start 9.21 2.05)
		(end -1.59 2.05)
		(stroke
			(width 0.1)
			(type solid)
		)
		(layer "F.Fab")
	)
	(fp_rect
		(start -1.59 -0.75)
		(end -3.39 0.75)
		(stroke
			(width 0.1)
			(type solid)
		)
		(fill none)
		(layer "F.Fab")
	)
	(fp_text user "${REFERENCE}"
		(at 3.81 0 0)
		(layer "F.Fab")
		(effects
			(font
				(size 0.6 0.6)
				(thickness 0.09)
			)
		)
	)
	(pad "1" thru_hole roundrect
		(at 0 0)
		(size 1.6 1.6)
		(drill 0.8)
		(layers "*.Cu" "*.Mask")
		(remove_unused_layers no)
		(roundrect_rratio 0.15625)
	)
	(pad "2" thru_hole circle
		(at 7.62 0)
		(size 1.6 1.6)
		(drill 0.8)
		(layers "*.Cu" "*.Mask")
		(remove_unused_layers no)
	)
	(model "${KICAD8_3DMODEL_DIR}/Button_Switch_THT.3dshapes/SW_DIP_SPSTx01_Piano_10.8x4.1mm_W7.62mm_P2.54mm.wrl"
		(offset
			(xyz 0 0 0)
		)
		(scale
			(xyz 1 1 1)
		)
		(rotate
			(xyz 0 0 90)
		)
	)
)
