(footprint "SW_DIP_SPSTx09_Slide_9.78x25.04mm_W7.62mm_P2.54mm"
	(version 20240108)
	(generator "kicad-footprint-generator")
	(layer "F.Cu")
	(descr "9x-dip-switch SPST , Slide, row spacing 7.62 mm (300 mils), body size 9.78x25.04mm (see e.g. https://www.ctscorp.com/wp-content/uploads/206-208.pdf)")
	(tags "DIP Switch SPST Slide 7.62mm 300mil")
	(property "Reference" "REF**"
		(at 3.81 -3.42 0)
		(layer "F.SilkS")
		(effects
			(font
				(size 1 1)
				(thickness 0.15)
			)
		)
	)
	(property "Value" "SW_DIP_SPSTx09_Slide_9.78x25.04mm_W7.62mm_P2.54mm"
		(at 3.81 23.74 0)
		(layer "F.Fab")
		(effects
			(font
				(size 1 1)
				(thickness 0.15)
			)
		)
	)
	(attr through_hole)
	(fp_line
		(start -1.38 -2.66)
		(end -1.38 -1.277)
		(stroke
			(width 0.12)
			(type solid)
		)
		(layer "F.SilkS")
	)
	(fp_line
		(start -1.38 -2.66)
		(end 0.003 -2.66)
		(stroke
			(width 0.12)
			(type solid)
		)
		(layer "F.SilkS")
	)
	(fp_line
		(start -1.14 -2.42)
		(end -1.14 22.74)
		(stroke
			(width 0.12)
			(type solid)
		)
		(layer "F.SilkS")
	)
	(fp_line
		(start -1.14 -2.42)
		(end 8.76 -2.42)
		(stroke
			(width 0.12)
			(type solid)
		)
		(layer "F.SilkS")
	)
	(fp_line
		(start -1.14 22.74)
		(end 8.76 22.74)
		(stroke
			(width 0.12)
			(type solid)
		)
		(layer "F.SilkS")
	)
	(fp_line
		(start 3.133333 -0.635)
		(end 3.133333 0.635)
		(stroke
			(width 0.12)
			(type solid)
		)
		(layer "F.SilkS")
	)
	(fp_line
		(start 3.133333 1.905)
		(end 3.133333 3.175)
		(stroke
			(width 0.12)
			(type solid)
		)
		(layer "F.SilkS")
	)
	(fp_line
		(start 3.133333 4.445)
		(end 3.133333 5.715)
		(stroke
			(width 0.12)
			(type solid)
		)
		(layer "F.SilkS")
	)
	(fp_line
		(start 3.133333 6.985)
		(end 3.133333 8.255)
		(stroke
			(width 0.12)
			(type solid)
		)
		(layer "F.SilkS")
	)
	(fp_line
		(start 3.133333 9.525)
		(end 3.133333 10.795)
		(stroke
			(width 0.12)
			(type solid)
		)
		(layer "F.SilkS")
	)
	(fp_line
		(start 3.133333 12.065)
		(end 3.133333 13.335)
		(stroke
			(width 0.12)
			(type solid)
		)
		(layer "F.SilkS")
	)
	(fp_line
		(start 3.133333 14.605)
		(end 3.133333 15.875)
		(stroke
			(width 0.12)
			(type solid)
		)
		(layer "F.SilkS")
	)
	(fp_line
		(start 3.133333 17.145)
		(end 3.133333 18.415)
		(stroke
			(width 0.12)
			(type solid)
		)
		(layer "F.SilkS")
	)
	(fp_line
		(start 3.133333 19.685)
		(end 3.133333 20.955)
		(stroke
			(width 0.12)
			(type solid)
		)
		(layer "F.SilkS")
	)
	(fp_line
		(start 8.76 -2.42)
		(end 8.76 22.74)
		(stroke
			(width 0.12)
			(type solid)
		)
		(layer "F.SilkS")
	)
	(fp_rect
		(start 1.78 -0.635)
		(end 3.133333 0.635)
		(stroke
			(width 0.12)
			(type solid)
		)
		(fill solid)
		(layer "F.SilkS")
	)
	(fp_rect
		(start 1.78 -0.635)
		(end 5.84 0.635)
		(stroke
			(width 0.12)
			(type solid)
		)
		(fill none)
		(layer "F.SilkS")
	)
	(fp_rect
		(start 1.78 1.905)
		(end 3.133333 3.175)
		(stroke
			(width 0.12)
			(type solid)
		)
		(fill solid)
		(layer "F.SilkS")
	)
	(fp_rect
		(start 1.78 1.905)
		(end 5.84 3.175)
		(stroke
			(width 0.12)
			(type solid)
		)
		(fill none)
		(layer "F.SilkS")
	)
	(fp_rect
		(start 1.78 4.445)
		(end 3.133333 5.715)
		(stroke
			(width 0.12)
			(type solid)
		)
		(fill solid)
		(layer "F.SilkS")
	)
	(fp_rect
		(start 1.78 4.445)
		(end 5.84 5.715)
		(stroke
			(width 0.12)
			(type solid)
		)
		(fill none)
		(layer "F.SilkS")
	)
	(fp_rect
		(start 1.78 6.985)
		(end 3.133333 8.255)
		(stroke
			(width 0.12)
			(type solid)
		)
		(fill solid)
		(layer "F.SilkS")
	)
	(fp_rect
		(start 1.78 6.985)
		(end 5.84 8.255)
		(stroke
			(width 0.12)
			(type solid)
		)
		(fill none)
		(layer "F.SilkS")
	)
	(fp_rect
		(start 1.78 9.525)
		(end 3.133333 10.795)
		(stroke
			(width 0.12)
			(type solid)
		)
		(fill solid)
		(layer "F.SilkS")
	)
	(fp_rect
		(start 1.78 9.525)
		(end 5.84 10.795)
		(stroke
			(width 0.12)
			(type solid)
		)
		(fill none)
		(layer "F.SilkS")
	)
	(fp_rect
		(start 1.78 12.065)
		(end 3.133333 13.335)
		(stroke
			(width 0.12)
			(type solid)
		)
		(fill solid)
		(layer "F.SilkS")
	)
	(fp_rect
		(start 1.78 12.065)
		(end 5.84 13.335)
		(stroke
			(width 0.12)
			(type solid)
		)
		(fill none)
		(layer "F.SilkS")
	)
	(fp_rect
		(start 1.78 14.605)
		(end 3.133333 15.875)
		(stroke
			(width 0.12)
			(type solid)
		)
		(fill solid)
		(layer "F.SilkS")
	)
	(fp_rect
		(start 1.78 14.605)
		(end 5.84 15.875)
		(stroke
			(width 0.12)
			(type solid)
		)
		(fill none)
		(layer "F.SilkS")
	)
	(fp_rect
		(start 1.78 17.145)
		(end 3.133333 18.415)
		(stroke
			(width 0.12)
			(type solid)
		)
		(fill solid)
		(layer "F.SilkS")
	)
	(fp_rect
		(start 1.78 17.145)
		(end 5.84 18.415)
		(stroke
			(width 0.12)
			(type solid)
		)
		(fill none)
		(layer "F.SilkS")
	)
	(fp_rect
		(start 1.78 19.685)
		(end 3.133333 20.955)
		(stroke
			(width 0.12)
			(type solid)
		)
		(fill solid)
		(layer "F.SilkS")
	)
	(fp_rect
		(start 1.78 19.685)
		(end 5.84 20.955)
		(stroke
			(width 0.12)
			(type solid)
		)
		(fill none)
		(layer "F.SilkS")
	)
	(fp_rect
		(start -1.33 -2.67)
		(end 8.95 22.99)
		(stroke
			(width 0.05)
			(type solid)
		)
		(fill none)
		(layer "F.CrtYd")
	)
	(fp_line
		(start -1.08 -1.36)
		(end -0.08 -2.36)
		(stroke
			(width 0.1)
			(type solid)
		)
		(layer "F.Fab")
	)
	(fp_line
		(start -1.08 22.68)
		(end -1.08 -1.36)
		(stroke
			(width 0.1)
			(type solid)
		)
		(layer "F.Fab")
	)
	(fp_line
		(start -0.08 -2.36)
		(end 8.7 -2.36)
		(stroke
			(width 0.1)
			(type solid)
		)
		(layer "F.Fab")
	)
	(fp_line
		(start 3.133333 -0.635)
		(end 3.133333 0.635)
		(stroke
			(width 0.1)
			(type solid)
		)
		(layer "F.Fab")
	)
	(fp_line
		(start 3.133333 1.905)
		(end 3.133333 3.175)
		(stroke
			(width 0.1)
			(type solid)
		)
		(layer "F.Fab")
	)
	(fp_line
		(start 3.133333 4.445)
		(end 3.133333 5.715)
		(stroke
			(width 0.1)
			(type solid)
		)
		(layer "F.Fab")
	)
	(fp_line
		(start 3.133333 6.985)
		(end 3.133333 8.255)
		(stroke
			(width 0.1)
			(type solid)
		)
		(layer "F.Fab")
	)
	(fp_line
		(start 3.133333 9.525)
		(end 3.133333 10.795)
		(stroke
			(width 0.1)
			(type solid)
		)
		(layer "F.Fab")
	)
	(fp_line
		(start 3.133333 12.065)
		(end 3.133333 13.335)
		(stroke
			(width 0.1)
			(type solid)
		)
		(layer "F.Fab")
	)
	(fp_line
		(start 3.133333 14.605)
		(end 3.133333 15.875)
		(stroke
			(width 0.1)
			(type solid)
		)
		(layer "F.Fab")
	)
	(fp_line
		(start 3.133333 17.145)
		(end 3.133333 18.415)
		(stroke
			(width 0.1)
			(type solid)
		)
		(layer "F.Fab")
	)
	(fp_line
		(start 3.133333 19.685)
		(end 3.133333 20.955)
		(stroke
			(width 0.1)
			(type solid)
		)
		(layer "F.Fab")
	)
	(fp_line
		(start 8.7 -2.36)
		(end 8.7 22.68)
		(stroke
			(width 0.1)
			(type solid)
		)
		(layer "F.Fab")
	)
	(fp_line
		(start 8.7 22.68)
		(end -1.08 22.68)
		(stroke
			(width 0.1)
			(type solid)
		)
		(layer "F.Fab")
	)
	(fp_rect
		(start 1.78 -0.635)
		(end 3.133333 0.635)
		(stroke
			(width 0.1)
			(type solid)
		)
		(fill solid)
		(layer "F.Fab")
	)
	(fp_rect
		(start 1.78 -0.635)
		(end 5.84 0.635)
		(stroke
			(width 0.1)
			(type solid)
		)
		(fill none)
		(layer "F.Fab")
	)
	(fp_rect
		(start 1.78 1.905)
		(end 3.133333 3.175)
		(stroke
			(width 0.1)
			(type solid)
		)
		(fill solid)
		(layer "F.Fab")
	)
	(fp_rect
		(start 1.78 1.905)
		(end 5.84 3.175)
		(stroke
			(width 0.1)
			(type solid)
		)
		(fill none)
		(layer "F.Fab")
	)
	(fp_rect
		(start 1.78 4.445)
		(end 3.133333 5.715)
		(stroke
			(width 0.1)
			(type solid)
		)
		(fill solid)
		(layer "F.Fab")
	)
	(fp_rect
		(start 1.78 4.445)
		(end 5.84 5.715)
		(stroke
			(width 0.1)
			(type solid)
		)
		(fill none)
		(layer "F.Fab")
	)
	(fp_rect
		(start 1.78 6.985)
		(end 3.133333 8.255)
		(stroke
			(width 0.1)
			(type solid)
		)
		(fill solid)
		(layer "F.Fab")
	)
	(fp_rect
		(start 1.78 6.985)
		(end 5.84 8.255)
		(stroke
			(width 0.1)
			(type solid)
		)
		(fill none)
		(layer "F.Fab")
	)
	(fp_rect
		(start 1.78 9.525)
		(end 3.133333 10.795)
		(stroke
			(width 0.1)
			(type solid)
		)
		(fill solid)
		(layer "F.Fab")
	)
	(fp_rect
		(start 1.78 9.525)
		(end 5.84 10.795)
		(stroke
			(width 0.1)
			(type solid)
		)
		(fill none)
		(layer "F.Fab")
	)
	(fp_rect
		(start 1.78 12.065)
		(end 3.133333 13.335)
		(stroke
			(width 0.1)
			(type solid)
		)
		(fill solid)
		(layer "F.Fab")
	)
	(fp_rect
		(start 1.78 12.065)
		(end 5.84 13.335)
		(stroke
			(width 0.1)
			(type solid)
		)
		(fill none)
		(layer "F.Fab")
	)
	(fp_rect
		(start 1.78 14.605)
		(end 3.133333 15.875)
		(stroke
			(width 0.1)
			(type solid)
		)
		(fill solid)
		(layer "F.Fab")
	)
	(fp_rect
		(start 1.78 14.605)
		(end 5.84 15.875)
		(stroke
			(width 0.1)
			(type solid)
		)
		(fill none)
		(layer "F.Fab")
	)
	(fp_rect
		(start 1.78 17.145)
		(end 3.133333 18.415)
		(stroke
			(width 0.1)
			(type solid)
		)
		(fill solid)
		(layer "F.Fab")
	)
	(fp_rect
		(start 1.78 17.145)
		(end 5.84 18.415)
		(stroke
			(width 0.1)
			(type solid)
		)
		(fill none)
		(layer "F.Fab")
	)
	(fp_rect
		(start 1.78 19.685)
		(end 3.133333 20.955)
		(stroke
			(width 0.1)
			(type solid)
		)
		(fill solid)
		(layer "F.Fab")
	)
	(fp_rect
		(start 1.78 19.685)
		(end 5.84 20.955)
		(stroke
			(width 0.1)
			(type solid)
		)
		(fill none)
		(layer "F.Fab")
	)
	(fp_text user "${REFERENCE}"
		(at 7.27 10.16 90)
		(layer "F.Fab")
		(effects
			(font
				(size 0.8 0.8)
				(thickness 0.12)
			)
		)
	)
	(fp_text user "on"
		(at 5.365 -1.4975 0)
		(layer "F.Fab")
		(effects
			(font
				(size 0.8 0.8)
				(thickness 0.12)
			)
		)
	)
	(pad "1" thru_hole roundrect
		(at 0 0)
		(size 1.6 1.6)
		(drill 0.8)
		(layers "*.Cu" "*.Mask")
		(remove_unused_layers no)
		(roundrect_rratio 0.15625)
	)
	(pad "2" thru_hole circle
		(at 0 2.54)
		(size 1.6 1.6)
		(drill 0.8)
		(layers "*.Cu" "*.Mask")
		(remove_unused_layers no)
	)
	(pad "3" thru_hole circle
		(at 0 5.08)
		(size 1.6 1.6)
		(drill 0.8)
		(layers "*.Cu" "*.Mask")
		(remove_unused_layers no)
	)
	(pad "4" thru_hole circle
		(at 0 7.62)
		(size 1.6 1.6)
		(drill 0.8)
		(layers "*.Cu" "*.Mask")
		(remove_unused_layers no)
	)
	(pad "5" thru_hole circle
		(at 0 10.16)
		(size 1.6 1.6)
		(drill 0.8)
		(layers "*.Cu" "*.Mask")
		(remove_unused_layers no)
	)
	(pad "6" thru_hole circle
		(at 0 12.7)
		(size 1.6 1.6)
		(drill 0.8)
		(layers "*.Cu" "*.Mask")
		(remove_unused_layers no)
	)
	(pad "7" thru_hole circle
		(at 0 15.24)
		(size 1.6 1.6)
		(drill 0.8)
		(layers "*.Cu" "*.Mask")
		(remove_unused_layers no)
	)
	(pad "8" thru_hole circle
		(at 0 17.78)
		(size 1.6 1.6)
		(drill 0.8)
		(layers "*.Cu" "*.Mask")
		(remove_unused_layers no)
	)
	(pad "9" thru_hole circle
		(at 0 20.32)
		(size 1.6 1.6)
		(drill 0.8)
		(layers "*.Cu" "*.Mask")
		(remove_unused_layers no)
	)
	(pad "10" thru_hole circle
		(at 7.62 20.32)
		(size 1.6 1.6)
		(drill 0.8)
		(layers "*.Cu" "*.Mask")
		(remove_unused_layers no)
	)
	(pad "11" thru_hole circle
		(at 7.62 17.78)
		(size 1.6 1.6)
		(drill 0.8)
		(layers "*.Cu" "*.Mask")
		(remove_unused_layers no)
	)
	(pad "12" thru_hole circle
		(at 7.62 15.24)
		(size 1.6 1.6)
		(drill 0.8)
		(layers "*.Cu" "*.Mask")
		(remove_unused_layers no)
	)
	(pad "13" thru_hole circle
		(at 7.62 12.7)
		(size 1.6 1.6)
		(drill 0.8)
		(layers "*.Cu" "*.Mask")
		(remove_unused_layers no)
	)
	(pad "14" thru_hole circle
		(at 7.62 10.16)
		(size 1.6 1.6)
		(drill 0.8)
		(layers "*.Cu" "*.Mask")
		(remove_unused_layers no)
	)
	(pad "15" thru_hole circle
		(at 7.62 7.62)
		(size 1.6 1.6)
		(drill 0.8)
		(layers "*.Cu" "*.Mask")
		(remove_unused_layers no)
	)
	(pad "16" thru_hole circle
		(at 7.62 5.08)
		(size 1.6 1.6)
		(drill 0.8)
		(layers "*.Cu" "*.Mask")
		(remove_unused_layers no)
	)
	(pad "17" thru_hole circle
		(at 7.62 2.54)
		(size 1.6 1.6)
		(drill 0.8)
		(layers "*.Cu" "*.Mask")
		(remove_unused_layers no)
	)
	(pad "18" thru_hole circle
		(at 7.62 0)
		(size 1.6 1.6)
		(drill 0.8)
		(layers "*.Cu" "*.Mask")
		(remove_unused_layers no)
	)
	(model "${KICAD8_3DMODEL_DIR}/Button_Switch_THT.3dshapes/SW_DIP_SPSTx09_Slide_9.78x25.04mm_W7.62mm_P2.54mm.wrl"
		(offset
			(xyz 0 0 0)
		)
		(scale
			(xyz 1 1 1)
		)
		(rotate
			(xyz 0 0 90)
		)
	)
)
