(module "SOT230P700X180-4N" (layer F.Cu)
  (descr "SOT-223 (S)-ren1")
  (tags "Integrated Circuit")
  (attr smd)
  (fp_text reference IC** (at 0 0) (layer F.SilkS)
    (effects (font (size 1.27 1.27) (thickness 0.254)))
  )
  (fp_text user %R (at 0 0) (layer F.Fab)
    (effects (font (size 1.27 1.27) (thickness 0.254)))
  )
  (fp_text value "SOT230P700X180-4N" (at 0 0) (layer F.SilkS) hide
    (effects (font (size 1.27 1.27) (thickness 0.254)))
  )
  (fp_line (start -4.275 -3.6) (end 4.275 -3.6) (layer F.CrtYd) (width 0.05))
  (fp_line (start 4.275 -3.6) (end 4.275 3.6) (layer F.CrtYd) (width 0.05))
  (fp_line (start 4.275 3.6) (end -4.275 3.6) (layer F.CrtYd) (width 0.05))
  (fp_line (start -4.275 3.6) (end -4.275 -3.6) (layer F.CrtYd) (width 0.05))
  (fp_line (start -1.75 -3.25) (end 1.75 -3.25) (layer F.Fab) (width 0.1))
  (fp_line (start 1.75 -3.25) (end 1.75 3.25) (layer F.Fab) (width 0.1))
  (fp_line (start 1.75 3.25) (end -1.75 3.25) (layer F.Fab) (width 0.1))
  (fp_line (start -1.75 3.25) (end -1.75 -3.25) (layer F.Fab) (width 0.1))
  (fp_line (start -1.75 -0.95) (end 0.55 -3.25) (layer F.Fab) (width 0.1))
  (fp_line (start -1.75 -3.25) (end 1.75 -3.25) (layer F.SilkS) (width 0.2))
  (fp_line (start 1.75 -3.25) (end 1.75 3.25) (layer F.SilkS) (width 0.2))
  (fp_line (start 1.75 3.25) (end -1.75 3.25) (layer F.SilkS) (width 0.2))
  (fp_line (start -1.75 3.25) (end -1.75 -3.25) (layer F.SilkS) (width 0.2))
  (fp_line (start -4.025 -3.125) (end -2.275 -3.125) (layer F.SilkS) (width 0.2))
  (pad 1 smd rect (at -3.15 -2.3 90) (size 0.95 1.75) (layers F.Cu F.Paste F.Mask))
  (pad 2 smd rect (at -3.15 0 90) (size 0.95 1.75) (layers F.Cu F.Paste F.Mask))
  (pad 3 smd rect (at -3.15 2.3 90) (size 0.95 1.75) (layers F.Cu F.Paste F.Mask))
  (pad 4 smd rect (at 3.15 0 0) (size 1.75 3.25) (layers F.Cu F.Paste F.Mask))
  (model MIC5209-5.0YS.stp
    (at (xyz 0 0 0))
    (scale (xyz 1 1 1))
    (rotate (xyz 0 0 0))
  )
)
