(module "AYZ0102AGRLC" (layer F.Cu)
  (descr "AYZ0102AGRLC")
  (tags "Switch")
  (fp_text reference S** (at 0.000 0) (layer F.SilkS)
    (effects (font (size 1.27 1.27) (thickness 0.254)))
  )
  (fp_text user %R (at 0.000 0) (layer F.Fab)
    (effects (font (size 1.27 1.27) (thickness 0.254)))
  )
  (fp_text value "AYZ0102AGRLC" (at 0.000 0) (layer F.SilkS) hide
    (effects (font (size 1.27 1.27) (thickness 0.254)))
  )
  (fp_line (start -3.6 -0.95) (end 3.6 -0.95) (layer F.Fab) (width 0.2))
  (fp_line (start 3.6 -0.95) (end 3.6 2.05) (layer F.Fab) (width 0.2))
  (fp_line (start 3.6 2.05) (end -3.6 2.05) (layer F.Fab) (width 0.2))
  (fp_line (start -3.6 2.05) (end -3.6 -0.95) (layer F.Fab) (width 0.2))
  (fp_line (start -3.6 -0.95) (end 3.6 -0.95) (layer F.SilkS) (width 0.1))
  (fp_line (start 3.6 -0.95) (end 3.6 2.05) (layer F.SilkS) (width 0.1))
  (fp_line (start 3.6 2.05) (end -3.6 2.05) (layer F.SilkS) (width 0.1))
  (fp_line (start -3.6 2.05) (end -3.6 -0.95) (layer F.SilkS) (width 0.1))
  (fp_line (start -4.6 -4.05) (end 4.6 -4.05) (layer F.CrtYd) (width 0.1))
  (fp_line (start 4.6 -4.05) (end 4.6 4.05) (layer F.CrtYd) (width 0.1))
  (fp_line (start 4.6 4.05) (end -4.6 4.05) (layer F.CrtYd) (width 0.1))
  (fp_line (start -4.6 4.05) (end -4.6 -4.05) (layer F.CrtYd) (width 0.1))
  (fp_line (start -2.6 -2.95) (end -2.6 -2.95) (layer F.SilkS) (width 0.2))
  (fp_line (start -2.4 -2.95) (end -2.4 -2.95) (layer F.SilkS) (width 0.2))
  (fp_line (start 0 2.05) (end 0 3.05) (layer F.Fab) (width 0.2))
  (fp_line (start 0 3.05) (end -1.5 3.05) (layer F.Fab) (width 0.2))
  (fp_line (start -1.5 3.05) (end -1.5 2.05) (layer F.Fab) (width 0.2))
  (fp_line (start -1.5 2.05) (end -1.5 3.05) (layer F.SilkS) (width 0.1))
  (fp_line (start -1.5 3.05) (end 0 3.05) (layer F.SilkS) (width 0.1))
  (fp_line (start 0 3.05) (end 0 2.05) (layer F.SilkS) (width 0.1))
  (fp_arc (start -2.5 -2.95) (end -2.600 -2.95) (angle 180) (layer F.SilkS) (width 0.2))
  (fp_arc (start -2.5 -2.95) (end -2.400 -2.95) (angle 180) (layer F.SilkS) (width 0.2))
  (pad 1 smd rect (at -2.500 -2.05 0) (size 1.000 1.200) (layers F.Cu F.Paste F.Mask))
  (pad 2 smd rect (at 0.000 -2.05 0) (size 1.000 1.200) (layers F.Cu F.Paste F.Mask))
  (pad 3 smd rect (at 2.500 -2.05 0) (size 1.000 1.200) (layers F.Cu F.Paste F.Mask))
  (pad 4 thru_hole circle (at -1.500 0.55) (size 1.381 1.381) (drill 0.85) (layers *.Cu *.Mask))
  (pad 5 thru_hole circle (at 1.500 0.55) (size 1.381 1.381) (drill 0.85) (layers *.Cu *.Mask))
  (model AYZ0102AGRLC.stp
    (at (xyz 0 -0.020866140605896 0.029527559055118))
    (scale (xyz 1 1 1))
    (rotate (xyz 0 0 0))
  )
)
