
(footprint SOIC127P600X175-14N (layer F.Cu) (tedit 65DDC0AA)
  (descr "")
  (attr smd)
  (fp_text reference REF** (at -0.425 -5.435 0) (layer F.SilkS)
    (effects (font (size 1.0 1.0) (thickness 0.15)))
  )
  (fp_text value SOIC127P600X175-14N (at 8.465 5.435 0) (layer F.Fab)
    (effects (font (size 1.0 1.0) (thickness 0.15)))
  )
  (pad 1 smd roundrect (roundrect_rratio 0.15) (at -2.475 -3.81) (size 1.97 0.6) (layers F.Cu F.Mask F.Paste) (solder_mask_margin 0.102))
  (pad 2 smd roundrect (roundrect_rratio 0.15) (at -2.475 -2.54) (size 1.97 0.6) (layers F.Cu F.Mask F.Paste) (solder_mask_margin 0.102))
  (pad 3 smd roundrect (roundrect_rratio 0.15) (at -2.475 -1.27) (size 1.97 0.6) (layers F.Cu F.Mask F.Paste) (solder_mask_margin 0.102))
  (pad 4 smd roundrect (roundrect_rratio 0.15) (at -2.475 0.0) (size 1.97 0.6) (layers F.Cu F.Mask F.Paste) (solder_mask_margin 0.102))
  (pad 5 smd roundrect (roundrect_rratio 0.15) (at -2.475 1.27) (size 1.97 0.6) (layers F.Cu F.Mask F.Paste) (solder_mask_margin 0.102))
  (pad 6 smd roundrect (roundrect_rratio 0.15) (at -2.475 2.54) (size 1.97 0.6) (layers F.Cu F.Mask F.Paste) (solder_mask_margin 0.102))
  (pad 7 smd roundrect (roundrect_rratio 0.15) (at -2.475 3.81) (size 1.97 0.6) (layers F.Cu F.Mask F.Paste) (solder_mask_margin 0.102))
  (pad 8 smd roundrect (roundrect_rratio 0.15) (at 2.475 3.81) (size 1.97 0.6) (layers F.Cu F.Mask F.Paste) (solder_mask_margin 0.102))
  (pad 9 smd roundrect (roundrect_rratio 0.15) (at 2.475 2.54) (size 1.97 0.6) (layers F.Cu F.Mask F.Paste) (solder_mask_margin 0.102))
  (pad 10 smd roundrect (roundrect_rratio 0.15) (at 2.475 1.27) (size 1.97 0.6) (layers F.Cu F.Mask F.Paste) (solder_mask_margin 0.102))
  (pad 11 smd roundrect (roundrect_rratio 0.15) (at 2.475 0.0) (size 1.97 0.6) (layers F.Cu F.Mask F.Paste) (solder_mask_margin 0.102))
  (pad 12 smd roundrect (roundrect_rratio 0.15) (at 2.475 -1.27) (size 1.97 0.6) (layers F.Cu F.Mask F.Paste) (solder_mask_margin 0.102))
  (pad 13 smd roundrect (roundrect_rratio 0.15) (at 2.475 -2.54) (size 1.97 0.6) (layers F.Cu F.Mask F.Paste) (solder_mask_margin 0.102))
  (pad 14 smd roundrect (roundrect_rratio 0.15) (at 2.475 -3.81) (size 1.97 0.6) (layers F.Cu F.Mask F.Paste) (solder_mask_margin 0.102))
  (fp_line (start -1.17 4.325) (end 1.17 4.325) (layer F.SilkS) (width 0.127))
  (fp_line (start -1.17 -4.325) (end 1.17 -4.325) (layer F.SilkS) (width 0.127))
  (fp_line (start -1.95 -4.325) (end 1.95 -4.325) (layer F.Fab) (width 0.127))
  (fp_line (start 1.95 -4.325) (end 1.95 4.325) (layer F.Fab) (width 0.127))
  (fp_line (start 1.95 4.325) (end -1.95 4.325) (layer F.Fab) (width 0.127))
  (fp_line (start -1.95 4.325) (end -1.95 -4.325) (layer F.Fab) (width 0.127))
  (fp_line (start -3.71 -4.575) (end 3.71 -4.575) (layer F.CrtYd) (width 0.05))
  (fp_line (start 3.71 -4.575) (end 3.71 4.575) (layer F.CrtYd) (width 0.05))
  (fp_line (start 3.71 4.575) (end -3.71 4.575) (layer F.CrtYd) (width 0.05))
  (fp_line (start -3.71 4.575) (end -3.71 -4.575) (layer F.CrtYd) (width 0.05))
  (fp_circle (center -4.05 -4.1) (end -3.95 -4.1) (layer F.SilkS) (width 0.2))
  (fp_circle (center -4.05 -4.1) (end -3.95 -4.1) (layer F.Fab) (width 0.2))
)