(footprint "ESP32-S3-MINI-1_HandSoldering"
	(version 20240108)
	(generator "pcbnew")
	(generator_version "8.0")
	(layer "F.Cu")
	(descr "ESP32-S2-MINI-1 and ESP32-S2-MINI-1U: https://www.espressif.com/sites/default/files/documentation/esp32-s2-mini-1_esp32-s2-mini-1u_datasheet_en.pdf")
	(tags "ESP32-S2 Hand Soldering")
	(property "Reference" "REF**"
		(at 0 -13.4 0)
		(layer "F.SilkS")
		(uuid "c900f749-30fa-48eb-90d6-11b444667a79")
		(effects
			(font
				(size 1 1)
				(thickness 0.15)
			)
		)
	)
	(property "Value" "ESP32-S3-MINI-1_HandSoldering"
		(at 0 9.4 0)
		(layer "F.Fab")
		(uuid "07370b27-158a-4455-a1fb-45de038393a4")
		(effects
			(font
				(size 1 1)
				(thickness 0.15)
			)
		)
	)
	(property "Footprint" ""
		(at 0 0 0)
		(unlocked yes)
		(layer "F.Fab")
		(hide yes)
		(uuid "778c2fd9-42ef-4a54-9f38-d810e484dc04")
		(effects
			(font
				(size 1.27 1.27)
			)
		)
	)
	(property "Datasheet" ""
		(at 0 0 0)
		(unlocked yes)
		(layer "F.Fab")
		(hide yes)
		(uuid "08b7971e-70a0-473e-a067-d5a0bda9401c")
		(effects
			(font
				(size 1.27 1.27)
			)
		)
	)
	(property "Description" ""
		(at 0 0 0)
		(unlocked yes)
		(layer "F.Fab")
		(hide yes)
		(uuid "c7a20784-9de7-4f96-a1e7-65db2b7059e1")
		(effects
			(font
				(size 1.27 1.27)
			)
		)
	)
	(attr smd)
	(fp_line
		(start -8 -12.45)
		(end -6.95 -12.45)
		(stroke
			(width 0.12)
			(type solid)
		)
		(layer "F.SilkS")
		(uuid "4642674f-2dff-4fdb-9314-99c5413436cd")
	)
	(fp_line
		(start -7.7 -12.3)
		(end -7.7 -7.7)
		(stroke
			(width 0.12)
			(type solid)
		)
		(layer "F.SilkS")
		(uuid "edf5c03e-8457-4181-a57a-e01f36e1294a")
	)
	(fp_line
		(start -7.7 -12.3)
		(end 7.7 -12.3)
		(stroke
			(width 0.12)
			(type solid)
		)
		(layer "F.SilkS")
		(uuid "49ac441b-d878-41f1-9ca3-f13091a916a5")
	)
	(fp_line
		(start 6.8 -12.45)
		(end 7.85 -12.45)
		(stroke
			(width 0.12)
			(type solid)
		)
		(layer "F.SilkS")
		(uuid "8bbfd3c0-2ace-4089-95f4-98c7b5dcd954")
	)
	(fp_line
		(start 7.7 -12.3)
		(end 7.7 -7.7)
		(stroke
			(width 0.12)
			(type solid)
		)
		(layer "F.SilkS")
		(uuid "6a4fc5be-6876-4495-9321-79ec7b561b2d")
	)
	(fp_line
		(start 7.85 -12.45)
		(end 7.85 -11.4)
		(stroke
			(width 0.12)
			(type solid)
		)
		(layer "F.SilkS")
		(uuid "b7a3823e-7340-417b-9709-17c45c0b343a")
	)
	(fp_line
		(start -8 -12.6)
		(end -8 8)
		(stroke
			(width 0.12)
			(type solid)
		)
		(layer "F.CrtYd")
		(uuid "f863844a-7279-437a-ae63-562d28a88e92")
	)
	(fp_line
		(start -8 8)
		(end 8 8)
		(stroke
			(width 0.12)
			(type solid)
		)
		(layer "F.CrtYd")
		(uuid "ef80188e-2c34-4bb0-b9de-9df20d0b852a")
	)
	(fp_line
		(start 8 -12.6)
		(end -8 -12.6)
		(stroke
			(width 0.12)
			(type solid)
		)
		(layer "F.CrtYd")
		(uuid "44e59e3f-abea-414e-8a12-a253fac94483")
	)
	(fp_line
		(start 8 8)
		(end 8 -12.6)
		(stroke
			(width 0.12)
			(type solid)
		)
		(layer "F.CrtYd")
		(uuid "b86f27ad-7fa5-4eb4-bae5-6af48cdfb3bf")
	)
	(fp_line
		(start -7.7 -7.7)
		(end -7.7 7.7)
		(stroke
			(width 0.15)
			(type solid)
		)
		(layer "F.Fab")
		(uuid "239c56d1-9cb1-414c-97e5-dcbe8211b2ba")
	)
	(fp_line
		(start -7.7 7.7)
		(end 7.7 7.7)
		(stroke
			(width 0.15)
			(type solid)
		)
		(layer "F.Fab")
		(uuid "8c56c6ba-0057-4349-a882-633a569afeeb")
	)
	(fp_line
		(start 7.7 -7.7)
		(end -7.7 -7.7)
		(stroke
			(width 0.15)
			(type solid)
		)
		(layer "F.Fab")
		(uuid "3a0b6f82-5767-4ac6-bf68-853538c1ee1f")
	)
	(fp_line
		(start 7.7 7.7)
		(end 7.7 -7.7)
		(stroke
			(width 0.15)
			(type solid)
		)
		(layer "F.Fab")
		(uuid "eb1d86cd-a912-45b8-b879-1e446c351161")
	)
	(fp_text user "Antenna Area"
		(at 0 -10.45 0)
		(layer "F.SilkS")
		(uuid "d4c76236-ef2b-4722-902a-a9282048ec18")
		(effects
			(font
				(size 1 1)
				(thickness 0.15)
			)
		)
	)
	(fp_text user "${REFERENCE}"
		(at 0 0 0)
		(layer "F.Fab")
		(uuid "3ab666b1-7bf4-408f-9f80-922851d28294")
		(effects
			(font
				(size 1 1)
				(thickness 0.15)
			)
		)
	)
	(pad "1" smd rect
		(at -7.5 -5.95 90)
		(size 0.4 1.8)
		(layers "F.Cu" "F.Paste" "F.Mask")
		(uuid "f8465989-2742-4b4c-8cfb-2c37a8ddac2a")
	)
	(pad "2" smd rect
		(at -7.508 -5.1 90)
		(size 0.4 1.8)
		(layers "F.Cu" "F.Paste" "F.Mask")
		(uuid "17087e46-0ed6-474d-82ac-2c0ee404dfd3")
	)
	(pad "3" smd rect
		(at -7.508 -4.25 90)
		(size 0.4 1.8)
		(layers "F.Cu" "F.Paste" "F.Mask")
		(uuid "504813d8-ac02-4268-9012-f5868abf7d63")
	)
	(pad "4" smd rect
		(at -7.508 -3.4 90)
		(size 0.4 1.8)
		(layers "F.Cu" "F.Paste" "F.Mask")
		(uuid "3c993764-0923-4116-9bdd-b03e68a59fec")
	)
	(pad "5" smd rect
		(at -7.508 -2.55 90)
		(size 0.4 1.8)
		(layers "F.Cu" "F.Paste" "F.Mask")
		(uuid "3c499b87-ecbc-46f3-9628-0110ee44068a")
	)
	(pad "6" smd rect
		(at -7.508 -1.7 90)
		(size 0.4 1.8)
		(layers "F.Cu" "F.Paste" "F.Mask")
		(uuid "4e11ecd8-2aa8-438c-833f-431a37e74507")
	)
	(pad "7" smd rect
		(at -7.508 -0.85 90)
		(size 0.4 1.8)
		(layers "F.Cu" "F.Paste" "F.Mask")
		(uuid "abd8e043-f190-4944-8ffa-166ca262d922")
	)
	(pad "8" smd rect
		(at -7.508 0 90)
		(size 0.4 1.8)
		(layers "F.Cu" "F.Paste" "F.Mask")
		(uuid "7f0fa43c-7b91-4754-b1cb-d701f5a9e7ae")
	)
	(pad "9" smd rect
		(at -7.508 0.85 90)
		(size 0.4 1.8)
		(layers "F.Cu" "F.Paste" "F.Mask")
		(uuid "27cbd317-3df9-4d45-84bb-40f111ed197b")
	)
	(pad "10" smd rect
		(at -7.508 1.7 90)
		(size 0.4 1.8)
		(layers "F.Cu" "F.Paste" "F.Mask")
		(uuid "60426124-ab62-4e32-8c34-26d9e3e6882d")
	)
	(pad "11" smd rect
		(at -7.508 2.55 90)
		(size 0.4 1.8)
		(layers "F.Cu" "F.Paste" "F.Mask")
		(uuid "a7d75d83-5880-4c42-b712-89b0198f17ce")
	)
	(pad "12" smd rect
		(at -7.508 3.4 90)
		(size 0.4 1.8)
		(layers "F.Cu" "F.Paste" "F.Mask")
		(uuid "02d19098-0f45-4015-8321-63222760cb4e")
	)
	(pad "13" smd rect
		(at -7.508 4.25 90)
		(size 0.4 1.8)
		(layers "F.Cu" "F.Paste" "F.Mask")
		(uuid "1aa98b62-440d-4aa3-a0f9-2199bc6577ff")
	)
	(pad "14" smd rect
		(at -7.508 5.1 90)
		(size 0.4 1.8)
		(layers "F.Cu" "F.Paste" "F.Mask")
		(uuid "dcbd76a4-bfa9-41ee-992a-b7bad75c2bb6")
	)
	(pad "15" smd rect
		(at -7.508 5.95 90)
		(size 0.4 1.8)
		(layers "F.Cu" "F.Paste" "F.Mask")
		(uuid "4d8ffbb9-4b7c-4337-81da-35463caa6407")
	)
	(pad "16" smd rect
		(at -5.95 7.5)
		(size 0.4 1.8)
		(layers "F.Cu" "F.Paste" "F.Mask")
		(uuid "dd09b6da-00c7-4963-89f5-55c51b7e7766")
	)
	(pad "17" smd rect
		(at -5.1 7.5)
		(size 0.4 1.8)
		(layers "F.Cu" "F.Paste" "F.Mask")
		(uuid "a313ceca-ebba-4232-b470-ab54890e8eea")
	)
	(pad "18" smd rect
		(at -4.25 7.5)
		(size 0.4 1.8)
		(layers "F.Cu" "F.Paste" "F.Mask")
		(uuid "236af729-fb24-445a-9794-b39d39941dca")
	)
	(pad "19" smd rect
		(at -3.4 7.5)
		(size 0.4 1.8)
		(layers "F.Cu" "F.Paste" "F.Mask")
		(uuid "b6db7074-e086-43af-9578-03f8ede547de")
	)
	(pad "20" smd rect
		(at -2.55 7.5)
		(size 0.4 1.8)
		(layers "F.Cu" "F.Paste" "F.Mask")
		(uuid "31a3f521-86b4-412d-a2af-82d3ff056152")
	)
	(pad "21" smd rect
		(at -1.7 7.5)
		(size 0.4 1.8)
		(layers "F.Cu" "F.Paste" "F.Mask")
		(uuid "b5e0ef61-1332-426f-a457-afc5114dbcb2")
	)
	(pad "22" smd rect
		(at -0.85 7.5)
		(size 0.4 1.8)
		(layers "F.Cu" "F.Paste" "F.Mask")
		(uuid "14ab16c7-72c5-43d8-881f-b62fd26984e2")
	)
	(pad "23" smd rect
		(at 0 7.5)
		(size 0.4 1.8)
		(layers "F.Cu" "F.Paste" "F.Mask")
		(uuid "b7f316c8-d5b0-4381-99d3-55a0b54fa48e")
	)
	(pad "24" smd rect
		(at 0.85 7.5)
		(size 0.4 1.8)
		(layers "F.Cu" "F.Paste" "F.Mask")
		(uuid "740d808e-81c5-443d-b28d-65c820283f9a")
	)
	(pad "25" smd rect
		(at 1.7 7.5)
		(size 0.4 1.8)
		(layers "F.Cu" "F.Paste" "F.Mask")
		(uuid "7d69f119-3fe6-4c8a-8dea-0583a2fec479")
	)
	(pad "26" smd rect
		(at 2.55 7.5)
		(size 0.4 1.8)
		(layers "F.Cu" "F.Paste" "F.Mask")
		(uuid "a32cdea8-5655-464a-9379-16ce6ee4b652")
	)
	(pad "27" smd rect
		(at 3.4 7.5)
		(size 0.4 1.8)
		(layers "F.Cu" "F.Paste" "F.Mask")
		(uuid "93d7c82f-7469-438e-819d-f466ef631375")
	)
	(pad "28" smd rect
		(at 4.25 7.5)
		(size 0.4 1.8)
		(layers "F.Cu" "F.Paste" "F.Mask")
		(uuid "0a00c5de-a282-4a3f-afa7-486015ba1239")
	)
	(pad "29" smd rect
		(at 5.1 7.5)
		(size 0.4 1.8)
		(layers "F.Cu" "F.Paste" "F.Mask")
		(uuid "a0f890c5-ed4d-443c-983c-599ef132422c")
	)
	(pad "30" smd rect
		(at 5.95 7.5)
		(size 0.4 1.8)
		(layers "F.Cu" "F.Paste" "F.Mask")
		(uuid "aeacec52-02b6-4d92-afbb-ffce24322b4e")
	)
	(pad "31" smd rect
		(at 7.508 5.95 90)
		(size 0.4 1.8)
		(layers "F.Cu" "F.Paste" "F.Mask")
		(uuid "b92d5a47-ff25-4ec5-b747-251d0bd1563e")
	)
	(pad "32" smd rect
		(at 7.508 5.1 90)
		(size 0.4 1.8)
		(layers "F.Cu" "F.Paste" "F.Mask")
		(uuid "0a10b6b5-e15c-4e07-9664-2adc2bcdb78a")
	)
	(pad "33" smd rect
		(at 7.508 4.25 90)
		(size 0.4 1.8)
		(layers "F.Cu" "F.Paste" "F.Mask")
		(uuid "b054720c-15b3-4dbe-bbb7-f07b87b537a2")
	)
	(pad "34" smd rect
		(at 7.508 3.4 90)
		(size 0.4 1.8)
		(layers "F.Cu" "F.Paste" "F.Mask")
		(uuid "a70a7c4d-7c25-4dff-8415-6868694584af")
	)
	(pad "35" smd rect
		(at 7.508 2.55 90)
		(size 0.4 1.8)
		(layers "F.Cu" "F.Paste" "F.Mask")
		(uuid "7f56d554-fe29-465b-b6ff-4abfcbd31697")
	)
	(pad "36" smd rect
		(at 7.508 1.7 90)
		(size 0.4 1.8)
		(layers "F.Cu" "F.Paste" "F.Mask")
		(uuid "057e4241-8bbc-4700-af0a-6fd80d77a362")
	)
	(pad "37" smd rect
		(at 7.508 0.85 90)
		(size 0.4 1.8)
		(layers "F.Cu" "F.Paste" "F.Mask")
		(uuid "38c5c645-6bf7-4b91-9270-49844dc59ae1")
	)
	(pad "38" smd rect
		(at 7.508 0 90)
		(size 0.4 1.8)
		(layers "F.Cu" "F.Paste" "F.Mask")
		(uuid "de37a591-a3ea-4a91-8c5c-ceac7f89eb66")
	)
	(pad "39" smd rect
		(at 7.508 -0.85 90)
		(size 0.4 1.8)
		(layers "F.Cu" "F.Paste" "F.Mask")
		(uuid "0d723a18-8ec1-476d-a9f4-b5ff84b08996")
	)
	(pad "40" smd rect
		(at 7.508 -1.7 90)
		(size 0.4 1.8)
		(layers "F.Cu" "F.Paste" "F.Mask")
		(uuid "f89876df-4c13-4c34-abeb-8043dd893b0b")
	)
	(pad "41" smd rect
		(at 7.508 -2.55 90)
		(size 0.4 1.8)
		(layers "F.Cu" "F.Paste" "F.Mask")
		(uuid "86aabb77-0f42-4387-9525-c8048d3c3205")
	)
	(pad "42" smd rect
		(at 7.508 -3.4 90)
		(size 0.4 1.8)
		(layers "F.Cu" "F.Paste" "F.Mask")
		(uuid "8b0e005c-6e4a-422e-aded-ab7940c03362")
	)
	(pad "43" smd rect
		(at 7.508 -4.25 90)
		(size 0.4 1.8)
		(layers "F.Cu" "F.Paste" "F.Mask")
		(uuid "cef11cac-132f-4e52-ad09-7fec056068ba")
	)
	(pad "44" smd rect
		(at 7.508 -5.1 90)
		(size 0.4 1.8)
		(layers "F.Cu" "F.Paste" "F.Mask")
		(uuid "354f2141-96ab-41ba-90ee-c0a77eaf510a")
	)
	(pad "45" smd rect
		(at 7.5 -5.95 90)
		(size 0.4 1.8)
		(layers "F.Cu" "F.Paste" "F.Mask")
		(uuid "db0ebfb4-a6cb-4999-8e94-db92c25c5395")
	)
	(pad "46" smd rect
		(at 5.95 -7)
		(size 0.4 0.8)
		(layers "F.Cu" "F.Paste" "F.Mask")
		(uuid "bbfeaf9e-cf9d-4e58-8dff-a248ece1de43")
	)
	(pad "47" smd rect
		(at 5.1 -7)
		(size 0.4 0.8)
		(layers "F.Cu" "F.Paste" "F.Mask")
		(uuid "0a37cd2d-7090-40b8-b5d3-c29435c5e3d9")
	)
	(pad "48" smd rect
		(at 4.25 -7)
		(size 0.4 0.8)
		(layers "F.Cu" "F.Paste" "F.Mask")
		(uuid "2eacf5c3-f210-47f2-b120-32eb8de07281")
	)
	(pad "49" smd rect
		(at 3.4 -7)
		(size 0.4 0.8)
		(layers "F.Cu" "F.Paste" "F.Mask")
		(uuid "9dd782f8-4e0a-4a92-8a8f-83c306aedc9f")
	)
	(pad "50" smd rect
		(at 2.55 -7)
		(size 0.4 0.8)
		(layers "F.Cu" "F.Paste" "F.Mask")
		(uuid "60a0e431-3a08-411d-b13f-aee1176e8ee2")
	)
	(pad "51" smd rect
		(at 1.7 -7)
		(size 0.4 0.8)
		(layers "F.Cu" "F.Paste" "F.Mask")
		(uuid "21e7f772-a8bc-4fcd-8b0b-4bab8a428250")
	)
	(pad "52" smd rect
		(at 0.85 -7)
		(size 0.4 0.8)
		(layers "F.Cu" "F.Paste" "F.Mask")
		(uuid "7cdd1385-4bcf-4b79-addf-8e4216a2d506")
	)
	(pad "53" smd rect
		(at 0 -7)
		(size 0.4 0.8)
		(layers "F.Cu" "F.Paste" "F.Mask")
		(uuid "cd2e9024-3cc3-4453-ad03-f8938d02a661")
	)
	(pad "54" smd rect
		(at -0.85 -7)
		(size 0.4 0.8)
		(layers "F.Cu" "F.Paste" "F.Mask")
		(uuid "538282f0-120f-4a53-838e-b0af4d238082")
	)
	(pad "55" smd rect
		(at -1.7 -7)
		(size 0.4 0.8)
		(layers "F.Cu" "F.Paste" "F.Mask")
		(uuid "44dc5fa2-8ade-4aaa-a728-72f24e3098e5")
	)
	(pad "56" smd rect
		(at -2.55 -7)
		(size 0.4 0.8)
		(layers "F.Cu" "F.Paste" "F.Mask")
		(uuid "9bc68a51-a21a-4c19-ba1a-5cbd48b7dceb")
	)
	(pad "57" smd rect
		(at -3.4 -7)
		(size 0.4 0.8)
		(layers "F.Cu" "F.Paste" "F.Mask")
		(uuid "d8f6e2bf-25db-4f8b-8b1e-46937b76dbfd")
	)
	(pad "58" smd rect
		(at -4.25 -7)
		(size 0.4 0.8)
		(layers "F.Cu" "F.Paste" "F.Mask")
		(uuid "bc0489a3-cd59-4d4b-9e5d-858d34d8ec3b")
	)
	(pad "59" smd rect
		(at -5.1 -7)
		(size 0.4 0.8)
		(layers "F.Cu" "F.Paste" "F.Mask")
		(uuid "39242272-59e6-4a9b-a379-d13a6959174a")
	)
	(pad "60" smd rect
		(at -5.95 -7)
		(size 0.4 0.8)
		(layers "F.Cu" "F.Paste" "F.Mask")
		(uuid "2eac6383-c37c-4701-b84d-650c2b92e61a")
	)
	(pad "61" smd custom
		(at -1.65 -1.65)
		(size 0.6 0.6)
		(layers "F.Cu" "F.Paste" "F.Mask")
		(zone_connect 2)
		(thermal_bridge_angle 45)
		(options
			(clearance outline)
			(anchor rect)
		)
		(primitives
			(gr_poly
				(pts
					(xy -0.6 0.6) (xy 0.6 0.6) (xy 0.6 -0.6) (xy 0 -0.6) (xy -0.6 0)
				)
				(width 0)
				(fill yes)
			)
		)
		(uuid "e442a4a8-8db9-483d-b552-62fb80b20c9a")
	)
	(pad "61" smd rect
		(at -1.65 0)
		(size 1.2 1.2)
		(layers "F.Cu" "F.Paste" "F.Mask")
		(zone_connect 2)
		(uuid "48f79888-32b1-4e39-a33b-1f860dbfdd56")
	)
	(pad "61" smd rect
		(at -1.65 1.65)
		(size 1.2 1.2)
		(layers "F.Cu" "F.Paste" "F.Mask")
		(zone_connect 2)
		(uuid "db8938bd-2e17-432b-810d-99f0cc91dc9b")
	)
	(pad "61" smd rect
		(at 0 -1.65)
		(size 1.2 1.2)
		(layers "F.Cu" "F.Paste" "F.Mask")
		(zone_connect 2)
		(uuid "1a303e65-fe8c-4ef6-b370-cd21f4c7d82b")
	)
	(pad "61" smd rect
		(at 0 1.65)
		(size 1.2 1.2)
		(layers "F.Cu" "F.Paste" "F.Mask")
		(zone_connect 2)
		(uuid "d9cf5228-70d6-4f83-b8ea-06254f4cf809")
	)
	(pad "61" smd rect
		(at 1.65 -1.65)
		(size 1.2 1.2)
		(layers "F.Cu" "F.Paste" "F.Mask")
		(zone_connect 2)
		(uuid "081921d0-6483-4670-af3e-6b5d7acb3791")
	)
	(pad "61" smd rect
		(at 1.65 0)
		(size 1.2 1.2)
		(layers "F.Cu" "F.Paste" "F.Mask")
		(zone_connect 2)
		(uuid "8bcb1ec9-ea48-4980-9e37-a401b78d1b65")
	)
	(pad "61" smd rect
		(at 1.65 1.65)
		(size 1.2 1.2)
		(layers "F.Cu" "F.Paste" "F.Mask")
		(zone_connect 2)
		(uuid "7b10360c-645f-4929-9d9a-1fb72dd5d876")
	)
	(pad "62" smd rect
		(at -7.5 -7 180)
		(size 1.8 0.8)
		(layers "F.Cu" "F.Paste" "F.Mask")
		(uuid "7f896033-7144-41bd-b21d-db4128e258fd")
	)
	(pad "63" smd rect
		(at -7.5 7.5 180)
		(size 1.8 1.8)
		(layers "F.Cu" "F.Paste" "F.Mask")
		(uuid "929d1e5a-5ba6-4a48-b3ed-a9dfabf326a1")
	)
	(pad "64" smd rect
		(at 7.5 7.5 180)
		(size 1.8 1.8)
		(layers "F.Cu" "F.Paste" "F.Mask")
		(uuid "0f52b192-fa43-4358-b694-55498c81274c")
	)
	(pad "65" smd rect
		(at 7.5 -7 180)
		(size 1.8 0.8)
		(layers "F.Cu" "F.Paste" "F.Mask")
		(uuid "1eb6754c-a631-456a-ba1d-39589ea213dd")
	)
	(zone
		(net 0)
		(net_name "")
		(layers "*.Cu")
		(uuid "289acbc6-35f1-4173-9ab5-2013c46f4165")
		(name "antenna keepout")
		(hatch edge 0.508)
		(connect_pads
			(clearance 0)
		)
		(min_thickness 0.254)
		(filled_areas_thickness no)
		(keepout
			(tracks not_allowed)
			(vias not_allowed)
			(pads not_allowed)
			(copperpour not_allowed)
			(footprints not_allowed)
		)
		(fill
			(thermal_gap 0.508)
			(thermal_bridge_width 0.508)
		)
		(polygon
			(pts
				(xy 7.7 -7.7) (xy -7.7 -7.7) (xy -7.7 -12.3) (xy 7.7 -12.3)
			)
		)
	)
	(model "${KICAD7_3DMODEL_DIR}/RF_Module.3dshapes/ESP32-S3-MINI-1.STEP"
		(offset
			(xyz -7.5 -7.5 0)
		)
		(scale
			(xyz 1 1 1)
		)
		(rotate
			(xyz 0 0 0)
		)
	)
)