(footprint "SW-SMD_MK-12C03-G015_kicad"
	(version 20240108)
	(generator "pcbnew")
	(generator_version "8.0")
	(layer "F.Cu")
	(property "Reference" "SW1"
		(at -0.0288 -3.585 0)
		(unlocked yes)
		(layer "F.SilkS")
		(uuid "31b88f5c-2fa4-4a24-9ce8-344d35eba301")
		(effects
			(font
				(size 0.9144 0.9144)
				(thickness 0.1524)
			)
			(justify left top)
		)
	)
	(property "Value" "MK-12C03-G015"
		(at -0.0288 -5.363 0)
		(unlocked yes)
		(layer "F.SilkS")
		(hide yes)
		(uuid "e473252e-f829-4ec4-899c-0d66eaa9a55c")
		(effects
			(font
				(size 0.9144 0.9144)
				(thickness 0.1524)
			)
			(justify left top)
		)
	)
	(property "Footprint" "SW-SMD_MK-12C03-G015_kicad"
		(at 0 0 0)
		(unlocked yes)
		(layer "F.Fab")
		(hide yes)
		(uuid "21c247e6-2d8c-4dc5-90a9-fef991eb3ed7")
		(effects
			(font
				(size 1.27 1.27)
			)
		)
	)
	(property "Datasheet" ""
		(at 0 0 0)
		(unlocked yes)
		(layer "F.Fab")
		(hide yes)
		(uuid "51e19f53-0113-45fe-b693-6a2f1161aec5")
		(effects
			(font
				(size 1.27 1.27)
			)
		)
	)
	(property "Description" ""
		(at 0 0 0)
		(unlocked yes)
		(layer "F.Fab")
		(hide yes)
		(uuid "9a46e88c-ac7d-421e-9fb3-b9adbec28080")
		(effects
			(font
				(size 1.27 1.27)
			)
		)
	)
	(fp_line
		(start -3.3251 0.0645)
		(end -3.3251 0.9023)
		(stroke
			(width 0.254)
			(type default)
		)
		(layer "F.SilkS")
		(uuid "958ea241-9a48-448c-b067-b62a1800cb0b")
	)
	(fp_line
		(start -2.8501 1.7833)
		(end 2.7999 1.7833)
		(stroke
			(width 0.254)
			(type default)
		)
		(layer "F.SilkS")
		(uuid "2c8ba739-b50f-446b-b9db-97fb566b8dac")
	)
	(fp_line
		(start -2.8135 -0.8166)
		(end -2.869 -0.8166)
		(stroke
			(width 0.254)
			(type default)
		)
		(layer "F.SilkS")
		(uuid "eec2eda7-c7ca-4d14-8474-09b954740fc6")
	)
	(fp_line
		(start -1.9012 1.7823)
		(end -1.9001 3.4083)
		(stroke
			(width 0.254)
			(type default)
		)
		(layer "F.SilkS")
		(uuid "d80f9555-8c9b-4d99-a8a4-72b795995e4e")
	)
	(fp_line
		(start -1.9001 3.4083)
		(end -0.6001 3.4083)
		(stroke
			(width 0.254)
			(type default)
		)
		(layer "F.SilkS")
		(uuid "2dd6b2d4-908e-4b5d-a7ff-b5dc7eb25b48")
	)
	(fp_line
		(start -0.6007 1.7823)
		(end -0.6001 1.7833)
		(stroke
			(width 0.254)
			(type default)
		)
		(layer "F.SilkS")
		(uuid "e31d6f7f-0b50-4476-9336-21580af9791d")
	)
	(fp_line
		(start -0.6001 3.4083)
		(end -0.6007 1.7823)
		(stroke
			(width 0.254)
			(type default)
		)
		(layer "F.SilkS")
		(uuid "4f4e7d25-c091-4689-9981-e9ecbf1d303b")
	)
	(fp_line
		(start 0.1865 -0.8166)
		(end -1.6868 -0.8166)
		(stroke
			(width 0.254)
			(type default)
		)
		(layer "F.SilkS")
		(uuid "301fa598-f103-43e6-9546-d77588139b91")
	)
	(fp_line
		(start 1.6248 -0.8166)
		(end 1.3133 -0.8166)
		(stroke
			(width 0.254)
			(type default)
		)
		(layer "F.SilkS")
		(uuid "4ed47b04-ec7f-4906-99c0-1b30d0042f22")
	)
	(fp_line
		(start 3.3249 0.0895)
		(end 3.3249 0.9022)
		(stroke
			(width 0.254)
			(type default)
		)
		(layer "F.SilkS")
		(uuid "0d72f719-33dd-4fc7-a06a-2d9d27e6d063")
	)
	(fp_circle
		(center -1.5003 0.4836)
		(end -1.3172 0.4836)
		(stroke
			(width 0.365)
			(type default)
		)
		(fill none)
		(layer "Dwgs.User")
		(uuid "692b5985-ed56-4008-a2dd-f22506f450b2")
	)
	(fp_circle
		(center 1.4997 0.4836)
		(end 1.6828 0.4836)
		(stroke
			(width 0.365)
			(type default)
		)
		(fill none)
		(layer "Dwgs.User")
		(uuid "8c10f308-f458-479c-a702-3499b52eebfd")
	)
	(fp_circle
		(center -3.3308 -1.9086)
		(end -3.3008 -1.9086)
		(stroke
			(width 0.06)
			(type default)
		)
		(fill none)
		(layer "User.5")
		(uuid "b6aa657e-eebe-4436-8371-143fcb209562")
	)
	(pad "" np_thru_hole circle
		(at -1.5003 0.4836)
		(size 0.9 0.9)
		(drill 0.9)
		(layers "F&B.Cu" "*.Mask")
		(uuid "4982d5f8-c7e9-4115-ac44-fec590f60987")
	)
	(pad "" np_thru_hole circle
		(at 1.4997 0.4834)
		(size 0.9 0.9)
		(drill 0.9)
		(layers "F&B.Cu" "*.Mask")
		(uuid "31c8ad12-f68b-4111-8f2e-a34af55bb3fc")
	)
	(pad "1" smd rect
		(at -2.2503 -1.5585)
		(size 0.9 1.4)
		(layers "F.Cu" "F.Paste" "F.Mask")
		(solder_mask_margin 0.0508)
		(thermal_bridge_angle 0)
		(uuid "a750b68f-5ec4-4eea-bafc-26dba50beac5")
	)
	(pad "2" smd rect
		(at 0.7499 -1.5585)
		(size 0.9 1.4)
		(layers "F.Cu" "F.Paste" "F.Mask")
		(solder_mask_margin 0.0508)
		(thermal_bridge_angle 0)
		(uuid "36e8c23d-e2d7-45a7-9e03-1ce7ad202198")
	)
	(pad "3" smd rect
		(at 2.2498 -1.5585)
		(size 0.9 1.4)
		(layers "F.Cu" "F.Paste" "F.Mask")
		(solder_mask_margin 0.0508)
		(thermal_bridge_angle 0)
		(uuid "22e3f133-1827-4afa-a0db-ed785ace7275")
	)
	(pad "4" smd rect
		(at -3.375 -0.5916)
		(size 0.75 0.85)
		(layers "F.Cu" "F.Paste" "F.Mask")
		(solder_mask_margin 0.0508)
		(thermal_bridge_angle 0)
		(uuid "bc8950d6-9e97-4294-a633-e9d810fccb60")
	)
	(pad "5" smd rect
		(at -3.375 1.5585)
		(size 0.75 0.85)
		(layers "F.Cu" "F.Paste" "F.Mask")
		(solder_mask_margin 0.0508)
		(thermal_bridge_angle 0)
		(uuid "9d8b0ca5-79b6-48cd-b461-d2009bb449de")
	)
	(pad "6" smd rect
		(at 3.3748 -0.5667)
		(size 0.75 0.85)
		(layers "F.Cu" "F.Paste" "F.Mask")
		(solder_mask_margin 0.0508)
		(thermal_bridge_angle 0)
		(uuid "2e647a77-b1dd-45a5-929b-87d03c9c3b69")
	)
	(pad "7" smd rect
		(at 3.375 1.5583)
		(size 0.75 0.85)
		(layers "F.Cu" "F.Paste" "F.Mask")
		(solder_mask_margin 0.0508)
		(thermal_bridge_angle 0)
		(uuid "50c6a56b-ea90-4b47-8dba-2498ed6fa4e5")
	)
	(zone
		(net 0)
		(net_name "")
		(layer "Dwgs.User")
		(uuid "ecea45ac-eeb5-4356-a6c9-8fdbe673ed73")
		(hatch edge 0.5)
		(priority 100)
		(connect_pads yes
			(clearance 0)
		)
		(min_thickness 0)
		(filled_areas_thickness no)
		(fill yes
			(thermal_gap 0.5)
			(thermal_bridge_width 0.5)
		)
		(polygon
			(pts
				(xy -1.8186 3.3401) (xy -1.8186 1.8401) (xy -0.5186 1.8401) (xy -0.5186 3.3401)
			)
		)
		(filled_polygon
			(layer "Dwgs.User")
			(island)
			(pts
				(xy -1.8186 3.3401) (xy -1.8186 1.8401) (xy -0.5186 1.8401) (xy -0.5186 3.3401)
			)
		)
	)
	(zone
		(net 0)
		(net_name "")
		(layer "User.3")
		(uuid "33fb4c02-9f96-4720-b2ea-fa892ba67a83")
		(hatch edge 0.5)
		(priority 100)
		(connect_pads yes
			(clearance 0)
		)
		(min_thickness 0)
		(filled_areas_thickness no)
		(fill yes
			(thermal_gap 0.5)
			(thermal_bridge_width 0.5)
		)
		(polygon
			(pts
				(xy -3.3308 -0.9094) (xy 3.3243 -0.9094) (xy 3.3243 1.8398) (xy -0.5153 1.8398) (xy -0.5153 3.3351)
				(xy -1.8255 3.3351) (xy -1.8255 1.839) (xy -3.3307 1.839) (xy -3.3307 1.7276)
			)
		)
		(filled_polygon
			(layer "User.3")
			(island)
			(pts
				(xy -3.3308 -0.9094) (xy 3.3243 -0.9094) (xy 3.3243 1.8398) (xy -0.5153 1.8398) (xy -0.5153 3.3351)
				(xy -1.8255 3.3351) (xy -1.8255 1.839) (xy -3.3307 1.839) (xy -3.3307 1.7276)
			)
		)
	)
	(zone
		(net 0)
		(net_name "")
		(layer "User.4")
		(uuid "c1829c1d-6da7-4e15-8969-7634d31f6c4f")
		(hatch edge 0.5)
		(priority 100)
		(connect_pads yes
			(clearance 0)
		)
		(min_thickness 0)
		(filled_areas_thickness no)
		(fill yes
			(thermal_gap 0.5)
			(thermal_bridge_width 0.5)
		)
		(polygon
			(pts
				(xy -3.3252 -0.7915) (xy -3.1252 -0.7915) (xy -3.1252 -0.3915) (xy -3.3252 -0.3915)
			)
		)
		(filled_polygon
			(layer "User.4")
			(island)
			(pts
				(xy -3.3252 -0.7915) (xy -3.1252 -0.7915) (xy -3.1252 -0.3915) (xy -3.3252 -0.3915)
			)
		)
	)
	(zone
		(net 0)
		(net_name "")
		(layer "User.4")
		(uuid "f5f3c797-9654-4b71-850b-de0aefb8a2b6")
		(hatch edge 0.5)
		(priority 100)
		(connect_pads yes
			(clearance 0)
		)
		(min_thickness 0)
		(filled_areas_thickness no)
		(fill yes
			(thermal_gap 0.5)
			(thermal_bridge_width 0.5)
		)
		(polygon
			(pts
				(xy -3.3252 1.3586) (xy -3.1252 1.3586) (xy -3.1252 1.7586) (xy -3.3252 1.7586)
			)
		)
		(filled_polygon
			(layer "User.4")
			(island)
			(pts
				(xy -3.3252 1.3586) (xy -3.1252 1.3586) (xy -3.1252 1.7586) (xy -3.3252 1.7586)
			)
		)
	)
	(zone
		(net 0)
		(net_name "")
		(layer "User.4")
		(uuid "7163c608-7cef-4bf7-b233-932469dddf61")
		(hatch edge 0.5)
		(priority 100)
		(connect_pads yes
			(clearance 0)
		)
		(min_thickness 0)
		(filled_areas_thickness no)
		(fill yes
			(thermal_gap 0.5)
			(thermal_bridge_width 0.5)
		)
		(polygon
			(pts
				(xy -2.4502 -1.9085) (xy -2.0502 -1.9085) (xy -2.0502 -0.8585) (xy -2.4502 -0.8585)
			)
		)
		(filled_polygon
			(layer "User.4")
			(island)
			(pts
				(xy -2.4502 -1.9085) (xy -2.0502 -1.9085) (xy -2.0502 -0.8585) (xy -2.4502 -0.8585)
			)
		)
	)
	(zone
		(net 0)
		(net_name "")
		(layer "User.4")
		(uuid "9574e86c-a05a-42fd-844c-e3a7e049e121")
		(hatch edge 0.5)
		(priority 100)
		(connect_pads yes
			(clearance 0)
		)
		(min_thickness 0)
		(filled_areas_thickness no)
		(fill yes
			(thermal_gap 0.5)
			(thermal_bridge_width 0.5)
		)
		(polygon
			(pts
				(xy 0.55 -1.9085) (xy 0.95 -1.9085) (xy 0.95 -0.8585) (xy 0.55 -0.8585)
			)
		)
		(filled_polygon
			(layer "User.4")
			(island)
			(pts
				(xy 0.55 -1.9085) (xy 0.95 -1.9085) (xy 0.95 -0.8585) (xy 0.55 -0.8585)
			)
		)
	)
	(zone
		(net 0)
		(net_name "")
		(layer "User.4")
		(uuid "23dd9454-7081-4cbf-8ee5-20888336cfa4")
		(hatch edge 0.5)
		(priority 100)
		(connect_pads yes
			(clearance 0)
		)
		(min_thickness 0)
		(filled_areas_thickness no)
		(fill yes
			(thermal_gap 0.5)
			(thermal_bridge_width 0.5)
		)
		(polygon
			(pts
				(xy 2.0499 -1.9085) (xy 2.4499 -1.9085) (xy 2.4499 -0.8585) (xy 2.0499 -0.8585)
			)
		)
		(filled_polygon
			(layer "User.4")
			(island)
			(pts
				(xy 2.0499 -1.9085) (xy 2.4499 -1.9085) (xy 2.4499 -0.8585) (xy 2.0499 -0.8585)
			)
		)
	)
	(zone
		(net 0)
		(net_name "")
		(layer "User.4")
		(uuid "64a3459d-5c9f-49b6-a0de-7f9938df4143")
		(hatch edge 0.5)
		(priority 100)
		(connect_pads yes
			(clearance 0)
		)
		(min_thickness 0)
		(filled_areas_thickness no)
		(fill yes
			(thermal_gap 0.5)
			(thermal_bridge_width 0.5)
		)
		(polygon
			(pts
				(xy 3.1248 -0.7666) (xy 3.3248 -0.7666) (xy 3.3248 -0.3666) (xy 3.1248 -0.3666)
			)
		)
		(filled_polygon
			(layer "User.4")
			(island)
			(pts
				(xy 3.1248 -0.7666) (xy 3.3248 -0.7666) (xy 3.3248 -0.3666) (xy 3.1248 -0.3666)
			)
		)
	)
	(zone
		(net 0)
		(net_name "")
		(layer "User.4")
		(uuid "94be0011-e702-4a7b-842c-c09b86ec11c5")
		(hatch edge 0.5)
		(priority 100)
		(connect_pads yes
			(clearance 0)
		)
		(min_thickness 0)
		(filled_areas_thickness no)
		(fill yes
			(thermal_gap 0.5)
			(thermal_bridge_width 0.5)
		)
		(polygon
			(pts
				(xy 3.1248 1.3583) (xy 3.3248 1.3583) (xy 3.3248 1.7583) (xy 3.1248 1.7583)
			)
		)
		(filled_polygon
			(layer "User.4")
			(island)
			(pts
				(xy 3.1248 1.3583) (xy 3.3248 1.3583) (xy 3.3248 1.7583) (xy 3.1248 1.7583)
			)
		)
	)
)
