(footprint "SW_DIP_SPSTx10_Slide_Copal_CHS-10B_W7.62mm_P1.27mm"
	(version 20240108)
	(generator "kicad-footprint-generator")
	(layer "F.Cu")
	(descr "SMD 10x-dip-switch SPST Copal_CHS-10B, Slide, row spacing 7.62 mm (300 mils), body size  (see http://www.nidec-copal-electronics.com/e/catalog/switch/chs.pdf), SMD")
	(tags "SMD DIP Switch SPST Slide 7.62mm 300mil SMD")
	(property "Reference" "REF**"
		(at 0 -8.045 0)
		(layer "F.SilkS")
		(effects
			(font
				(size 1 1)
				(thickness 0.15)
			)
		)
	)
	(property "Value" "SW_DIP_SPSTx10_Slide_Copal_CHS-10B_W7.62mm_P1.27mm"
		(at 0 8.045 0)
		(layer "F.Fab")
		(effects
			(font
				(size 1 1)
				(thickness 0.15)
			)
		)
	)
	(attr smd)
	(fp_line
		(start -4.61 -6.395)
		(end -2.76 -6.395)
		(stroke
			(width 0.12)
			(type solid)
		)
		(layer "F.SilkS")
	)
	(fp_line
		(start -2.76 -7.045)
		(end -2.76 -6.395)
		(stroke
			(width 0.12)
			(type solid)
		)
		(layer "F.SilkS")
	)
	(fp_line
		(start -2.76 -7.045)
		(end 2.76 -7.045)
		(stroke
			(width 0.12)
			(type solid)
		)
		(layer "F.SilkS")
	)
	(fp_line
		(start -2.76 7.045)
		(end -2.76 5.775)
		(stroke
			(width 0.12)
			(type solid)
		)
		(layer "F.SilkS")
	)
	(fp_line
		(start -2.76 7.045)
		(end 2.76 7.045)
		(stroke
			(width 0.12)
			(type solid)
		)
		(layer "F.SilkS")
	)
	(fp_line
		(start 2.76 -7.045)
		(end 2.76 -5.775)
		(stroke
			(width 0.12)
			(type solid)
		)
		(layer "F.SilkS")
	)
	(fp_line
		(start 2.76 7.045)
		(end 2.76 5.775)
		(stroke
			(width 0.12)
			(type solid)
		)
		(layer "F.SilkS")
	)
	(fp_rect
		(start -4.86 -7.3)
		(end 4.86 7.3)
		(stroke
			(width 0.05)
			(type solid)
		)
		(fill none)
		(layer "F.CrtYd")
	)
	(fp_line
		(start -2.7 -5.985)
		(end -1.7 -6.985)
		(stroke
			(width 0.1)
			(type solid)
		)
		(layer "F.Fab")
	)
	(fp_line
		(start -2.7 6.985)
		(end -2.7 -5.985)
		(stroke
			(width 0.1)
			(type solid)
		)
		(layer "F.Fab")
	)
	(fp_line
		(start -1.7 -6.985)
		(end 2.7 -6.985)
		(stroke
			(width 0.1)
			(type solid)
		)
		(layer "F.Fab")
	)
	(fp_line
		(start -0.5 -5.965)
		(end -0.5 -5.465)
		(stroke
			(width 0.1)
			(type solid)
		)
		(layer "F.Fab")
	)
	(fp_line
		(start -0.5 -4.695)
		(end -0.5 -4.195)
		(stroke
			(width 0.1)
			(type solid)
		)
		(layer "F.Fab")
	)
	(fp_line
		(start -0.5 -3.425)
		(end -0.5 -2.925)
		(stroke
			(width 0.1)
			(type solid)
		)
		(layer "F.Fab")
	)
	(fp_line
		(start -0.5 -2.155)
		(end -0.5 -1.655)
		(stroke
			(width 0.1)
			(type solid)
		)
		(layer "F.Fab")
	)
	(fp_line
		(start -0.5 -0.885)
		(end -0.5 -0.385)
		(stroke
			(width 0.1)
			(type solid)
		)
		(layer "F.Fab")
	)
	(fp_line
		(start -0.5 0.385)
		(end -0.5 0.885)
		(stroke
			(width 0.1)
			(type solid)
		)
		(layer "F.Fab")
	)
	(fp_line
		(start -0.5 1.655)
		(end -0.5 2.155)
		(stroke
			(width 0.1)
			(type solid)
		)
		(layer "F.Fab")
	)
	(fp_line
		(start -0.5 2.925)
		(end -0.5 3.425)
		(stroke
			(width 0.1)
			(type solid)
		)
		(layer "F.Fab")
	)
	(fp_line
		(start -0.5 4.195)
		(end -0.5 4.695)
		(stroke
			(width 0.1)
			(type solid)
		)
		(layer "F.Fab")
	)
	(fp_line
		(start -0.5 5.465)
		(end -0.5 5.965)
		(stroke
			(width 0.1)
			(type solid)
		)
		(layer "F.Fab")
	)
	(fp_line
		(start 2.7 -6.985)
		(end 2.7 6.985)
		(stroke
			(width 0.1)
			(type solid)
		)
		(layer "F.Fab")
	)
	(fp_line
		(start 2.7 6.985)
		(end -2.7 6.985)
		(stroke
			(width 0.1)
			(type solid)
		)
		(layer "F.Fab")
	)
	(fp_rect
		(start -1.5 -5.965)
		(end -0.5 -5.465)
		(stroke
			(width 0.1)
			(type solid)
		)
		(fill solid)
		(layer "F.Fab")
	)
	(fp_rect
		(start -1.5 -5.965)
		(end 1.5 -5.465)
		(stroke
			(width 0.1)
			(type solid)
		)
		(fill none)
		(layer "F.Fab")
	)
	(fp_rect
		(start -1.5 -4.695)
		(end -0.5 -4.195)
		(stroke
			(width 0.1)
			(type solid)
		)
		(fill solid)
		(layer "F.Fab")
	)
	(fp_rect
		(start -1.5 -4.695)
		(end 1.5 -4.195)
		(stroke
			(width 0.1)
			(type solid)
		)
		(fill none)
		(layer "F.Fab")
	)
	(fp_rect
		(start -1.5 -3.425)
		(end -0.5 -2.925)
		(stroke
			(width 0.1)
			(type solid)
		)
		(fill solid)
		(layer "F.Fab")
	)
	(fp_rect
		(start -1.5 -3.425)
		(end 1.5 -2.925)
		(stroke
			(width 0.1)
			(type solid)
		)
		(fill none)
		(layer "F.Fab")
	)
	(fp_rect
		(start -1.5 -2.155)
		(end -0.5 -1.655)
		(stroke
			(width 0.1)
			(type solid)
		)
		(fill solid)
		(layer "F.Fab")
	)
	(fp_rect
		(start -1.5 -2.155)
		(end 1.5 -1.655)
		(stroke
			(width 0.1)
			(type solid)
		)
		(fill none)
		(layer "F.Fab")
	)
	(fp_rect
		(start -1.5 -0.885)
		(end -0.5 -0.385)
		(stroke
			(width 0.1)
			(type solid)
		)
		(fill solid)
		(layer "F.Fab")
	)
	(fp_rect
		(start -1.5 -0.885)
		(end 1.5 -0.385)
		(stroke
			(width 0.1)
			(type solid)
		)
		(fill none)
		(layer "F.Fab")
	)
	(fp_rect
		(start -1.5 0.385)
		(end -0.5 0.885)
		(stroke
			(width 0.1)
			(type solid)
		)
		(fill solid)
		(layer "F.Fab")
	)
	(fp_rect
		(start -1.5 0.385)
		(end 1.5 0.885)
		(stroke
			(width 0.1)
			(type solid)
		)
		(fill none)
		(layer "F.Fab")
	)
	(fp_rect
		(start -1.5 1.655)
		(end -0.5 2.155)
		(stroke
			(width 0.1)
			(type solid)
		)
		(fill solid)
		(layer "F.Fab")
	)
	(fp_rect
		(start -1.5 1.655)
		(end 1.5 2.155)
		(stroke
			(width 0.1)
			(type solid)
		)
		(fill none)
		(layer "F.Fab")
	)
	(fp_rect
		(start -1.5 2.925)
		(end -0.5 3.425)
		(stroke
			(width 0.1)
			(type solid)
		)
		(fill solid)
		(layer "F.Fab")
	)
	(fp_rect
		(start -1.5 2.925)
		(end 1.5 3.425)
		(stroke
			(width 0.1)
			(type solid)
		)
		(fill none)
		(layer "F.Fab")
	)
	(fp_rect
		(start -1.5 4.195)
		(end -0.5 4.695)
		(stroke
			(width 0.1)
			(type solid)
		)
		(fill solid)
		(layer "F.Fab")
	)
	(fp_rect
		(start -1.5 4.195)
		(end 1.5 4.695)
		(stroke
			(width 0.1)
			(type solid)
		)
		(fill none)
		(layer "F.Fab")
	)
	(fp_rect
		(start -1.5 5.465)
		(end -0.5 5.965)
		(stroke
			(width 0.1)
			(type solid)
		)
		(fill solid)
		(layer "F.Fab")
	)
	(fp_rect
		(start -1.5 5.465)
		(end 1.5 5.965)
		(stroke
			(width 0.1)
			(type solid)
		)
		(fill none)
		(layer "F.Fab")
	)
	(fp_text user "${REFERENCE}"
		(at 2.1 0 90)
		(layer "F.Fab")
		(effects
			(font
				(size 0.8 0.8)
				(thickness 0.12)
			)
		)
	)
	(fp_text user "on"
		(at 0.195 -6.475 0)
		(layer "F.Fab")
		(effects
			(font
				(size 0.8 0.8)
				(thickness 0.12)
			)
		)
	)
	(pad "1" smd roundrect
		(at -3.81 -5.715)
		(size 1.6 0.76)
		(layers "F.Cu" "F.Paste" "F.Mask")
		(roundrect_rratio 0.25)
	)
	(pad "2" smd roundrect
		(at -3.81 -4.445)
		(size 1.6 0.76)
		(layers "F.Cu" "F.Paste" "F.Mask")
		(roundrect_rratio 0.25)
	)
	(pad "3" smd roundrect
		(at -3.81 -3.175)
		(size 1.6 0.76)
		(layers "F.Cu" "F.Paste" "F.Mask")
		(roundrect_rratio 0.25)
	)
	(pad "4" smd roundrect
		(at -3.81 -1.905)
		(size 1.6 0.76)
		(layers "F.Cu" "F.Paste" "F.Mask")
		(roundrect_rratio 0.25)
	)
	(pad "5" smd roundrect
		(at -3.81 -0.635)
		(size 1.6 0.76)
		(layers "F.Cu" "F.Paste" "F.Mask")
		(roundrect_rratio 0.25)
	)
	(pad "6" smd roundrect
		(at -3.81 0.635)
		(size 1.6 0.76)
		(layers "F.Cu" "F.Paste" "F.Mask")
		(roundrect_rratio 0.25)
	)
	(pad "7" smd roundrect
		(at -3.81 1.905)
		(size 1.6 0.76)
		(layers "F.Cu" "F.Paste" "F.Mask")
		(roundrect_rratio 0.25)
	)
	(pad "8" smd roundrect
		(at -3.81 3.175)
		(size 1.6 0.76)
		(layers "F.Cu" "F.Paste" "F.Mask")
		(roundrect_rratio 0.25)
	)
	(pad "9" smd roundrect
		(at -3.81 4.445)
		(size 1.6 0.76)
		(layers "F.Cu" "F.Paste" "F.Mask")
		(roundrect_rratio 0.25)
	)
	(pad "10" smd roundrect
		(at -3.81 5.715)
		(size 1.6 0.76)
		(layers "F.Cu" "F.Paste" "F.Mask")
		(roundrect_rratio 0.25)
	)
	(pad "11" smd roundrect
		(at 3.81 5.715)
		(size 1.6 0.76)
		(layers "F.Cu" "F.Paste" "F.Mask")
		(roundrect_rratio 0.25)
	)
	(pad "12" smd roundrect
		(at 3.81 4.445)
		(size 1.6 0.76)
		(layers "F.Cu" "F.Paste" "F.Mask")
		(roundrect_rratio 0.25)
	)
	(pad "13" smd roundrect
		(at 3.81 3.175)
		(size 1.6 0.76)
		(layers "F.Cu" "F.Paste" "F.Mask")
		(roundrect_rratio 0.25)
	)
	(pad "14" smd roundrect
		(at 3.81 1.905)
		(size 1.6 0.76)
		(layers "F.Cu" "F.Paste" "F.Mask")
		(roundrect_rratio 0.25)
	)
	(pad "15" smd roundrect
		(at 3.81 0.635)
		(size 1.6 0.76)
		(layers "F.Cu" "F.Paste" "F.Mask")
		(roundrect_rratio 0.25)
	)
	(pad "16" smd roundrect
		(at 3.81 -0.635)
		(size 1.6 0.76)
		(layers "F.Cu" "F.Paste" "F.Mask")
		(roundrect_rratio 0.25)
	)
	(pad "17" smd roundrect
		(at 3.81 -1.905)
		(size 1.6 0.76)
		(layers "F.Cu" "F.Paste" "F.Mask")
		(roundrect_rratio 0.25)
	)
	(pad "18" smd roundrect
		(at 3.81 -3.175)
		(size 1.6 0.76)
		(layers "F.Cu" "F.Paste" "F.Mask")
		(roundrect_rratio 0.25)
	)
	(pad "19" smd roundrect
		(at 3.81 -4.445)
		(size 1.6 0.76)
		(layers "F.Cu" "F.Paste" "F.Mask")
		(roundrect_rratio 0.25)
	)
	(pad "20" smd roundrect
		(at 3.81 -5.715)
		(size 1.6 0.76)
		(layers "F.Cu" "F.Paste" "F.Mask")
		(roundrect_rratio 0.25)
	)
	(model "${KICAD8_3DMODEL_DIR}/Button_Switch_SMD.3dshapes/SW_DIP_SPSTx10_Slide_Copal_CHS-10B_W7.62mm_P1.27mm.wrl"
		(offset
			(xyz 0 0 0)
		)
		(scale
			(xyz 1 1 1)
		)
		(rotate
			(xyz 0 0 0)
		)
	)
)
