(footprint "SW_DIP_SPSTx08_Slide_Copal_CVS-08xB_W5.9mm_P1mm"
	(version 20240108)
	(generator "kicad-footprint-generator")
	(layer "F.Cu")
	(descr "SMD 8x-dip-switch SPST Copal_CVS-08xB, Slide, row spacing 5.9 mm (232 mils), body size  (see http://www.nidec-copal-electronics.com/e/catalog/switch/cvs.pdf)")
	(tags "SMD DIP Switch SPST Slide 5.9mm 232mil")
	(property "Reference" "REF**"
		(at 0 -5.91 0)
		(layer "F.SilkS")
		(effects
			(font
				(size 1 1)
				(thickness 0.15)
			)
		)
	)
	(property "Value" "SW_DIP_SPSTx08_Slide_Copal_CVS-08xB_W5.9mm_P1mm"
		(at 0 5.91 0)
		(layer "F.Fab")
		(effects
			(font
				(size 1 1)
				(thickness 0.15)
			)
		)
	)
	(attr smd)
	(fp_line
		(start -3.55 -4.05)
		(end -2.74 -4.05)
		(stroke
			(width 0.12)
			(type solid)
		)
		(layer "F.SilkS")
	)
	(fp_line
		(start -1.56 -4.91)
		(end 1.56 -4.91)
		(stroke
			(width 0.12)
			(type solid)
		)
		(layer "F.SilkS")
	)
	(fp_line
		(start -1.56 4.91)
		(end 1.56 4.91)
		(stroke
			(width 0.12)
			(type solid)
		)
		(layer "F.SilkS")
	)
	(fp_rect
		(start -3.8 -5.16)
		(end 3.8 5.16)
		(stroke
			(width 0.05)
			(type solid)
		)
		(fill none)
		(layer "F.CrtYd")
	)
	(fp_line
		(start -2.35 -3.5)
		(end -1.35 -4.5)
		(stroke
			(width 0.1)
			(type solid)
		)
		(layer "F.Fab")
	)
	(fp_line
		(start -2.35 4.5)
		(end -2.35 -3.5)
		(stroke
			(width 0.1)
			(type solid)
		)
		(layer "F.Fab")
	)
	(fp_line
		(start -1.35 -4.5)
		(end 2.35 -4.5)
		(stroke
			(width 0.1)
			(type solid)
		)
		(layer "F.Fab")
	)
	(fp_line
		(start -0.333333 -3.75)
		(end -0.333333 -3.25)
		(stroke
			(width 0.1)
			(type solid)
		)
		(layer "F.Fab")
	)
	(fp_line
		(start -0.333333 -2.75)
		(end -0.333333 -2.25)
		(stroke
			(width 0.1)
			(type solid)
		)
		(layer "F.Fab")
	)
	(fp_line
		(start -0.333333 -1.75)
		(end -0.333333 -1.25)
		(stroke
			(width 0.1)
			(type solid)
		)
		(layer "F.Fab")
	)
	(fp_line
		(start -0.333333 -0.75)
		(end -0.333333 -0.25)
		(stroke
			(width 0.1)
			(type solid)
		)
		(layer "F.Fab")
	)
	(fp_line
		(start -0.333333 0.25)
		(end -0.333333 0.75)
		(stroke
			(width 0.1)
			(type solid)
		)
		(layer "F.Fab")
	)
	(fp_line
		(start -0.333333 1.25)
		(end -0.333333 1.75)
		(stroke
			(width 0.1)
			(type solid)
		)
		(layer "F.Fab")
	)
	(fp_line
		(start -0.333333 2.25)
		(end -0.333333 2.75)
		(stroke
			(width 0.1)
			(type solid)
		)
		(layer "F.Fab")
	)
	(fp_line
		(start -0.333333 3.25)
		(end -0.333333 3.75)
		(stroke
			(width 0.1)
			(type solid)
		)
		(layer "F.Fab")
	)
	(fp_line
		(start 2.35 -4.5)
		(end 2.35 4.5)
		(stroke
			(width 0.1)
			(type solid)
		)
		(layer "F.Fab")
	)
	(fp_line
		(start 2.35 4.5)
		(end -2.35 4.5)
		(stroke
			(width 0.1)
			(type solid)
		)
		(layer "F.Fab")
	)
	(fp_rect
		(start -1 -3.75)
		(end -0.333333 -3.25)
		(stroke
			(width 0.1)
			(type solid)
		)
		(fill solid)
		(layer "F.Fab")
	)
	(fp_rect
		(start -1 -3.75)
		(end 1 -3.25)
		(stroke
			(width 0.1)
			(type solid)
		)
		(fill none)
		(layer "F.Fab")
	)
	(fp_rect
		(start -1 -2.75)
		(end -0.333333 -2.25)
		(stroke
			(width 0.1)
			(type solid)
		)
		(fill solid)
		(layer "F.Fab")
	)
	(fp_rect
		(start -1 -2.75)
		(end 1 -2.25)
		(stroke
			(width 0.1)
			(type solid)
		)
		(fill none)
		(layer "F.Fab")
	)
	(fp_rect
		(start -1 -1.75)
		(end -0.333333 -1.25)
		(stroke
			(width 0.1)
			(type solid)
		)
		(fill solid)
		(layer "F.Fab")
	)
	(fp_rect
		(start -1 -1.75)
		(end 1 -1.25)
		(stroke
			(width 0.1)
			(type solid)
		)
		(fill none)
		(layer "F.Fab")
	)
	(fp_rect
		(start -1 -0.75)
		(end -0.333333 -0.25)
		(stroke
			(width 0.1)
			(type solid)
		)
		(fill solid)
		(layer "F.Fab")
	)
	(fp_rect
		(start -1 -0.75)
		(end 1 -0.25)
		(stroke
			(width 0.1)
			(type solid)
		)
		(fill none)
		(layer "F.Fab")
	)
	(fp_rect
		(start -1 0.25)
		(end -0.333333 0.75)
		(stroke
			(width 0.1)
			(type solid)
		)
		(fill solid)
		(layer "F.Fab")
	)
	(fp_rect
		(start -1 0.25)
		(end 1 0.75)
		(stroke
			(width 0.1)
			(type solid)
		)
		(fill none)
		(layer "F.Fab")
	)
	(fp_rect
		(start -1 1.25)
		(end -0.333333 1.75)
		(stroke
			(width 0.1)
			(type solid)
		)
		(fill solid)
		(layer "F.Fab")
	)
	(fp_rect
		(start -1 1.25)
		(end 1 1.75)
		(stroke
			(width 0.1)
			(type solid)
		)
		(fill none)
		(layer "F.Fab")
	)
	(fp_rect
		(start -1 2.25)
		(end -0.333333 2.75)
		(stroke
			(width 0.1)
			(type solid)
		)
		(fill solid)
		(layer "F.Fab")
	)
	(fp_rect
		(start -1 2.25)
		(end 1 2.75)
		(stroke
			(width 0.1)
			(type solid)
		)
		(fill none)
		(layer "F.Fab")
	)
	(fp_rect
		(start -1 3.25)
		(end -0.333333 3.75)
		(stroke
			(width 0.1)
			(type solid)
		)
		(fill solid)
		(layer "F.Fab")
	)
	(fp_rect
		(start -1 3.25)
		(end 1 3.75)
		(stroke
			(width 0.1)
			(type solid)
		)
		(fill none)
		(layer "F.Fab")
	)
	(fp_text user "${REFERENCE}"
		(at 1.675 0 90)
		(layer "F.Fab")
		(effects
			(font
				(size 0.8 0.8)
				(thickness 0.12)
			)
		)
	)
	(fp_text user "on"
		(at 0.2 -4.125 0)
		(layer "F.Fab")
		(effects
			(font
				(size 0.8 0.8)
				(thickness 0.12)
			)
		)
	)
	(pad "1" smd roundrect
		(at -2.95 -3.5)
		(size 1.2 0.5)
		(layers "F.Cu" "F.Paste" "F.Mask")
		(roundrect_rratio 0.25)
	)
	(pad "2" smd roundrect
		(at -2.95 -2.5)
		(size 1.2 0.5)
		(layers "F.Cu" "F.Paste" "F.Mask")
		(roundrect_rratio 0.25)
	)
	(pad "3" smd roundrect
		(at -2.95 -1.5)
		(size 1.2 0.5)
		(layers "F.Cu" "F.Paste" "F.Mask")
		(roundrect_rratio 0.25)
	)
	(pad "4" smd roundrect
		(at -2.95 -0.5)
		(size 1.2 0.5)
		(layers "F.Cu" "F.Paste" "F.Mask")
		(roundrect_rratio 0.25)
	)
	(pad "5" smd roundrect
		(at -2.95 0.5)
		(size 1.2 0.5)
		(layers "F.Cu" "F.Paste" "F.Mask")
		(roundrect_rratio 0.25)
	)
	(pad "6" smd roundrect
		(at -2.95 1.5)
		(size 1.2 0.5)
		(layers "F.Cu" "F.Paste" "F.Mask")
		(roundrect_rratio 0.25)
	)
	(pad "7" smd roundrect
		(at -2.95 2.5)
		(size 1.2 0.5)
		(layers "F.Cu" "F.Paste" "F.Mask")
		(roundrect_rratio 0.25)
	)
	(pad "8" smd roundrect
		(at -2.95 3.5)
		(size 1.2 0.5)
		(layers "F.Cu" "F.Paste" "F.Mask")
		(roundrect_rratio 0.25)
	)
	(pad "9" smd roundrect
		(at 2.95 3.5)
		(size 1.2 0.5)
		(layers "F.Cu" "F.Paste" "F.Mask")
		(roundrect_rratio 0.25)
	)
	(pad "10" smd roundrect
		(at 2.95 2.5)
		(size 1.2 0.5)
		(layers "F.Cu" "F.Paste" "F.Mask")
		(roundrect_rratio 0.25)
	)
	(pad "11" smd roundrect
		(at 2.95 1.5)
		(size 1.2 0.5)
		(layers "F.Cu" "F.Paste" "F.Mask")
		(roundrect_rratio 0.25)
	)
	(pad "12" smd roundrect
		(at 2.95 0.5)
		(size 1.2 0.5)
		(layers "F.Cu" "F.Paste" "F.Mask")
		(roundrect_rratio 0.25)
	)
	(pad "13" smd roundrect
		(at 2.95 -0.5)
		(size 1.2 0.5)
		(layers "F.Cu" "F.Paste" "F.Mask")
		(roundrect_rratio 0.25)
	)
	(pad "14" smd roundrect
		(at 2.95 -1.5)
		(size 1.2 0.5)
		(layers "F.Cu" "F.Paste" "F.Mask")
		(roundrect_rratio 0.25)
	)
	(pad "15" smd roundrect
		(at 2.95 -2.5)
		(size 1.2 0.5)
		(layers "F.Cu" "F.Paste" "F.Mask")
		(roundrect_rratio 0.25)
	)
	(pad "16" smd roundrect
		(at 2.95 -3.5)
		(size 1.2 0.5)
		(layers "F.Cu" "F.Paste" "F.Mask")
		(roundrect_rratio 0.25)
	)
	(pad "17" smd roundrect
		(at -2.15 -4.5)
		(size 0.7 0.7)
		(layers "F.Cu" "F.Paste" "F.Mask")
		(roundrect_rratio 0.25)
	)
	(pad "17" smd roundrect
		(at -2.15 4.5)
		(size 0.7 0.7)
		(layers "F.Cu" "F.Paste" "F.Mask")
		(roundrect_rratio 0.25)
	)
	(pad "17" smd roundrect
		(at 2.15 -4.5)
		(size 0.7 0.7)
		(layers "F.Cu" "F.Paste" "F.Mask")
		(roundrect_rratio 0.25)
	)
	(pad "17" smd roundrect
		(at 2.15 4.5)
		(size 0.7 0.7)
		(layers "F.Cu" "F.Paste" "F.Mask")
		(roundrect_rratio 0.25)
	)
	(model "${KICAD8_3DMODEL_DIR}/Button_Switch_SMD.3dshapes/SW_DIP_SPSTx08_Slide_Copal_CVS-08xB_W5.9mm_P1mm.wrl"
		(offset
			(xyz 0 0 0)
		)
		(scale
			(xyz 1 1 1)
		)
		(rotate
			(xyz 0 0 0)
		)
	)
)
