(footprint "SW_DIP_SPSTx09_Slide_KingTek_DSHP09TJ_W5.25mm_P1.27mm_JPin"
	(version 20240108)
	(generator "kicad-footprint-generator")
	(layer "F.Cu")
	(descr "SMD 9x-dip-switch SPST KingTek_DSHP09TJ, Slide, row spacing 5.25 mm (206 mils), body size  (see http://www.kingtek.net.cn/pic/201601201446313350.pdf), JPin")
	(tags "SMD DIP Switch SPST Slide 5.25mm 206mil JPin")
	(property "Reference" "REF**"
		(at 0 -7.675 0)
		(layer "F.SilkS")
		(effects
			(font
				(size 1 1)
				(thickness 0.15)
			)
		)
	)
	(property "Value" "SW_DIP_SPSTx09_Slide_KingTek_DSHP09TJ_W5.25mm_P1.27mm_JPin"
		(at 0 7.675 0)
		(layer "F.Fab")
		(effects
			(font
				(size 1 1)
				(thickness 0.15)
			)
		)
	)
	(attr smd)
	(fp_line
		(start -3.95 -5.76)
		(end -2.76 -5.76)
		(stroke
			(width 0.12)
			(type solid)
		)
		(layer "F.SilkS")
	)
	(fp_line
		(start -2.76 -6.675)
		(end -2.76 -5.76)
		(stroke
			(width 0.12)
			(type solid)
		)
		(layer "F.SilkS")
	)
	(fp_line
		(start -2.76 -6.675)
		(end 2.76 -6.675)
		(stroke
			(width 0.12)
			(type solid)
		)
		(layer "F.SilkS")
	)
	(fp_line
		(start -2.76 6.675)
		(end -2.76 5.7)
		(stroke
			(width 0.12)
			(type solid)
		)
		(layer "F.SilkS")
	)
	(fp_line
		(start -2.76 6.675)
		(end 2.76 6.675)
		(stroke
			(width 0.12)
			(type solid)
		)
		(layer "F.SilkS")
	)
	(fp_line
		(start 2.76 -6.675)
		(end 2.76 -5.7)
		(stroke
			(width 0.12)
			(type solid)
		)
		(layer "F.SilkS")
	)
	(fp_line
		(start 2.76 6.675)
		(end 2.76 5.7)
		(stroke
			(width 0.12)
			(type solid)
		)
		(layer "F.SilkS")
	)
	(fp_rect
		(start -4.2 -6.93)
		(end 4.2 6.93)
		(stroke
			(width 0.05)
			(type solid)
		)
		(fill none)
		(layer "F.CrtYd")
	)
	(fp_line
		(start -2.7 -5.615)
		(end -1.7 -6.615)
		(stroke
			(width 0.1)
			(type solid)
		)
		(layer "F.Fab")
	)
	(fp_line
		(start -2.7 6.615)
		(end -2.7 -5.615)
		(stroke
			(width 0.1)
			(type solid)
		)
		(layer "F.Fab")
	)
	(fp_line
		(start -1.7 -6.615)
		(end 2.7 -6.615)
		(stroke
			(width 0.1)
			(type solid)
		)
		(layer "F.Fab")
	)
	(fp_line
		(start -0.333333 -5.48)
		(end -0.333333 -4.68)
		(stroke
			(width 0.1)
			(type solid)
		)
		(layer "F.Fab")
	)
	(fp_line
		(start -0.333333 -4.21)
		(end -0.333333 -3.41)
		(stroke
			(width 0.1)
			(type solid)
		)
		(layer "F.Fab")
	)
	(fp_line
		(start -0.333333 -2.94)
		(end -0.333333 -2.14)
		(stroke
			(width 0.1)
			(type solid)
		)
		(layer "F.Fab")
	)
	(fp_line
		(start -0.333333 -1.67)
		(end -0.333333 -0.87)
		(stroke
			(width 0.1)
			(type solid)
		)
		(layer "F.Fab")
	)
	(fp_line
		(start -0.333333 -0.4)
		(end -0.333333 0.4)
		(stroke
			(width 0.1)
			(type solid)
		)
		(layer "F.Fab")
	)
	(fp_line
		(start -0.333333 0.87)
		(end -0.333333 1.67)
		(stroke
			(width 0.1)
			(type solid)
		)
		(layer "F.Fab")
	)
	(fp_line
		(start -0.333333 2.14)
		(end -0.333333 2.94)
		(stroke
			(width 0.1)
			(type solid)
		)
		(layer "F.Fab")
	)
	(fp_line
		(start -0.333333 3.41)
		(end -0.333333 4.21)
		(stroke
			(width 0.1)
			(type solid)
		)
		(layer "F.Fab")
	)
	(fp_line
		(start -0.333333 4.68)
		(end -0.333333 5.48)
		(stroke
			(width 0.1)
			(type solid)
		)
		(layer "F.Fab")
	)
	(fp_line
		(start 2.7 -6.615)
		(end 2.7 6.615)
		(stroke
			(width 0.1)
			(type solid)
		)
		(layer "F.Fab")
	)
	(fp_line
		(start 2.7 6.615)
		(end -2.7 6.615)
		(stroke
			(width 0.1)
			(type solid)
		)
		(layer "F.Fab")
	)
	(fp_rect
		(start -1 -5.48)
		(end -0.333333 -4.68)
		(stroke
			(width 0.1)
			(type solid)
		)
		(fill solid)
		(layer "F.Fab")
	)
	(fp_rect
		(start -1 -5.48)
		(end 1 -4.68)
		(stroke
			(width 0.1)
			(type solid)
		)
		(fill none)
		(layer "F.Fab")
	)
	(fp_rect
		(start -1 -4.21)
		(end -0.333333 -3.41)
		(stroke
			(width 0.1)
			(type solid)
		)
		(fill solid)
		(layer "F.Fab")
	)
	(fp_rect
		(start -1 -4.21)
		(end 1 -3.41)
		(stroke
			(width 0.1)
			(type solid)
		)
		(fill none)
		(layer "F.Fab")
	)
	(fp_rect
		(start -1 -2.94)
		(end -0.333333 -2.14)
		(stroke
			(width 0.1)
			(type solid)
		)
		(fill solid)
		(layer "F.Fab")
	)
	(fp_rect
		(start -1 -2.94)
		(end 1 -2.14)
		(stroke
			(width 0.1)
			(type solid)
		)
		(fill none)
		(layer "F.Fab")
	)
	(fp_rect
		(start -1 -1.67)
		(end -0.333333 -0.87)
		(stroke
			(width 0.1)
			(type solid)
		)
		(fill solid)
		(layer "F.Fab")
	)
	(fp_rect
		(start -1 -1.67)
		(end 1 -0.87)
		(stroke
			(width 0.1)
			(type solid)
		)
		(fill none)
		(layer "F.Fab")
	)
	(fp_rect
		(start -1 -0.4)
		(end -0.333333 0.4)
		(stroke
			(width 0.1)
			(type solid)
		)
		(fill solid)
		(layer "F.Fab")
	)
	(fp_rect
		(start -1 -0.4)
		(end 1 0.4)
		(stroke
			(width 0.1)
			(type solid)
		)
		(fill none)
		(layer "F.Fab")
	)
	(fp_rect
		(start -1 0.87)
		(end -0.333333 1.67)
		(stroke
			(width 0.1)
			(type solid)
		)
		(fill solid)
		(layer "F.Fab")
	)
	(fp_rect
		(start -1 0.87)
		(end 1 1.67)
		(stroke
			(width 0.1)
			(type solid)
		)
		(fill none)
		(layer "F.Fab")
	)
	(fp_rect
		(start -1 2.14)
		(end -0.333333 2.94)
		(stroke
			(width 0.1)
			(type solid)
		)
		(fill solid)
		(layer "F.Fab")
	)
	(fp_rect
		(start -1 2.14)
		(end 1 2.94)
		(stroke
			(width 0.1)
			(type solid)
		)
		(fill none)
		(layer "F.Fab")
	)
	(fp_rect
		(start -1 3.41)
		(end -0.333333 4.21)
		(stroke
			(width 0.1)
			(type solid)
		)
		(fill solid)
		(layer "F.Fab")
	)
	(fp_rect
		(start -1 3.41)
		(end 1 4.21)
		(stroke
			(width 0.1)
			(type solid)
		)
		(fill none)
		(layer "F.Fab")
	)
	(fp_rect
		(start -1 4.68)
		(end -0.333333 5.48)
		(stroke
			(width 0.1)
			(type solid)
		)
		(fill solid)
		(layer "F.Fab")
	)
	(fp_rect
		(start -1 4.68)
		(end 1 5.48)
		(stroke
			(width 0.1)
			(type solid)
		)
		(fill none)
		(layer "F.Fab")
	)
	(fp_text user "${REFERENCE}"
		(at 1.85 0 90)
		(layer "F.Fab")
		(effects
			(font
				(size 0.8 0.8)
				(thickness 0.12)
			)
		)
	)
	(fp_text user "on"
		(at 0.5375 -6.0475 0)
		(layer "F.Fab")
		(effects
			(font
				(size 0.8 0.8)
				(thickness 0.12)
			)
		)
	)
	(pad "1" smd roundrect
		(at -2.625 -5.08)
		(size 2.65 0.76)
		(layers "F.Cu" "F.Paste" "F.Mask")
		(roundrect_rratio 0.25)
	)
	(pad "2" smd roundrect
		(at -2.625 -3.81)
		(size 2.65 0.76)
		(layers "F.Cu" "F.Paste" "F.Mask")
		(roundrect_rratio 0.25)
	)
	(pad "3" smd roundrect
		(at -2.625 -2.54)
		(size 2.65 0.76)
		(layers "F.Cu" "F.Paste" "F.Mask")
		(roundrect_rratio 0.25)
	)
	(pad "4" smd roundrect
		(at -2.625 -1.27)
		(size 2.65 0.76)
		(layers "F.Cu" "F.Paste" "F.Mask")
		(roundrect_rratio 0.25)
	)
	(pad "5" smd roundrect
		(at -2.625 0)
		(size 2.65 0.76)
		(layers "F.Cu" "F.Paste" "F.Mask")
		(roundrect_rratio 0.25)
	)
	(pad "6" smd roundrect
		(at -2.625 1.27)
		(size 2.65 0.76)
		(layers "F.Cu" "F.Paste" "F.Mask")
		(roundrect_rratio 0.25)
	)
	(pad "7" smd roundrect
		(at -2.625 2.54)
		(size 2.65 0.76)
		(layers "F.Cu" "F.Paste" "F.Mask")
		(roundrect_rratio 0.25)
	)
	(pad "8" smd roundrect
		(at -2.625 3.81)
		(size 2.65 0.76)
		(layers "F.Cu" "F.Paste" "F.Mask")
		(roundrect_rratio 0.25)
	)
	(pad "9" smd roundrect
		(at -2.625 5.08)
		(size 2.65 0.76)
		(layers "F.Cu" "F.Paste" "F.Mask")
		(roundrect_rratio 0.25)
	)
	(pad "10" smd roundrect
		(at 2.625 5.08)
		(size 2.65 0.76)
		(layers "F.Cu" "F.Paste" "F.Mask")
		(roundrect_rratio 0.25)
	)
	(pad "11" smd roundrect
		(at 2.625 3.81)
		(size 2.65 0.76)
		(layers "F.Cu" "F.Paste" "F.Mask")
		(roundrect_rratio 0.25)
	)
	(pad "12" smd roundrect
		(at 2.625 2.54)
		(size 2.65 0.76)
		(layers "F.Cu" "F.Paste" "F.Mask")
		(roundrect_rratio 0.25)
	)
	(pad "13" smd roundrect
		(at 2.625 1.27)
		(size 2.65 0.76)
		(layers "F.Cu" "F.Paste" "F.Mask")
		(roundrect_rratio 0.25)
	)
	(pad "14" smd roundrect
		(at 2.625 0)
		(size 2.65 0.76)
		(layers "F.Cu" "F.Paste" "F.Mask")
		(roundrect_rratio 0.25)
	)
	(pad "15" smd roundrect
		(at 2.625 -1.27)
		(size 2.65 0.76)
		(layers "F.Cu" "F.Paste" "F.Mask")
		(roundrect_rratio 0.25)
	)
	(pad "16" smd roundrect
		(at 2.625 -2.54)
		(size 2.65 0.76)
		(layers "F.Cu" "F.Paste" "F.Mask")
		(roundrect_rratio 0.25)
	)
	(pad "17" smd roundrect
		(at 2.625 -3.81)
		(size 2.65 0.76)
		(layers "F.Cu" "F.Paste" "F.Mask")
		(roundrect_rratio 0.25)
	)
	(pad "18" smd roundrect
		(at 2.625 -5.08)
		(size 2.65 0.76)
		(layers "F.Cu" "F.Paste" "F.Mask")
		(roundrect_rratio 0.25)
	)
	(model "${KICAD8_3DMODEL_DIR}/Button_Switch_SMD.3dshapes/SW_DIP_SPSTx09_Slide_KingTek_DSHP09TJ_W5.25mm_P1.27mm_JPin.wrl"
		(offset
			(xyz 0 0 0)
		)
		(scale
			(xyz 1 1 1)
		)
		(rotate
			(xyz 0 0 0)
		)
	)
)
