(footprint "SW_DIP_SPSTx11_Slide_6.7x29.5mm_W6.73mm_P2.54mm_LowProfile_JPin"
	(version 20240108)
	(generator "kicad-footprint-generator")
	(layer "F.Cu")
	(descr "SMD 11x-dip-switch SPST , Slide, row spacing 6.73 mm (264 mils), body size 6.7x29.5mm (see e.g. https://www.ctscorp.com/wp-content/uploads/219.pdf), SMD, LowProfile, JPin")
	(tags "SMD DIP Switch SPST Slide 6.73mm 264mil SMD LowProfile JPin")
	(property "Reference" "REF**"
		(at 0 -15.81 0)
		(layer "F.SilkS")
		(effects
			(font
				(size 1 1)
				(thickness 0.15)
			)
		)
	)
	(property "Value" "SW_DIP_SPSTx11_Slide_6.7x29.5mm_W6.73mm_P2.54mm_LowProfile_JPin"
		(at 0 15.81 0)
		(layer "F.Fab")
		(effects
			(font
				(size 1 1)
				(thickness 0.15)
			)
		)
	)
	(attr smd)
	(fp_line
		(start -3.65 -15.05)
		(end -3.65 -13.667)
		(stroke
			(width 0.12)
			(type solid)
		)
		(layer "F.SilkS")
	)
	(fp_line
		(start -3.65 -15.05)
		(end -2.267 -15.05)
		(stroke
			(width 0.12)
			(type solid)
		)
		(layer "F.SilkS")
	)
	(fp_line
		(start -3.41 -14.81)
		(end -3.41 -13.5)
		(stroke
			(width 0.12)
			(type solid)
		)
		(layer "F.SilkS")
	)
	(fp_line
		(start -3.41 -14.81)
		(end 3.41 -14.81)
		(stroke
			(width 0.12)
			(type solid)
		)
		(layer "F.SilkS")
	)
	(fp_line
		(start -3.41 -11.9)
		(end -3.41 -10.96)
		(stroke
			(width 0.12)
			(type solid)
		)
		(layer "F.SilkS")
	)
	(fp_line
		(start -3.41 -9.36)
		(end -3.41 -8.42)
		(stroke
			(width 0.12)
			(type solid)
		)
		(layer "F.SilkS")
	)
	(fp_line
		(start -3.41 -6.82)
		(end -3.41 -5.88)
		(stroke
			(width 0.12)
			(type solid)
		)
		(layer "F.SilkS")
	)
	(fp_line
		(start -3.41 -4.28)
		(end -3.41 -3.34)
		(stroke
			(width 0.12)
			(type solid)
		)
		(layer "F.SilkS")
	)
	(fp_line
		(start -3.41 -1.74)
		(end -3.41 -0.8)
		(stroke
			(width 0.12)
			(type solid)
		)
		(layer "F.SilkS")
	)
	(fp_line
		(start -3.41 0.8)
		(end -3.41 1.74)
		(stroke
			(width 0.12)
			(type solid)
		)
		(layer "F.SilkS")
	)
	(fp_line
		(start -3.41 3.34)
		(end -3.41 4.28)
		(stroke
			(width 0.12)
			(type solid)
		)
		(layer "F.SilkS")
	)
	(fp_line
		(start -3.41 5.88)
		(end -3.41 6.82)
		(stroke
			(width 0.12)
			(type solid)
		)
		(layer "F.SilkS")
	)
	(fp_line
		(start -3.41 8.42)
		(end -3.41 9.36)
		(stroke
			(width 0.12)
			(type solid)
		)
		(layer "F.SilkS")
	)
	(fp_line
		(start -3.41 10.96)
		(end -3.41 11.9)
		(stroke
			(width 0.12)
			(type solid)
		)
		(layer "F.SilkS")
	)
	(fp_line
		(start -3.41 13.5)
		(end -3.41 14.81)
		(stroke
			(width 0.12)
			(type solid)
		)
		(layer "F.SilkS")
	)
	(fp_line
		(start -3.41 14.81)
		(end 3.41 14.81)
		(stroke
			(width 0.12)
			(type solid)
		)
		(layer "F.SilkS")
	)
	(fp_line
		(start -0.603333 -13.335)
		(end -0.603333 -12.065)
		(stroke
			(width 0.12)
			(type solid)
		)
		(layer "F.SilkS")
	)
	(fp_line
		(start -0.603333 -10.795)
		(end -0.603333 -9.525)
		(stroke
			(width 0.12)
			(type solid)
		)
		(layer "F.SilkS")
	)
	(fp_line
		(start -0.603333 -8.255)
		(end -0.603333 -6.985)
		(stroke
			(width 0.12)
			(type solid)
		)
		(layer "F.SilkS")
	)
	(fp_line
		(start -0.603333 -5.715)
		(end -0.603333 -4.445)
		(stroke
			(width 0.12)
			(type solid)
		)
		(layer "F.SilkS")
	)
	(fp_line
		(start -0.603333 -3.175)
		(end -0.603333 -1.905)
		(stroke
			(width 0.12)
			(type solid)
		)
		(layer "F.SilkS")
	)
	(fp_line
		(start -0.603333 -0.635)
		(end -0.603333 0.635)
		(stroke
			(width 0.12)
			(type solid)
		)
		(layer "F.SilkS")
	)
	(fp_line
		(start -0.603333 1.905)
		(end -0.603333 3.175)
		(stroke
			(width 0.12)
			(type solid)
		)
		(layer "F.SilkS")
	)
	(fp_line
		(start -0.603333 4.445)
		(end -0.603333 5.715)
		(stroke
			(width 0.12)
			(type solid)
		)
		(layer "F.SilkS")
	)
	(fp_line
		(start -0.603333 6.985)
		(end -0.603333 8.255)
		(stroke
			(width 0.12)
			(type solid)
		)
		(layer "F.SilkS")
	)
	(fp_line
		(start -0.603333 9.525)
		(end -0.603333 10.795)
		(stroke
			(width 0.12)
			(type solid)
		)
		(layer "F.SilkS")
	)
	(fp_line
		(start -0.603333 12.065)
		(end -0.603333 13.335)
		(stroke
			(width 0.12)
			(type solid)
		)
		(layer "F.SilkS")
	)
	(fp_line
		(start 3.41 -14.81)
		(end 3.41 -13.5)
		(stroke
			(width 0.12)
			(type solid)
		)
		(layer "F.SilkS")
	)
	(fp_line
		(start 3.41 -11.9)
		(end 3.41 -10.96)
		(stroke
			(width 0.12)
			(type solid)
		)
		(layer "F.SilkS")
	)
	(fp_line
		(start 3.41 -9.36)
		(end 3.41 -8.42)
		(stroke
			(width 0.12)
			(type solid)
		)
		(layer "F.SilkS")
	)
	(fp_line
		(start 3.41 -6.82)
		(end 3.41 -5.88)
		(stroke
			(width 0.12)
			(type solid)
		)
		(layer "F.SilkS")
	)
	(fp_line
		(start 3.41 -4.28)
		(end 3.41 -3.34)
		(stroke
			(width 0.12)
			(type solid)
		)
		(layer "F.SilkS")
	)
	(fp_line
		(start 3.41 -1.74)
		(end 3.41 -0.8)
		(stroke
			(width 0.12)
			(type solid)
		)
		(layer "F.SilkS")
	)
	(fp_line
		(start 3.41 0.8)
		(end 3.41 1.74)
		(stroke
			(width 0.12)
			(type solid)
		)
		(layer "F.SilkS")
	)
	(fp_line
		(start 3.41 3.34)
		(end 3.41 4.28)
		(stroke
			(width 0.12)
			(type solid)
		)
		(layer "F.SilkS")
	)
	(fp_line
		(start 3.41 5.88)
		(end 3.41 6.82)
		(stroke
			(width 0.12)
			(type solid)
		)
		(layer "F.SilkS")
	)
	(fp_line
		(start 3.41 8.42)
		(end 3.41 9.36)
		(stroke
			(width 0.12)
			(type solid)
		)
		(layer "F.SilkS")
	)
	(fp_line
		(start 3.41 10.96)
		(end 3.41 11.9)
		(stroke
			(width 0.12)
			(type solid)
		)
		(layer "F.SilkS")
	)
	(fp_line
		(start 3.41 13.5)
		(end 3.41 14.81)
		(stroke
			(width 0.12)
			(type solid)
		)
		(layer "F.SilkS")
	)
	(fp_rect
		(start -1.81 -13.335)
		(end -0.603333 -12.065)
		(stroke
			(width 0.12)
			(type solid)
		)
		(fill solid)
		(layer "F.SilkS")
	)
	(fp_rect
		(start -1.81 -13.335)
		(end 1.81 -12.065)
		(stroke
			(width 0.12)
			(type solid)
		)
		(fill none)
		(layer "F.SilkS")
	)
	(fp_rect
		(start -1.81 -10.795)
		(end -0.603333 -9.525)
		(stroke
			(width 0.12)
			(type solid)
		)
		(fill solid)
		(layer "F.SilkS")
	)
	(fp_rect
		(start -1.81 -10.795)
		(end 1.81 -9.525)
		(stroke
			(width 0.12)
			(type solid)
		)
		(fill none)
		(layer "F.SilkS")
	)
	(fp_rect
		(start -1.81 -8.255)
		(end -0.603333 -6.985)
		(stroke
			(width 0.12)
			(type solid)
		)
		(fill solid)
		(layer "F.SilkS")
	)
	(fp_rect
		(start -1.81 -8.255)
		(end 1.81 -6.985)
		(stroke
			(width 0.12)
			(type solid)
		)
		(fill none)
		(layer "F.SilkS")
	)
	(fp_rect
		(start -1.81 -5.715)
		(end -0.603333 -4.445)
		(stroke
			(width 0.12)
			(type solid)
		)
		(fill solid)
		(layer "F.SilkS")
	)
	(fp_rect
		(start -1.81 -5.715)
		(end 1.81 -4.445)
		(stroke
			(width 0.12)
			(type solid)
		)
		(fill none)
		(layer "F.SilkS")
	)
	(fp_rect
		(start -1.81 -3.175)
		(end -0.603333 -1.905)
		(stroke
			(width 0.12)
			(type solid)
		)
		(fill solid)
		(layer "F.SilkS")
	)
	(fp_rect
		(start -1.81 -3.175)
		(end 1.81 -1.905)
		(stroke
			(width 0.12)
			(type solid)
		)
		(fill none)
		(layer "F.SilkS")
	)
	(fp_rect
		(start -1.81 -0.635)
		(end -0.603333 0.635)
		(stroke
			(width 0.12)
			(type solid)
		)
		(fill solid)
		(layer "F.SilkS")
	)
	(fp_rect
		(start -1.81 -0.635)
		(end 1.81 0.635)
		(stroke
			(width 0.12)
			(type solid)
		)
		(fill none)
		(layer "F.SilkS")
	)
	(fp_rect
		(start -1.81 1.905)
		(end -0.603333 3.175)
		(stroke
			(width 0.12)
			(type solid)
		)
		(fill solid)
		(layer "F.SilkS")
	)
	(fp_rect
		(start -1.81 1.905)
		(end 1.81 3.175)
		(stroke
			(width 0.12)
			(type solid)
		)
		(fill none)
		(layer "F.SilkS")
	)
	(fp_rect
		(start -1.81 4.445)
		(end -0.603333 5.715)
		(stroke
			(width 0.12)
			(type solid)
		)
		(fill solid)
		(layer "F.SilkS")
	)
	(fp_rect
		(start -1.81 4.445)
		(end 1.81 5.715)
		(stroke
			(width 0.12)
			(type solid)
		)
		(fill none)
		(layer "F.SilkS")
	)
	(fp_rect
		(start -1.81 6.985)
		(end -0.603333 8.255)
		(stroke
			(width 0.12)
			(type solid)
		)
		(fill solid)
		(layer "F.SilkS")
	)
	(fp_rect
		(start -1.81 6.985)
		(end 1.81 8.255)
		(stroke
			(width 0.12)
			(type solid)
		)
		(fill none)
		(layer "F.SilkS")
	)
	(fp_rect
		(start -1.81 9.525)
		(end -0.603333 10.795)
		(stroke
			(width 0.12)
			(type solid)
		)
		(fill solid)
		(layer "F.SilkS")
	)
	(fp_rect
		(start -1.81 9.525)
		(end 1.81 10.795)
		(stroke
			(width 0.12)
			(type solid)
		)
		(fill none)
		(layer "F.SilkS")
	)
	(fp_rect
		(start -1.81 12.065)
		(end -0.603333 13.335)
		(stroke
			(width 0.12)
			(type solid)
		)
		(fill solid)
		(layer "F.SilkS")
	)
	(fp_rect
		(start -1.81 12.065)
		(end 1.81 13.335)
		(stroke
			(width 0.12)
			(type solid)
		)
		(fill none)
		(layer "F.SilkS")
	)
	(fp_rect
		(start -4.7 -15.06)
		(end 4.7 15.06)
		(stroke
			(width 0.05)
			(type solid)
		)
		(fill none)
		(layer "F.CrtYd")
	)
	(fp_line
		(start -3.35 -13.75)
		(end -2.35 -14.75)
		(stroke
			(width 0.1)
			(type solid)
		)
		(layer "F.Fab")
	)
	(fp_line
		(start -3.35 14.75)
		(end -3.35 -13.75)
		(stroke
			(width 0.1)
			(type solid)
		)
		(layer "F.Fab")
	)
	(fp_line
		(start -2.35 -14.75)
		(end 3.35 -14.75)
		(stroke
			(width 0.1)
			(type solid)
		)
		(layer "F.Fab")
	)
	(fp_line
		(start -0.603333 -13.335)
		(end -0.603333 -12.065)
		(stroke
			(width 0.1)
			(type solid)
		)
		(layer "F.Fab")
	)
	(fp_line
		(start -0.603333 -10.795)
		(end -0.603333 -9.525)
		(stroke
			(width 0.1)
			(type solid)
		)
		(layer "F.Fab")
	)
	(fp_line
		(start -0.603333 -8.255)
		(end -0.603333 -6.985)
		(stroke
			(width 0.1)
			(type solid)
		)
		(layer "F.Fab")
	)
	(fp_line
		(start -0.603333 -5.715)
		(end -0.603333 -4.445)
		(stroke
			(width 0.1)
			(type solid)
		)
		(layer "F.Fab")
	)
	(fp_line
		(start -0.603333 -3.175)
		(end -0.603333 -1.905)
		(stroke
			(width 0.1)
			(type solid)
		)
		(layer "F.Fab")
	)
	(fp_line
		(start -0.603333 -0.635)
		(end -0.603333 0.635)
		(stroke
			(width 0.1)
			(type solid)
		)
		(layer "F.Fab")
	)
	(fp_line
		(start -0.603333 1.905)
		(end -0.603333 3.175)
		(stroke
			(width 0.1)
			(type solid)
		)
		(layer "F.Fab")
	)
	(fp_line
		(start -0.603333 4.445)
		(end -0.603333 5.715)
		(stroke
			(width 0.1)
			(type solid)
		)
		(layer "F.Fab")
	)
	(fp_line
		(start -0.603333 6.985)
		(end -0.603333 8.255)
		(stroke
			(width 0.1)
			(type solid)
		)
		(layer "F.Fab")
	)
	(fp_line
		(start -0.603333 9.525)
		(end -0.603333 10.795)
		(stroke
			(width 0.1)
			(type solid)
		)
		(layer "F.Fab")
	)
	(fp_line
		(start -0.603333 12.065)
		(end -0.603333 13.335)
		(stroke
			(width 0.1)
			(type solid)
		)
		(layer "F.Fab")
	)
	(fp_line
		(start 3.35 -14.75)
		(end 3.35 14.75)
		(stroke
			(width 0.1)
			(type solid)
		)
		(layer "F.Fab")
	)
	(fp_line
		(start 3.35 14.75)
		(end -3.35 14.75)
		(stroke
			(width 0.1)
			(type solid)
		)
		(layer "F.Fab")
	)
	(fp_rect
		(start -1.81 -13.335)
		(end -0.603333 -12.065)
		(stroke
			(width 0.1)
			(type solid)
		)
		(fill solid)
		(layer "F.Fab")
	)
	(fp_rect
		(start -1.81 -13.335)
		(end 1.81 -12.065)
		(stroke
			(width 0.1)
			(type solid)
		)
		(fill none)
		(layer "F.Fab")
	)
	(fp_rect
		(start -1.81 -10.795)
		(end -0.603333 -9.525)
		(stroke
			(width 0.1)
			(type solid)
		)
		(fill solid)
		(layer "F.Fab")
	)
	(fp_rect
		(start -1.81 -10.795)
		(end 1.81 -9.525)
		(stroke
			(width 0.1)
			(type solid)
		)
		(fill none)
		(layer "F.Fab")
	)
	(fp_rect
		(start -1.81 -8.255)
		(end -0.603333 -6.985)
		(stroke
			(width 0.1)
			(type solid)
		)
		(fill solid)
		(layer "F.Fab")
	)
	(fp_rect
		(start -1.81 -8.255)
		(end 1.81 -6.985)
		(stroke
			(width 0.1)
			(type solid)
		)
		(fill none)
		(layer "F.Fab")
	)
	(fp_rect
		(start -1.81 -5.715)
		(end -0.603333 -4.445)
		(stroke
			(width 0.1)
			(type solid)
		)
		(fill solid)
		(layer "F.Fab")
	)
	(fp_rect
		(start -1.81 -5.715)
		(end 1.81 -4.445)
		(stroke
			(width 0.1)
			(type solid)
		)
		(fill none)
		(layer "F.Fab")
	)
	(fp_rect
		(start -1.81 -3.175)
		(end -0.603333 -1.905)
		(stroke
			(width 0.1)
			(type solid)
		)
		(fill solid)
		(layer "F.Fab")
	)
	(fp_rect
		(start -1.81 -3.175)
		(end 1.81 -1.905)
		(stroke
			(width 0.1)
			(type solid)
		)
		(fill none)
		(layer "F.Fab")
	)
	(fp_rect
		(start -1.81 -0.635)
		(end -0.603333 0.635)
		(stroke
			(width 0.1)
			(type solid)
		)
		(fill solid)
		(layer "F.Fab")
	)
	(fp_rect
		(start -1.81 -0.635)
		(end 1.81 0.635)
		(stroke
			(width 0.1)
			(type solid)
		)
		(fill none)
		(layer "F.Fab")
	)
	(fp_rect
		(start -1.81 1.905)
		(end -0.603333 3.175)
		(stroke
			(width 0.1)
			(type solid)
		)
		(fill solid)
		(layer "F.Fab")
	)
	(fp_rect
		(start -1.81 1.905)
		(end 1.81 3.175)
		(stroke
			(width 0.1)
			(type solid)
		)
		(fill none)
		(layer "F.Fab")
	)
	(fp_rect
		(start -1.81 4.445)
		(end -0.603333 5.715)
		(stroke
			(width 0.1)
			(type solid)
		)
		(fill solid)
		(layer "F.Fab")
	)
	(fp_rect
		(start -1.81 4.445)
		(end 1.81 5.715)
		(stroke
			(width 0.1)
			(type solid)
		)
		(fill none)
		(layer "F.Fab")
	)
	(fp_rect
		(start -1.81 6.985)
		(end -0.603333 8.255)
		(stroke
			(width 0.1)
			(type solid)
		)
		(fill solid)
		(layer "F.Fab")
	)
	(fp_rect
		(start -1.81 6.985)
		(end 1.81 8.255)
		(stroke
			(width 0.1)
			(type solid)
		)
		(fill none)
		(layer "F.Fab")
	)
	(fp_rect
		(start -1.81 9.525)
		(end -0.603333 10.795)
		(stroke
			(width 0.1)
			(type solid)
		)
		(fill solid)
		(layer "F.Fab")
	)
	(fp_rect
		(start -1.81 9.525)
		(end 1.81 10.795)
		(stroke
			(width 0.1)
			(type solid)
		)
		(fill none)
		(layer "F.Fab")
	)
	(fp_rect
		(start -1.81 12.065)
		(end -0.603333 13.335)
		(stroke
			(width 0.1)
			(type solid)
		)
		(fill solid)
		(layer "F.Fab")
	)
	(fp_rect
		(start -1.81 12.065)
		(end 1.81 13.335)
		(stroke
			(width 0.1)
			(type solid)
		)
		(fill none)
		(layer "F.Fab")
	)
	(fp_text user "${REFERENCE}"
		(at 2.58 0 90)
		(layer "F.Fab")
		(effects
			(font
				(size 0.8 0.8)
				(thickness 0.12)
			)
		)
	)
	(fp_text user "on"
		(at 0.8975 -14.0425 0)
		(layer "F.Fab")
		(effects
			(font
				(size 0.8 0.8)
				(thickness 0.12)
			)
		)
	)
	(pad "1" smd roundrect
		(at -3.365 -12.7)
		(size 2.16 1.12)
		(layers "F.Cu" "F.Paste" "F.Mask")
		(roundrect_rratio 0.223214)
	)
	(pad "2" smd roundrect
		(at -3.365 -10.16)
		(size 2.16 1.12)
		(layers "F.Cu" "F.Paste" "F.Mask")
		(roundrect_rratio 0.223214)
	)
	(pad "3" smd roundrect
		(at -3.365 -7.62)
		(size 2.16 1.12)
		(layers "F.Cu" "F.Paste" "F.Mask")
		(roundrect_rratio 0.223214)
	)
	(pad "4" smd roundrect
		(at -3.365 -5.08)
		(size 2.16 1.12)
		(layers "F.Cu" "F.Paste" "F.Mask")
		(roundrect_rratio 0.223214)
	)
	(pad "5" smd roundrect
		(at -3.365 -2.54)
		(size 2.16 1.12)
		(layers "F.Cu" "F.Paste" "F.Mask")
		(roundrect_rratio 0.223214)
	)
	(pad "6" smd roundrect
		(at -3.365 0)
		(size 2.16 1.12)
		(layers "F.Cu" "F.Paste" "F.Mask")
		(roundrect_rratio 0.223214)
	)
	(pad "7" smd roundrect
		(at -3.365 2.54)
		(size 2.16 1.12)
		(layers "F.Cu" "F.Paste" "F.Mask")
		(roundrect_rratio 0.223214)
	)
	(pad "8" smd roundrect
		(at -3.365 5.08)
		(size 2.16 1.12)
		(layers "F.Cu" "F.Paste" "F.Mask")
		(roundrect_rratio 0.223214)
	)
	(pad "9" smd roundrect
		(at -3.365 7.62)
		(size 2.16 1.12)
		(layers "F.Cu" "F.Paste" "F.Mask")
		(roundrect_rratio 0.223214)
	)
	(pad "10" smd roundrect
		(at -3.365 10.16)
		(size 2.16 1.12)
		(layers "F.Cu" "F.Paste" "F.Mask")
		(roundrect_rratio 0.223214)
	)
	(pad "11" smd roundrect
		(at -3.365 12.7)
		(size 2.16 1.12)
		(layers "F.Cu" "F.Paste" "F.Mask")
		(roundrect_rratio 0.223214)
	)
	(pad "12" smd roundrect
		(at 3.365 12.7)
		(size 2.16 1.12)
		(layers "F.Cu" "F.Paste" "F.Mask")
		(roundrect_rratio 0.223214)
	)
	(pad "13" smd roundrect
		(at 3.365 10.16)
		(size 2.16 1.12)
		(layers "F.Cu" "F.Paste" "F.Mask")
		(roundrect_rratio 0.223214)
	)
	(pad "14" smd roundrect
		(at 3.365 7.62)
		(size 2.16 1.12)
		(layers "F.Cu" "F.Paste" "F.Mask")
		(roundrect_rratio 0.223214)
	)
	(pad "15" smd roundrect
		(at 3.365 5.08)
		(size 2.16 1.12)
		(layers "F.Cu" "F.Paste" "F.Mask")
		(roundrect_rratio 0.223214)
	)
	(pad "16" smd roundrect
		(at 3.365 2.54)
		(size 2.16 1.12)
		(layers "F.Cu" "F.Paste" "F.Mask")
		(roundrect_rratio 0.223214)
	)
	(pad "17" smd roundrect
		(at 3.365 0)
		(size 2.16 1.12)
		(layers "F.Cu" "F.Paste" "F.Mask")
		(roundrect_rratio 0.223214)
	)
	(pad "18" smd roundrect
		(at 3.365 -2.54)
		(size 2.16 1.12)
		(layers "F.Cu" "F.Paste" "F.Mask")
		(roundrect_rratio 0.223214)
	)
	(pad "19" smd roundrect
		(at 3.365 -5.08)
		(size 2.16 1.12)
		(layers "F.Cu" "F.Paste" "F.Mask")
		(roundrect_rratio 0.223214)
	)
	(pad "20" smd roundrect
		(at 3.365 -7.62)
		(size 2.16 1.12)
		(layers "F.Cu" "F.Paste" "F.Mask")
		(roundrect_rratio 0.223214)
	)
	(pad "21" smd roundrect
		(at 3.365 -10.16)
		(size 2.16 1.12)
		(layers "F.Cu" "F.Paste" "F.Mask")
		(roundrect_rratio 0.223214)
	)
	(pad "22" smd roundrect
		(at 3.365 -12.7)
		(size 2.16 1.12)
		(layers "F.Cu" "F.Paste" "F.Mask")
		(roundrect_rratio 0.223214)
	)
	(model "${KICAD8_3DMODEL_DIR}/Button_Switch_SMD.3dshapes/SW_DIP_SPSTx11_Slide_6.7x29.5mm_W6.73mm_P2.54mm_LowProfile_JPin.wrl"
		(offset
			(xyz 0 0 0)
		)
		(scale
			(xyz 1 1 1)
		)
		(rotate
			(xyz 0 0 90)
		)
	)
)
