(footprint "SW_DIP_SPSTx04_Slide_9.78x12.34mm_W8.61mm_P2.54mm"
	(version 20240108)
	(generator "kicad-footprint-generator")
	(layer "F.Cu")
	(descr "SMD 4x-dip-switch SPST , Slide, row spacing 8.61 mm (338 mils), body size 9.78x12.34mm (see e.g. https://www.ctscorp.com/wp-content/uploads/204.pdf), SMD")
	(tags "SMD DIP Switch SPST Slide 8.61mm 338mil SMD")
	(property "Reference" "REF**"
		(at 0 -7.23 0)
		(layer "F.SilkS")
		(effects
			(font
				(size 1 1)
				(thickness 0.15)
			)
		)
	)
	(property "Value" "SW_DIP_SPSTx04_Slide_9.78x12.34mm_W8.61mm_P2.54mm"
		(at 0 7.23 0)
		(layer "F.Fab")
		(effects
			(font
				(size 1 1)
				(thickness 0.15)
			)
		)
	)
	(attr smd)
	(fp_line
		(start -5.19 -6.47)
		(end -5.19 -5.087)
		(stroke
			(width 0.12)
			(type solid)
		)
		(layer "F.SilkS")
	)
	(fp_line
		(start -5.19 -6.47)
		(end -3.807 -6.47)
		(stroke
			(width 0.12)
			(type solid)
		)
		(layer "F.SilkS")
	)
	(fp_line
		(start -4.95 -6.23)
		(end -4.95 -4.61)
		(stroke
			(width 0.12)
			(type solid)
		)
		(layer "F.SilkS")
	)
	(fp_line
		(start -4.95 -6.23)
		(end 4.95 -6.23)
		(stroke
			(width 0.12)
			(type solid)
		)
		(layer "F.SilkS")
	)
	(fp_line
		(start -4.95 -3.01)
		(end -4.95 -2.07)
		(stroke
			(width 0.12)
			(type solid)
		)
		(layer "F.SilkS")
	)
	(fp_line
		(start -4.95 -0.47)
		(end -4.95 0.47)
		(stroke
			(width 0.12)
			(type solid)
		)
		(layer "F.SilkS")
	)
	(fp_line
		(start -4.95 2.07)
		(end -4.95 3.01)
		(stroke
			(width 0.12)
			(type solid)
		)
		(layer "F.SilkS")
	)
	(fp_line
		(start -4.95 4.61)
		(end -4.95 6.23)
		(stroke
			(width 0.12)
			(type solid)
		)
		(layer "F.SilkS")
	)
	(fp_line
		(start -4.95 6.23)
		(end 4.95 6.23)
		(stroke
			(width 0.12)
			(type solid)
		)
		(layer "F.SilkS")
	)
	(fp_line
		(start -0.676667 -4.445)
		(end -0.676667 -3.175)
		(stroke
			(width 0.12)
			(type solid)
		)
		(layer "F.SilkS")
	)
	(fp_line
		(start -0.676667 -1.905)
		(end -0.676667 -0.635)
		(stroke
			(width 0.12)
			(type solid)
		)
		(layer "F.SilkS")
	)
	(fp_line
		(start -0.676667 0.635)
		(end -0.676667 1.905)
		(stroke
			(width 0.12)
			(type solid)
		)
		(layer "F.SilkS")
	)
	(fp_line
		(start -0.676667 3.175)
		(end -0.676667 4.445)
		(stroke
			(width 0.12)
			(type solid)
		)
		(layer "F.SilkS")
	)
	(fp_line
		(start 4.95 -6.23)
		(end 4.95 -4.61)
		(stroke
			(width 0.12)
			(type solid)
		)
		(layer "F.SilkS")
	)
	(fp_line
		(start 4.95 -3.01)
		(end 4.95 -2.07)
		(stroke
			(width 0.12)
			(type solid)
		)
		(layer "F.SilkS")
	)
	(fp_line
		(start 4.95 -0.47)
		(end 4.95 0.47)
		(stroke
			(width 0.12)
			(type solid)
		)
		(layer "F.SilkS")
	)
	(fp_line
		(start 4.95 2.07)
		(end 4.95 3.01)
		(stroke
			(width 0.12)
			(type solid)
		)
		(layer "F.SilkS")
	)
	(fp_line
		(start 4.95 4.61)
		(end 4.95 6.23)
		(stroke
			(width 0.12)
			(type solid)
		)
		(layer "F.SilkS")
	)
	(fp_rect
		(start -2.03 -4.445)
		(end -0.676667 -3.175)
		(stroke
			(width 0.12)
			(type solid)
		)
		(fill solid)
		(layer "F.SilkS")
	)
	(fp_rect
		(start -2.03 -4.445)
		(end 2.03 -3.175)
		(stroke
			(width 0.12)
			(type solid)
		)
		(fill none)
		(layer "F.SilkS")
	)
	(fp_rect
		(start -2.03 -1.905)
		(end -0.676667 -0.635)
		(stroke
			(width 0.12)
			(type solid)
		)
		(fill solid)
		(layer "F.SilkS")
	)
	(fp_rect
		(start -2.03 -1.905)
		(end 2.03 -0.635)
		(stroke
			(width 0.12)
			(type solid)
		)
		(fill none)
		(layer "F.SilkS")
	)
	(fp_rect
		(start -2.03 0.635)
		(end -0.676667 1.905)
		(stroke
			(width 0.12)
			(type solid)
		)
		(fill solid)
		(layer "F.SilkS")
	)
	(fp_rect
		(start -2.03 0.635)
		(end 2.03 1.905)
		(stroke
			(width 0.12)
			(type solid)
		)
		(fill none)
		(layer "F.SilkS")
	)
	(fp_rect
		(start -2.03 3.175)
		(end -0.676667 4.445)
		(stroke
			(width 0.12)
			(type solid)
		)
		(fill solid)
		(layer "F.SilkS")
	)
	(fp_rect
		(start -2.03 3.175)
		(end 2.03 4.445)
		(stroke
			(width 0.12)
			(type solid)
		)
		(fill none)
		(layer "F.SilkS")
	)
	(fp_rect
		(start -5.78 -6.48)
		(end 5.78 6.48)
		(stroke
			(width 0.05)
			(type solid)
		)
		(fill none)
		(layer "F.CrtYd")
	)
	(fp_line
		(start -4.89 -5.17)
		(end -3.89 -6.17)
		(stroke
			(width 0.1)
			(type solid)
		)
		(layer "F.Fab")
	)
	(fp_line
		(start -4.89 6.17)
		(end -4.89 -5.17)
		(stroke
			(width 0.1)
			(type solid)
		)
		(layer "F.Fab")
	)
	(fp_line
		(start -3.89 -6.17)
		(end 4.89 -6.17)
		(stroke
			(width 0.1)
			(type solid)
		)
		(layer "F.Fab")
	)
	(fp_line
		(start -0.676667 -4.445)
		(end -0.676667 -3.175)
		(stroke
			(width 0.1)
			(type solid)
		)
		(layer "F.Fab")
	)
	(fp_line
		(start -0.676667 -1.905)
		(end -0.676667 -0.635)
		(stroke
			(width 0.1)
			(type solid)
		)
		(layer "F.Fab")
	)
	(fp_line
		(start -0.676667 0.635)
		(end -0.676667 1.905)
		(stroke
			(width 0.1)
			(type solid)
		)
		(layer "F.Fab")
	)
	(fp_line
		(start -0.676667 3.175)
		(end -0.676667 4.445)
		(stroke
			(width 0.1)
			(type solid)
		)
		(layer "F.Fab")
	)
	(fp_line
		(start 4.89 -6.17)
		(end 4.89 6.17)
		(stroke
			(width 0.1)
			(type solid)
		)
		(layer "F.Fab")
	)
	(fp_line
		(start 4.89 6.17)
		(end -4.89 6.17)
		(stroke
			(width 0.1)
			(type solid)
		)
		(layer "F.Fab")
	)
	(fp_rect
		(start -2.03 -4.445)
		(end -0.676667 -3.175)
		(stroke
			(width 0.1)
			(type solid)
		)
		(fill solid)
		(layer "F.Fab")
	)
	(fp_rect
		(start -2.03 -4.445)
		(end 2.03 -3.175)
		(stroke
			(width 0.1)
			(type solid)
		)
		(fill none)
		(layer "F.Fab")
	)
	(fp_rect
		(start -2.03 -1.905)
		(end -0.676667 -0.635)
		(stroke
			(width 0.1)
			(type solid)
		)
		(fill solid)
		(layer "F.Fab")
	)
	(fp_rect
		(start -2.03 -1.905)
		(end 2.03 -0.635)
		(stroke
			(width 0.1)
			(type solid)
		)
		(fill none)
		(layer "F.Fab")
	)
	(fp_rect
		(start -2.03 0.635)
		(end -0.676667 1.905)
		(stroke
			(width 0.1)
			(type solid)
		)
		(fill solid)
		(layer "F.Fab")
	)
	(fp_rect
		(start -2.03 0.635)
		(end 2.03 1.905)
		(stroke
			(width 0.1)
			(type solid)
		)
		(fill none)
		(layer "F.Fab")
	)
	(fp_rect
		(start -2.03 3.175)
		(end -0.676667 4.445)
		(stroke
			(width 0.1)
			(type solid)
		)
		(fill solid)
		(layer "F.Fab")
	)
	(fp_rect
		(start -2.03 3.175)
		(end 2.03 4.445)
		(stroke
			(width 0.1)
			(type solid)
		)
		(fill none)
		(layer "F.Fab")
	)
	(fp_text user "${REFERENCE}"
		(at 3.46 0 90)
		(layer "F.Fab")
		(effects
			(font
				(size 0.8 0.8)
				(thickness 0.12)
			)
		)
	)
	(fp_text user "on"
		(at 1.3075 -5.3075 0)
		(layer "F.Fab")
		(effects
			(font
				(size 0.8 0.8)
				(thickness 0.12)
			)
		)
	)
	(pad "1" smd roundrect
		(at -4.305 -3.81)
		(size 2.44 1.12)
		(layers "F.Cu" "F.Paste" "F.Mask")
		(roundrect_rratio 0.223214)
	)
	(pad "2" smd roundrect
		(at -4.305 -1.27)
		(size 2.44 1.12)
		(layers "F.Cu" "F.Paste" "F.Mask")
		(roundrect_rratio 0.223214)
	)
	(pad "3" smd roundrect
		(at -4.305 1.27)
		(size 2.44 1.12)
		(layers "F.Cu" "F.Paste" "F.Mask")
		(roundrect_rratio 0.223214)
	)
	(pad "4" smd roundrect
		(at -4.305 3.81)
		(size 2.44 1.12)
		(layers "F.Cu" "F.Paste" "F.Mask")
		(roundrect_rratio 0.223214)
	)
	(pad "5" smd roundrect
		(at 4.305 3.81)
		(size 2.44 1.12)
		(layers "F.Cu" "F.Paste" "F.Mask")
		(roundrect_rratio 0.223214)
	)
	(pad "6" smd roundrect
		(at 4.305 1.27)
		(size 2.44 1.12)
		(layers "F.Cu" "F.Paste" "F.Mask")
		(roundrect_rratio 0.223214)
	)
	(pad "7" smd roundrect
		(at 4.305 -1.27)
		(size 2.44 1.12)
		(layers "F.Cu" "F.Paste" "F.Mask")
		(roundrect_rratio 0.223214)
	)
	(pad "8" smd roundrect
		(at 4.305 -3.81)
		(size 2.44 1.12)
		(layers "F.Cu" "F.Paste" "F.Mask")
		(roundrect_rratio 0.223214)
	)
	(model "${KICAD8_3DMODEL_DIR}/Button_Switch_SMD.3dshapes/SW_DIP_SPSTx04_Slide_9.78x12.34mm_W8.61mm_P2.54mm.wrl"
		(offset
			(xyz 0 0 0)
		)
		(scale
			(xyz 1 1 1)
		)
		(rotate
			(xyz 0 0 90)
		)
	)
)
