(footprint "CERDIP-14_W7.62mm_SideBrazed_Socket"
	(version 20240108)
	(generator "kicad-footprint-generator")
	(layer "F.Cu")
	(descr "14-lead through-hole mounted CERDIP, JEDEC MS-015-AB package, row spacing 7.62mm (300 mils), SideBrazed, Socket, https://www.jedec.org/system/files/docs/Ms-015a.pdf")
	(tags "THT DIP DIL CERDIP ceramic 2.54mm 7.62mm 300mil SideBrazed Socket")
	(property "Reference" "REF**"
		(at 3.81 -2.965 0)
		(layer "F.SilkS")
		(effects
			(font
				(size 1 1)
				(thickness 0.15)
			)
		)
	)
	(property "Value" "CERDIP-14_W7.62mm_SideBrazed_Socket"
		(at 3.81 18.205 0)
		(layer "F.Fab")
		(effects
			(font
				(size 1 1)
				(thickness 0.15)
			)
		)
	)
	(attr through_hole)
	(fp_line
		(start 1.16 -1.965)
		(end 1.16 17.205)
		(stroke
			(width 0.12)
			(type solid)
		)
		(layer "F.SilkS")
	)
	(fp_line
		(start 1.16 17.205)
		(end 6.46 17.205)
		(stroke
			(width 0.12)
			(type solid)
		)
		(layer "F.SilkS")
	)
	(fp_line
		(start 2.81 -1.965)
		(end 1.16 -1.965)
		(stroke
			(width 0.12)
			(type solid)
		)
		(layer "F.SilkS")
	)
	(fp_line
		(start 6.46 -1.965)
		(end 4.81 -1.965)
		(stroke
			(width 0.12)
			(type solid)
		)
		(layer "F.SilkS")
	)
	(fp_line
		(start 6.46 17.205)
		(end 6.46 -1.965)
		(stroke
			(width 0.12)
			(type solid)
		)
		(layer "F.SilkS")
	)
	(fp_rect
		(start -1.33 -2.025)
		(end 8.95 17.265)
		(stroke
			(width 0.12)
			(type solid)
		)
		(fill none)
		(layer "F.SilkS")
	)
	(fp_arc
		(start 4.81 -1.965)
		(mid 3.81 -0.965)
		(end 2.81 -1.965)
		(stroke
			(width 0.12)
			(type solid)
		)
		(layer "F.SilkS")
	)
	(fp_rect
		(start -1.52 -2.22)
		(end 9.14 17.46)
		(stroke
			(width 0.05)
			(type solid)
		)
		(fill none)
		(layer "F.CrtYd")
	)
	(fp_line
		(start 0.065 -0.905)
		(end 1.065 -1.905)
		(stroke
			(width 0.1)
			(type solid)
		)
		(layer "F.Fab")
	)
	(fp_line
		(start 0.065 17.145)
		(end 0.065 -0.905)
		(stroke
			(width 0.1)
			(type solid)
		)
		(layer "F.Fab")
	)
	(fp_line
		(start 1.065 -1.905)
		(end 7.555 -1.905)
		(stroke
			(width 0.1)
			(type solid)
		)
		(layer "F.Fab")
	)
	(fp_line
		(start 7.555 -1.905)
		(end 7.555 17.145)
		(stroke
			(width 0.1)
			(type solid)
		)
		(layer "F.Fab")
	)
	(fp_line
		(start 7.555 17.145)
		(end 0.065 17.145)
		(stroke
			(width 0.1)
			(type solid)
		)
		(layer "F.Fab")
	)
	(fp_rect
		(start -1.27 -1.965)
		(end 8.89 17.205)
		(stroke
			(width 0.1)
			(type solid)
		)
		(fill none)
		(layer "F.Fab")
	)
	(fp_text user "${REFERENCE}"
		(at 3.81 7.62 90)
		(layer "F.Fab")
		(effects
			(font
				(size 1 1)
				(thickness 0.15)
			)
		)
	)
	(pad "1" thru_hole roundrect
		(at 0 0)
		(size 1.6 1.6)
		(drill 0.8)
		(layers "*.Cu" "*.Mask")
		(remove_unused_layers no)
		(roundrect_rratio 0.15625)
	)
	(pad "2" thru_hole circle
		(at 0 2.54)
		(size 1.6 1.6)
		(drill 0.8)
		(layers "*.Cu" "*.Mask")
		(remove_unused_layers no)
	)
	(pad "3" thru_hole circle
		(at 0 5.08)
		(size 1.6 1.6)
		(drill 0.8)
		(layers "*.Cu" "*.Mask")
		(remove_unused_layers no)
	)
	(pad "4" thru_hole circle
		(at 0 7.62)
		(size 1.6 1.6)
		(drill 0.8)
		(layers "*.Cu" "*.Mask")
		(remove_unused_layers no)
	)
	(pad "5" thru_hole circle
		(at 0 10.16)
		(size 1.6 1.6)
		(drill 0.8)
		(layers "*.Cu" "*.Mask")
		(remove_unused_layers no)
	)
	(pad "6" thru_hole circle
		(at 0 12.7)
		(size 1.6 1.6)
		(drill 0.8)
		(layers "*.Cu" "*.Mask")
		(remove_unused_layers no)
	)
	(pad "7" thru_hole circle
		(at 0 15.24)
		(size 1.6 1.6)
		(drill 0.8)
		(layers "*.Cu" "*.Mask")
		(remove_unused_layers no)
	)
	(pad "8" thru_hole circle
		(at 7.62 15.24)
		(size 1.6 1.6)
		(drill 0.8)
		(layers "*.Cu" "*.Mask")
		(remove_unused_layers no)
	)
	(pad "9" thru_hole circle
		(at 7.62 12.7)
		(size 1.6 1.6)
		(drill 0.8)
		(layers "*.Cu" "*.Mask")
		(remove_unused_layers no)
	)
	(pad "10" thru_hole circle
		(at 7.62 10.16)
		(size 1.6 1.6)
		(drill 0.8)
		(layers "*.Cu" "*.Mask")
		(remove_unused_layers no)
	)
	(pad "11" thru_hole circle
		(at 7.62 7.62)
		(size 1.6 1.6)
		(drill 0.8)
		(layers "*.Cu" "*.Mask")
		(remove_unused_layers no)
	)
	(pad "12" thru_hole circle
		(at 7.62 5.08)
		(size 1.6 1.6)
		(drill 0.8)
		(layers "*.Cu" "*.Mask")
		(remove_unused_layers no)
	)
	(pad "13" thru_hole circle
		(at 7.62 2.54)
		(size 1.6 1.6)
		(drill 0.8)
		(layers "*.Cu" "*.Mask")
		(remove_unused_layers no)
	)
	(pad "14" thru_hole circle
		(at 7.62 0)
		(size 1.6 1.6)
		(drill 0.8)
		(layers "*.Cu" "*.Mask")
		(remove_unused_layers no)
	)
	(model "${KICAD8_3DMODEL_DIR}/Package_DIP.3dshapes/CERDIP-14_W7.62mm_SideBrazed_Socket.wrl"
		(offset
			(xyz 0 0 0)
		)
		(scale
			(xyz 1 1 1)
		)
		(rotate
			(xyz 0 0 0)
		)
	)
)
