(footprint "DIP-42_W15.24mm_SMDSocket_SmallPads"
	(version 20240108)
	(generator "kicad-footprint-generator")
	(layer "F.Cu")
	(descr "42-lead though-hole mounted DIP package, row spacing 15.24mm (600 mils), SMDSocket, SmallPads")
	(tags "THT DIP DIL PDIP 2.54mm 15.24mm 600mil SMDSocket SmallPads")
	(property "Reference" "REF**"
		(at 0 -27.73 0)
		(layer "F.SilkS")
		(effects
			(font
				(size 1 1)
				(thickness 0.15)
			)
		)
	)
	(property "Value" "DIP-42_W15.24mm_SMDSocket_SmallPads"
		(at 0 27.73 0)
		(layer "F.Fab")
		(effects
			(font
				(size 1 1)
				(thickness 0.15)
			)
		)
	)
	(attr smd)
	(fp_line
		(start -6.46 -26.73)
		(end -6.46 26.73)
		(stroke
			(width 0.12)
			(type solid)
		)
		(layer "F.SilkS")
	)
	(fp_line
		(start -6.46 26.73)
		(end 6.46 26.73)
		(stroke
			(width 0.12)
			(type solid)
		)
		(layer "F.SilkS")
	)
	(fp_line
		(start -1 -26.73)
		(end -6.46 -26.73)
		(stroke
			(width 0.12)
			(type solid)
		)
		(layer "F.SilkS")
	)
	(fp_line
		(start 6.46 -26.73)
		(end 1 -26.73)
		(stroke
			(width 0.12)
			(type solid)
		)
		(layer "F.SilkS")
	)
	(fp_line
		(start 6.46 26.73)
		(end 6.46 -26.73)
		(stroke
			(width 0.12)
			(type solid)
		)
		(layer "F.SilkS")
	)
	(fp_rect
		(start -8.95 -26.79)
		(end 8.95 26.79)
		(stroke
			(width 0.12)
			(type solid)
		)
		(fill none)
		(layer "F.SilkS")
	)
	(fp_arc
		(start 1 -26.73)
		(mid 0 -25.73)
		(end -1 -26.73)
		(stroke
			(width 0.12)
			(type solid)
		)
		(layer "F.SilkS")
	)
	(fp_rect
		(start -9.14 -26.98)
		(end 9.14 26.98)
		(stroke
			(width 0.05)
			(type solid)
		)
		(fill none)
		(layer "F.CrtYd")
	)
	(fp_line
		(start -7.365 -25.67)
		(end -6.365 -26.67)
		(stroke
			(width 0.1)
			(type solid)
		)
		(layer "F.Fab")
	)
	(fp_line
		(start -7.365 26.67)
		(end -7.365 -25.67)
		(stroke
			(width 0.1)
			(type solid)
		)
		(layer "F.Fab")
	)
	(fp_line
		(start -6.365 -26.67)
		(end 7.365 -26.67)
		(stroke
			(width 0.1)
			(type solid)
		)
		(layer "F.Fab")
	)
	(fp_line
		(start 7.365 -26.67)
		(end 7.365 26.67)
		(stroke
			(width 0.1)
			(type solid)
		)
		(layer "F.Fab")
	)
	(fp_line
		(start 7.365 26.67)
		(end -7.365 26.67)
		(stroke
			(width 0.1)
			(type solid)
		)
		(layer "F.Fab")
	)
	(fp_rect
		(start -8.89 -26.73)
		(end 8.89 26.73)
		(stroke
			(width 0.1)
			(type solid)
		)
		(fill none)
		(layer "F.Fab")
	)
	(fp_text user "${REFERENCE}"
		(at 0 0 90)
		(layer "F.Fab")
		(effects
			(font
				(size 1 1)
				(thickness 0.15)
			)
		)
	)
	(pad "1" smd roundrect
		(at -7.62 -25.4)
		(size 1.6 1.6)
		(layers "F.Cu" "F.Paste" "F.Mask")
		(roundrect_rratio 0.15625)
	)
	(pad "2" smd roundrect
		(at -7.62 -22.86)
		(size 1.6 1.6)
		(layers "F.Cu" "F.Paste" "F.Mask")
		(roundrect_rratio 0.15625)
	)
	(pad "3" smd roundrect
		(at -7.62 -20.32)
		(size 1.6 1.6)
		(layers "F.Cu" "F.Paste" "F.Mask")
		(roundrect_rratio 0.15625)
	)
	(pad "4" smd roundrect
		(at -7.62 -17.78)
		(size 1.6 1.6)
		(layers "F.Cu" "F.Paste" "F.Mask")
		(roundrect_rratio 0.15625)
	)
	(pad "5" smd roundrect
		(at -7.62 -15.24)
		(size 1.6 1.6)
		(layers "F.Cu" "F.Paste" "F.Mask")
		(roundrect_rratio 0.15625)
	)
	(pad "6" smd roundrect
		(at -7.62 -12.7)
		(size 1.6 1.6)
		(layers "F.Cu" "F.Paste" "F.Mask")
		(roundrect_rratio 0.15625)
	)
	(pad "7" smd roundrect
		(at -7.62 -10.16)
		(size 1.6 1.6)
		(layers "F.Cu" "F.Paste" "F.Mask")
		(roundrect_rratio 0.15625)
	)
	(pad "8" smd roundrect
		(at -7.62 -7.62)
		(size 1.6 1.6)
		(layers "F.Cu" "F.Paste" "F.Mask")
		(roundrect_rratio 0.15625)
	)
	(pad "9" smd roundrect
		(at -7.62 -5.08)
		(size 1.6 1.6)
		(layers "F.Cu" "F.Paste" "F.Mask")
		(roundrect_rratio 0.15625)
	)
	(pad "10" smd roundrect
		(at -7.62 -2.54)
		(size 1.6 1.6)
		(layers "F.Cu" "F.Paste" "F.Mask")
		(roundrect_rratio 0.15625)
	)
	(pad "11" smd roundrect
		(at -7.62 0)
		(size 1.6 1.6)
		(layers "F.Cu" "F.Paste" "F.Mask")
		(roundrect_rratio 0.15625)
	)
	(pad "12" smd roundrect
		(at -7.62 2.54)
		(size 1.6 1.6)
		(layers "F.Cu" "F.Paste" "F.Mask")
		(roundrect_rratio 0.15625)
	)
	(pad "13" smd roundrect
		(at -7.62 5.08)
		(size 1.6 1.6)
		(layers "F.Cu" "F.Paste" "F.Mask")
		(roundrect_rratio 0.15625)
	)
	(pad "14" smd roundrect
		(at -7.62 7.62)
		(size 1.6 1.6)
		(layers "F.Cu" "F.Paste" "F.Mask")
		(roundrect_rratio 0.15625)
	)
	(pad "15" smd roundrect
		(at -7.62 10.16)
		(size 1.6 1.6)
		(layers "F.Cu" "F.Paste" "F.Mask")
		(roundrect_rratio 0.15625)
	)
	(pad "16" smd roundrect
		(at -7.62 12.7)
		(size 1.6 1.6)
		(layers "F.Cu" "F.Paste" "F.Mask")
		(roundrect_rratio 0.15625)
	)
	(pad "17" smd roundrect
		(at -7.62 15.24)
		(size 1.6 1.6)
		(layers "F.Cu" "F.Paste" "F.Mask")
		(roundrect_rratio 0.15625)
	)
	(pad "18" smd roundrect
		(at -7.62 17.78)
		(size 1.6 1.6)
		(layers "F.Cu" "F.Paste" "F.Mask")
		(roundrect_rratio 0.15625)
	)
	(pad "19" smd roundrect
		(at -7.62 20.32)
		(size 1.6 1.6)
		(layers "F.Cu" "F.Paste" "F.Mask")
		(roundrect_rratio 0.15625)
	)
	(pad "20" smd roundrect
		(at -7.62 22.86)
		(size 1.6 1.6)
		(layers "F.Cu" "F.Paste" "F.Mask")
		(roundrect_rratio 0.15625)
	)
	(pad "21" smd roundrect
		(at -7.62 25.4)
		(size 1.6 1.6)
		(layers "F.Cu" "F.Paste" "F.Mask")
		(roundrect_rratio 0.15625)
	)
	(pad "22" smd roundrect
		(at 7.62 25.4)
		(size 1.6 1.6)
		(layers "F.Cu" "F.Paste" "F.Mask")
		(roundrect_rratio 0.15625)
	)
	(pad "23" smd roundrect
		(at 7.62 22.86)
		(size 1.6 1.6)
		(layers "F.Cu" "F.Paste" "F.Mask")
		(roundrect_rratio 0.15625)
	)
	(pad "24" smd roundrect
		(at 7.62 20.32)
		(size 1.6 1.6)
		(layers "F.Cu" "F.Paste" "F.Mask")
		(roundrect_rratio 0.15625)
	)
	(pad "25" smd roundrect
		(at 7.62 17.78)
		(size 1.6 1.6)
		(layers "F.Cu" "F.Paste" "F.Mask")
		(roundrect_rratio 0.15625)
	)
	(pad "26" smd roundrect
		(at 7.62 15.24)
		(size 1.6 1.6)
		(layers "F.Cu" "F.Paste" "F.Mask")
		(roundrect_rratio 0.15625)
	)
	(pad "27" smd roundrect
		(at 7.62 12.7)
		(size 1.6 1.6)
		(layers "F.Cu" "F.Paste" "F.Mask")
		(roundrect_rratio 0.15625)
	)
	(pad "28" smd roundrect
		(at 7.62 10.16)
		(size 1.6 1.6)
		(layers "F.Cu" "F.Paste" "F.Mask")
		(roundrect_rratio 0.15625)
	)
	(pad "29" smd roundrect
		(at 7.62 7.62)
		(size 1.6 1.6)
		(layers "F.Cu" "F.Paste" "F.Mask")
		(roundrect_rratio 0.15625)
	)
	(pad "30" smd roundrect
		(at 7.62 5.08)
		(size 1.6 1.6)
		(layers "F.Cu" "F.Paste" "F.Mask")
		(roundrect_rratio 0.15625)
	)
	(pad "31" smd roundrect
		(at 7.62 2.54)
		(size 1.6 1.6)
		(layers "F.Cu" "F.Paste" "F.Mask")
		(roundrect_rratio 0.15625)
	)
	(pad "32" smd roundrect
		(at 7.62 0)
		(size 1.6 1.6)
		(layers "F.Cu" "F.Paste" "F.Mask")
		(roundrect_rratio 0.15625)
	)
	(pad "33" smd roundrect
		(at 7.62 -2.54)
		(size 1.6 1.6)
		(layers "F.Cu" "F.Paste" "F.Mask")
		(roundrect_rratio 0.15625)
	)
	(pad "34" smd roundrect
		(at 7.62 -5.08)
		(size 1.6 1.6)
		(layers "F.Cu" "F.Paste" "F.Mask")
		(roundrect_rratio 0.15625)
	)
	(pad "35" smd roundrect
		(at 7.62 -7.62)
		(size 1.6 1.6)
		(layers "F.Cu" "F.Paste" "F.Mask")
		(roundrect_rratio 0.15625)
	)
	(pad "36" smd roundrect
		(at 7.62 -10.16)
		(size 1.6 1.6)
		(layers "F.Cu" "F.Paste" "F.Mask")
		(roundrect_rratio 0.15625)
	)
	(pad "37" smd roundrect
		(at 7.62 -12.7)
		(size 1.6 1.6)
		(layers "F.Cu" "F.Paste" "F.Mask")
		(roundrect_rratio 0.15625)
	)
	(pad "38" smd roundrect
		(at 7.62 -15.24)
		(size 1.6 1.6)
		(layers "F.Cu" "F.Paste" "F.Mask")
		(roundrect_rratio 0.15625)
	)
	(pad "39" smd roundrect
		(at 7.62 -17.78)
		(size 1.6 1.6)
		(layers "F.Cu" "F.Paste" "F.Mask")
		(roundrect_rratio 0.15625)
	)
	(pad "40" smd roundrect
		(at 7.62 -20.32)
		(size 1.6 1.6)
		(layers "F.Cu" "F.Paste" "F.Mask")
		(roundrect_rratio 0.15625)
	)
	(pad "41" smd roundrect
		(at 7.62 -22.86)
		(size 1.6 1.6)
		(layers "F.Cu" "F.Paste" "F.Mask")
		(roundrect_rratio 0.15625)
	)
	(pad "42" smd roundrect
		(at 7.62 -25.4)
		(size 1.6 1.6)
		(layers "F.Cu" "F.Paste" "F.Mask")
		(roundrect_rratio 0.15625)
	)
	(model "${KICAD8_3DMODEL_DIR}/Package_DIP.3dshapes/DIP-42_W15.24mm_SMDSocket_SmallPads.wrl"
		(offset
			(xyz 0 0 0)
		)
		(scale
			(xyz 1 1 1)
		)
		(rotate
			(xyz 0 0 0)
		)
	)
)
