(footprint "DIP-4_W7.62mm_Socket_LongPads"
	(version 20240108)
	(generator "kicad-footprint-generator")
	(layer "F.Cu")
	(descr "4-lead though-hole mounted DIP package, row spacing 7.62mm (300 mils), Socket, LongPads")
	(tags "THT DIP DIL PDIP 2.54mm 7.62mm 300mil Socket LongPads")
	(property "Reference" "REF**"
		(at 3.81 -2.33 0)
		(layer "F.SilkS")
		(effects
			(font
				(size 1 1)
				(thickness 0.15)
			)
		)
	)
	(property "Value" "DIP-4_W7.62mm_Socket_LongPads"
		(at 3.81 4.87 0)
		(layer "F.Fab")
		(effects
			(font
				(size 1 1)
				(thickness 0.15)
			)
		)
	)
	(attr through_hole)
	(fp_line
		(start 1.56 -1.33)
		(end 1.56 3.87)
		(stroke
			(width 0.12)
			(type solid)
		)
		(layer "F.SilkS")
	)
	(fp_line
		(start 1.56 3.87)
		(end 6.06 3.87)
		(stroke
			(width 0.12)
			(type solid)
		)
		(layer "F.SilkS")
	)
	(fp_line
		(start 2.81 -1.33)
		(end 1.56 -1.33)
		(stroke
			(width 0.12)
			(type solid)
		)
		(layer "F.SilkS")
	)
	(fp_line
		(start 6.06 -1.33)
		(end 4.81 -1.33)
		(stroke
			(width 0.12)
			(type solid)
		)
		(layer "F.SilkS")
	)
	(fp_line
		(start 6.06 3.87)
		(end 6.06 -1.33)
		(stroke
			(width 0.12)
			(type solid)
		)
		(layer "F.SilkS")
	)
	(fp_rect
		(start -1.44 -1.39)
		(end 9.06 3.93)
		(stroke
			(width 0.12)
			(type solid)
		)
		(fill none)
		(layer "F.SilkS")
	)
	(fp_arc
		(start 4.81 -1.33)
		(mid 3.81 -0.33)
		(end 2.81 -1.33)
		(stroke
			(width 0.12)
			(type solid)
		)
		(layer "F.SilkS")
	)
	(fp_rect
		(start -1.52 -1.58)
		(end 9.14 4.12)
		(stroke
			(width 0.05)
			(type solid)
		)
		(fill none)
		(layer "F.CrtYd")
	)
	(fp_line
		(start 0.635 -0.27)
		(end 1.635 -1.27)
		(stroke
			(width 0.1)
			(type solid)
		)
		(layer "F.Fab")
	)
	(fp_line
		(start 0.635 3.81)
		(end 0.635 -0.27)
		(stroke
			(width 0.1)
			(type solid)
		)
		(layer "F.Fab")
	)
	(fp_line
		(start 1.635 -1.27)
		(end 6.985 -1.27)
		(stroke
			(width 0.1)
			(type solid)
		)
		(layer "F.Fab")
	)
	(fp_line
		(start 6.985 -1.27)
		(end 6.985 3.81)
		(stroke
			(width 0.1)
			(type solid)
		)
		(layer "F.Fab")
	)
	(fp_line
		(start 6.985 3.81)
		(end 0.635 3.81)
		(stroke
			(width 0.1)
			(type solid)
		)
		(layer "F.Fab")
	)
	(fp_rect
		(start -1.27 -1.33)
		(end 8.89 3.87)
		(stroke
			(width 0.1)
			(type solid)
		)
		(fill none)
		(layer "F.Fab")
	)
	(fp_text user "${REFERENCE}"
		(at 3.81 1.27 0)
		(layer "F.Fab")
		(effects
			(font
				(size 1 1)
				(thickness 0.15)
			)
		)
	)
	(pad "1" thru_hole roundrect
		(at 0 0)
		(size 2.4 1.6)
		(drill 0.8)
		(layers "*.Cu" "*.Mask")
		(remove_unused_layers no)
		(roundrect_rratio 0.15625)
	)
	(pad "2" thru_hole oval
		(at 0 2.54)
		(size 2.4 1.6)
		(drill 0.8)
		(layers "*.Cu" "*.Mask")
		(remove_unused_layers no)
	)
	(pad "3" thru_hole oval
		(at 7.62 2.54)
		(size 2.4 1.6)
		(drill 0.8)
		(layers "*.Cu" "*.Mask")
		(remove_unused_layers no)
	)
	(pad "4" thru_hole oval
		(at 7.62 0)
		(size 2.4 1.6)
		(drill 0.8)
		(layers "*.Cu" "*.Mask")
		(remove_unused_layers no)
	)
	(model "${KICAD8_3DMODEL_DIR}/Package_DIP.3dshapes/DIP-4_W7.62mm_Socket_LongPads.wrl"
		(offset
			(xyz 0 0 0)
		)
		(scale
			(xyz 1 1 1)
		)
		(rotate
			(xyz 0 0 0)
		)
	)
)
