(footprint "DIP-6_W8.89mm_SMDSocket_LongPads"
	(version 20240108)
	(generator "kicad-footprint-generator")
	(layer "F.Cu")
	(descr "6-lead though-hole mounted DIP package, row spacing 8.89mm (350 mils), SMDSocket, LongPads")
	(tags "THT DIP DIL PDIP 2.54mm 8.89mm 350mil SMDSocket LongPads")
	(property "Reference" "REF**"
		(at 0 -4.87 0)
		(layer "F.SilkS")
		(effects
			(font
				(size 1 1)
				(thickness 0.15)
			)
		)
	)
	(property "Value" "DIP-6_W8.89mm_SMDSocket_LongPads"
		(at 0 4.87 0)
		(layer "F.Fab")
		(effects
			(font
				(size 1 1)
				(thickness 0.15)
			)
		)
	)
	(attr smd)
	(fp_line
		(start -2.535 -3.87)
		(end -2.535 3.87)
		(stroke
			(width 0.12)
			(type solid)
		)
		(layer "F.SilkS")
	)
	(fp_line
		(start -2.535 3.87)
		(end 2.535 3.87)
		(stroke
			(width 0.12)
			(type solid)
		)
		(layer "F.SilkS")
	)
	(fp_line
		(start -1 -3.87)
		(end -2.535 -3.87)
		(stroke
			(width 0.12)
			(type solid)
		)
		(layer "F.SilkS")
	)
	(fp_line
		(start 2.535 -3.87)
		(end 1 -3.87)
		(stroke
			(width 0.12)
			(type solid)
		)
		(layer "F.SilkS")
	)
	(fp_line
		(start 2.535 3.87)
		(end 2.535 -3.87)
		(stroke
			(width 0.12)
			(type solid)
		)
		(layer "F.SilkS")
	)
	(fp_rect
		(start -6.235 -3.93)
		(end 6.235 3.93)
		(stroke
			(width 0.12)
			(type solid)
		)
		(fill none)
		(layer "F.SilkS")
	)
	(fp_arc
		(start 1 -3.87)
		(mid 0 -2.87)
		(end -1 -3.87)
		(stroke
			(width 0.12)
			(type solid)
		)
		(layer "F.SilkS")
	)
	(fp_rect
		(start -6.25 -4.12)
		(end 6.25 4.12)
		(stroke
			(width 0.05)
			(type solid)
		)
		(fill none)
		(layer "F.CrtYd")
	)
	(fp_line
		(start -3.175 -2.81)
		(end -2.175 -3.81)
		(stroke
			(width 0.1)
			(type solid)
		)
		(layer "F.Fab")
	)
	(fp_line
		(start -3.175 3.81)
		(end -3.175 -2.81)
		(stroke
			(width 0.1)
			(type solid)
		)
		(layer "F.Fab")
	)
	(fp_line
		(start -2.175 -3.81)
		(end 3.175 -3.81)
		(stroke
			(width 0.1)
			(type solid)
		)
		(layer "F.Fab")
	)
	(fp_line
		(start 3.175 -3.81)
		(end 3.175 3.81)
		(stroke
			(width 0.1)
			(type solid)
		)
		(layer "F.Fab")
	)
	(fp_line
		(start 3.175 3.81)
		(end -3.175 3.81)
		(stroke
			(width 0.1)
			(type solid)
		)
		(layer "F.Fab")
	)
	(fp_rect
		(start -5.08 -3.87)
		(end 5.08 3.87)
		(stroke
			(width 0.1)
			(type solid)
		)
		(fill none)
		(layer "F.Fab")
	)
	(fp_text user "${REFERENCE}"
		(at 0 0 90)
		(layer "F.Fab")
		(effects
			(font
				(size 1 1)
				(thickness 0.15)
			)
		)
	)
	(pad "1" smd roundrect
		(at -4.445 -2.54)
		(size 3.1 1.6)
		(layers "F.Cu" "F.Paste" "F.Mask")
		(roundrect_rratio 0.15625)
	)
	(pad "2" smd roundrect
		(at -4.445 0)
		(size 3.1 1.6)
		(layers "F.Cu" "F.Paste" "F.Mask")
		(roundrect_rratio 0.15625)
	)
	(pad "3" smd roundrect
		(at -4.445 2.54)
		(size 3.1 1.6)
		(layers "F.Cu" "F.Paste" "F.Mask")
		(roundrect_rratio 0.15625)
	)
	(pad "4" smd roundrect
		(at 4.445 2.54)
		(size 3.1 1.6)
		(layers "F.Cu" "F.Paste" "F.Mask")
		(roundrect_rratio 0.15625)
	)
	(pad "5" smd roundrect
		(at 4.445 0)
		(size 3.1 1.6)
		(layers "F.Cu" "F.Paste" "F.Mask")
		(roundrect_rratio 0.15625)
	)
	(pad "6" smd roundrect
		(at 4.445 -2.54)
		(size 3.1 1.6)
		(layers "F.Cu" "F.Paste" "F.Mask")
		(roundrect_rratio 0.15625)
	)
	(model "${KICAD8_3DMODEL_DIR}/Package_DIP.3dshapes/DIP-6_W8.89mm_SMDSocket_LongPads.wrl"
		(offset
			(xyz 0 0 0)
		)
		(scale
			(xyz 1 1 1)
		)
		(rotate
			(xyz 0 0 0)
		)
	)
)
