(footprint "DIP-40_W25.4mm_SMDSocket_SmallPads"
	(version 20240108)
	(generator "kicad-footprint-generator")
	(layer "F.Cu")
	(descr "40-lead though-hole mounted DIP package, row spacing 25.4mm (1000 mils), SMDSocket, SmallPads")
	(tags "THT DIP DIL PDIP 2.54mm 25.4mm 1000mil SMDSocket SmallPads")
	(property "Reference" "REF**"
		(at 0 -26.46 0)
		(layer "F.SilkS")
		(effects
			(font
				(size 1 1)
				(thickness 0.15)
			)
		)
	)
	(property "Value" "DIP-40_W25.4mm_SMDSocket_SmallPads"
		(at 0 26.46 0)
		(layer "F.Fab")
		(effects
			(font
				(size 1 1)
				(thickness 0.15)
			)
		)
	)
	(attr smd)
	(fp_line
		(start -11.54 -25.46)
		(end -11.54 25.46)
		(stroke
			(width 0.12)
			(type solid)
		)
		(layer "F.SilkS")
	)
	(fp_line
		(start -11.54 25.46)
		(end 11.54 25.46)
		(stroke
			(width 0.12)
			(type solid)
		)
		(layer "F.SilkS")
	)
	(fp_line
		(start -1 -25.46)
		(end -11.54 -25.46)
		(stroke
			(width 0.12)
			(type solid)
		)
		(layer "F.SilkS")
	)
	(fp_line
		(start 11.54 -25.46)
		(end 1 -25.46)
		(stroke
			(width 0.12)
			(type solid)
		)
		(layer "F.SilkS")
	)
	(fp_line
		(start 11.54 25.46)
		(end 11.54 -25.46)
		(stroke
			(width 0.12)
			(type solid)
		)
		(layer "F.SilkS")
	)
	(fp_rect
		(start -14.03 -25.52)
		(end 14.03 25.52)
		(stroke
			(width 0.12)
			(type solid)
		)
		(fill none)
		(layer "F.SilkS")
	)
	(fp_arc
		(start 1 -25.46)
		(mid 0 -24.46)
		(end -1 -25.46)
		(stroke
			(width 0.12)
			(type solid)
		)
		(layer "F.SilkS")
	)
	(fp_rect
		(start -14.22 -25.71)
		(end 14.22 25.71)
		(stroke
			(width 0.05)
			(type solid)
		)
		(fill none)
		(layer "F.CrtYd")
	)
	(fp_line
		(start -12.445 -24.4)
		(end -11.445 -25.4)
		(stroke
			(width 0.1)
			(type solid)
		)
		(layer "F.Fab")
	)
	(fp_line
		(start -12.445 25.4)
		(end -12.445 -24.4)
		(stroke
			(width 0.1)
			(type solid)
		)
		(layer "F.Fab")
	)
	(fp_line
		(start -11.445 -25.4)
		(end 12.445 -25.4)
		(stroke
			(width 0.1)
			(type solid)
		)
		(layer "F.Fab")
	)
	(fp_line
		(start 12.445 -25.4)
		(end 12.445 25.4)
		(stroke
			(width 0.1)
			(type solid)
		)
		(layer "F.Fab")
	)
	(fp_line
		(start 12.445 25.4)
		(end -12.445 25.4)
		(stroke
			(width 0.1)
			(type solid)
		)
		(layer "F.Fab")
	)
	(fp_rect
		(start -13.97 -25.46)
		(end 13.97 25.46)
		(stroke
			(width 0.1)
			(type solid)
		)
		(fill none)
		(layer "F.Fab")
	)
	(fp_text user "${REFERENCE}"
		(at 0 0 90)
		(layer "F.Fab")
		(effects
			(font
				(size 1 1)
				(thickness 0.15)
			)
		)
	)
	(pad "1" smd roundrect
		(at -12.7 -24.13)
		(size 1.6 1.6)
		(layers "F.Cu" "F.Paste" "F.Mask")
		(roundrect_rratio 0.15625)
	)
	(pad "2" smd roundrect
		(at -12.7 -21.59)
		(size 1.6 1.6)
		(layers "F.Cu" "F.Paste" "F.Mask")
		(roundrect_rratio 0.15625)
	)
	(pad "3" smd roundrect
		(at -12.7 -19.05)
		(size 1.6 1.6)
		(layers "F.Cu" "F.Paste" "F.Mask")
		(roundrect_rratio 0.15625)
	)
	(pad "4" smd roundrect
		(at -12.7 -16.51)
		(size 1.6 1.6)
		(layers "F.Cu" "F.Paste" "F.Mask")
		(roundrect_rratio 0.15625)
	)
	(pad "5" smd roundrect
		(at -12.7 -13.97)
		(size 1.6 1.6)
		(layers "F.Cu" "F.Paste" "F.Mask")
		(roundrect_rratio 0.15625)
	)
	(pad "6" smd roundrect
		(at -12.7 -11.43)
		(size 1.6 1.6)
		(layers "F.Cu" "F.Paste" "F.Mask")
		(roundrect_rratio 0.15625)
	)
	(pad "7" smd roundrect
		(at -12.7 -8.89)
		(size 1.6 1.6)
		(layers "F.Cu" "F.Paste" "F.Mask")
		(roundrect_rratio 0.15625)
	)
	(pad "8" smd roundrect
		(at -12.7 -6.35)
		(size 1.6 1.6)
		(layers "F.Cu" "F.Paste" "F.Mask")
		(roundrect_rratio 0.15625)
	)
	(pad "9" smd roundrect
		(at -12.7 -3.81)
		(size 1.6 1.6)
		(layers "F.Cu" "F.Paste" "F.Mask")
		(roundrect_rratio 0.15625)
	)
	(pad "10" smd roundrect
		(at -12.7 -1.27)
		(size 1.6 1.6)
		(layers "F.Cu" "F.Paste" "F.Mask")
		(roundrect_rratio 0.15625)
	)
	(pad "11" smd roundrect
		(at -12.7 1.27)
		(size 1.6 1.6)
		(layers "F.Cu" "F.Paste" "F.Mask")
		(roundrect_rratio 0.15625)
	)
	(pad "12" smd roundrect
		(at -12.7 3.81)
		(size 1.6 1.6)
		(layers "F.Cu" "F.Paste" "F.Mask")
		(roundrect_rratio 0.15625)
	)
	(pad "13" smd roundrect
		(at -12.7 6.35)
		(size 1.6 1.6)
		(layers "F.Cu" "F.Paste" "F.Mask")
		(roundrect_rratio 0.15625)
	)
	(pad "14" smd roundrect
		(at -12.7 8.89)
		(size 1.6 1.6)
		(layers "F.Cu" "F.Paste" "F.Mask")
		(roundrect_rratio 0.15625)
	)
	(pad "15" smd roundrect
		(at -12.7 11.43)
		(size 1.6 1.6)
		(layers "F.Cu" "F.Paste" "F.Mask")
		(roundrect_rratio 0.15625)
	)
	(pad "16" smd roundrect
		(at -12.7 13.97)
		(size 1.6 1.6)
		(layers "F.Cu" "F.Paste" "F.Mask")
		(roundrect_rratio 0.15625)
	)
	(pad "17" smd roundrect
		(at -12.7 16.51)
		(size 1.6 1.6)
		(layers "F.Cu" "F.Paste" "F.Mask")
		(roundrect_rratio 0.15625)
	)
	(pad "18" smd roundrect
		(at -12.7 19.05)
		(size 1.6 1.6)
		(layers "F.Cu" "F.Paste" "F.Mask")
		(roundrect_rratio 0.15625)
	)
	(pad "19" smd roundrect
		(at -12.7 21.59)
		(size 1.6 1.6)
		(layers "F.Cu" "F.Paste" "F.Mask")
		(roundrect_rratio 0.15625)
	)
	(pad "20" smd roundrect
		(at -12.7 24.13)
		(size 1.6 1.6)
		(layers "F.Cu" "F.Paste" "F.Mask")
		(roundrect_rratio 0.15625)
	)
	(pad "21" smd roundrect
		(at 12.7 24.13)
		(size 1.6 1.6)
		(layers "F.Cu" "F.Paste" "F.Mask")
		(roundrect_rratio 0.15625)
	)
	(pad "22" smd roundrect
		(at 12.7 21.59)
		(size 1.6 1.6)
		(layers "F.Cu" "F.Paste" "F.Mask")
		(roundrect_rratio 0.15625)
	)
	(pad "23" smd roundrect
		(at 12.7 19.05)
		(size 1.6 1.6)
		(layers "F.Cu" "F.Paste" "F.Mask")
		(roundrect_rratio 0.15625)
	)
	(pad "24" smd roundrect
		(at 12.7 16.51)
		(size 1.6 1.6)
		(layers "F.Cu" "F.Paste" "F.Mask")
		(roundrect_rratio 0.15625)
	)
	(pad "25" smd roundrect
		(at 12.7 13.97)
		(size 1.6 1.6)
		(layers "F.Cu" "F.Paste" "F.Mask")
		(roundrect_rratio 0.15625)
	)
	(pad "26" smd roundrect
		(at 12.7 11.43)
		(size 1.6 1.6)
		(layers "F.Cu" "F.Paste" "F.Mask")
		(roundrect_rratio 0.15625)
	)
	(pad "27" smd roundrect
		(at 12.7 8.89)
		(size 1.6 1.6)
		(layers "F.Cu" "F.Paste" "F.Mask")
		(roundrect_rratio 0.15625)
	)
	(pad "28" smd roundrect
		(at 12.7 6.35)
		(size 1.6 1.6)
		(layers "F.Cu" "F.Paste" "F.Mask")
		(roundrect_rratio 0.15625)
	)
	(pad "29" smd roundrect
		(at 12.7 3.81)
		(size 1.6 1.6)
		(layers "F.Cu" "F.Paste" "F.Mask")
		(roundrect_rratio 0.15625)
	)
	(pad "30" smd roundrect
		(at 12.7 1.27)
		(size 1.6 1.6)
		(layers "F.Cu" "F.Paste" "F.Mask")
		(roundrect_rratio 0.15625)
	)
	(pad "31" smd roundrect
		(at 12.7 -1.27)
		(size 1.6 1.6)
		(layers "F.Cu" "F.Paste" "F.Mask")
		(roundrect_rratio 0.15625)
	)
	(pad "32" smd roundrect
		(at 12.7 -3.81)
		(size 1.6 1.6)
		(layers "F.Cu" "F.Paste" "F.Mask")
		(roundrect_rratio 0.15625)
	)
	(pad "33" smd roundrect
		(at 12.7 -6.35)
		(size 1.6 1.6)
		(layers "F.Cu" "F.Paste" "F.Mask")
		(roundrect_rratio 0.15625)
	)
	(pad "34" smd roundrect
		(at 12.7 -8.89)
		(size 1.6 1.6)
		(layers "F.Cu" "F.Paste" "F.Mask")
		(roundrect_rratio 0.15625)
	)
	(pad "35" smd roundrect
		(at 12.7 -11.43)
		(size 1.6 1.6)
		(layers "F.Cu" "F.Paste" "F.Mask")
		(roundrect_rratio 0.15625)
	)
	(pad "36" smd roundrect
		(at 12.7 -13.97)
		(size 1.6 1.6)
		(layers "F.Cu" "F.Paste" "F.Mask")
		(roundrect_rratio 0.15625)
	)
	(pad "37" smd roundrect
		(at 12.7 -16.51)
		(size 1.6 1.6)
		(layers "F.Cu" "F.Paste" "F.Mask")
		(roundrect_rratio 0.15625)
	)
	(pad "38" smd roundrect
		(at 12.7 -19.05)
		(size 1.6 1.6)
		(layers "F.Cu" "F.Paste" "F.Mask")
		(roundrect_rratio 0.15625)
	)
	(pad "39" smd roundrect
		(at 12.7 -21.59)
		(size 1.6 1.6)
		(layers "F.Cu" "F.Paste" "F.Mask")
		(roundrect_rratio 0.15625)
	)
	(pad "40" smd roundrect
		(at 12.7 -24.13)
		(size 1.6 1.6)
		(layers "F.Cu" "F.Paste" "F.Mask")
		(roundrect_rratio 0.15625)
	)
	(model "${KICAD8_3DMODEL_DIR}/Package_DIP.3dshapes/DIP-40_W25.4mm_SMDSocket_SmallPads.wrl"
		(offset
			(xyz 0 0 0)
		)
		(scale
			(xyz 1 1 1)
		)
		(rotate
			(xyz 0 0 0)
		)
	)
)
