(footprint "SMDIP-6_W7.62mm"
	(version 20240108)
	(generator "kicad-footprint-generator")
	(layer "F.Cu")
	(descr "6-lead surface-mounted (SMD) DIP package, row spacing 7.62mm (300 mils)")
	(tags "SMD DIP DIL PDIP SMDIP 2.54mm 7.62mm 300mil")
	(property "Reference" "REF**"
		(at 0 -4.87 0)
		(layer "F.SilkS")
		(effects
			(font
				(size 1 1)
				(thickness 0.15)
			)
		)
	)
	(property "Value" "SMDIP-6_W7.62mm"
		(at 0 4.87 0)
		(layer "F.Fab")
		(effects
			(font
				(size 1 1)
				(thickness 0.15)
			)
		)
	)
	(attr smd)
	(fp_line
		(start -2.45 -3.87)
		(end -2.45 3.87)
		(stroke
			(width 0.12)
			(type solid)
		)
		(layer "F.SilkS")
	)
	(fp_line
		(start -2.45 3.87)
		(end 2.45 3.87)
		(stroke
			(width 0.12)
			(type solid)
		)
		(layer "F.SilkS")
	)
	(fp_line
		(start -1 -3.87)
		(end -2.45 -3.87)
		(stroke
			(width 0.12)
			(type solid)
		)
		(layer "F.SilkS")
	)
	(fp_line
		(start 2.45 -3.87)
		(end 1 -3.87)
		(stroke
			(width 0.12)
			(type solid)
		)
		(layer "F.SilkS")
	)
	(fp_line
		(start 2.45 3.87)
		(end 2.45 -3.87)
		(stroke
			(width 0.12)
			(type solid)
		)
		(layer "F.SilkS")
	)
	(fp_arc
		(start 1 -3.87)
		(mid 0 -2.87)
		(end -1 -3.87)
		(stroke
			(width 0.12)
			(type solid)
		)
		(layer "F.SilkS")
	)
	(fp_rect
		(start -5.07 -4.06)
		(end 5.07 4.06)
		(stroke
			(width 0.05)
			(type solid)
		)
		(fill none)
		(layer "F.CrtYd")
	)
	(fp_line
		(start -3.175 -2.81)
		(end -2.175 -3.81)
		(stroke
			(width 0.1)
			(type solid)
		)
		(layer "F.Fab")
	)
	(fp_line
		(start -3.175 3.81)
		(end -3.175 -2.81)
		(stroke
			(width 0.1)
			(type solid)
		)
		(layer "F.Fab")
	)
	(fp_line
		(start -2.175 -3.81)
		(end 3.175 -3.81)
		(stroke
			(width 0.1)
			(type solid)
		)
		(layer "F.Fab")
	)
	(fp_line
		(start 3.175 -3.81)
		(end 3.175 3.81)
		(stroke
			(width 0.1)
			(type solid)
		)
		(layer "F.Fab")
	)
	(fp_line
		(start 3.175 3.81)
		(end -3.175 3.81)
		(stroke
			(width 0.1)
			(type solid)
		)
		(layer "F.Fab")
	)
	(fp_text user "${REFERENCE}"
		(at 0 0 90)
		(layer "F.Fab")
		(effects
			(font
				(size 1 1)
				(thickness 0.15)
			)
		)
	)
	(pad "1" smd roundrect
		(at -3.81 -2.54)
		(size 2 1.78)
		(layers "F.Cu" "F.Paste" "F.Mask")
		(roundrect_rratio 0.140449)
	)
	(pad "2" smd roundrect
		(at -3.81 0)
		(size 2 1.78)
		(layers "F.Cu" "F.Paste" "F.Mask")
		(roundrect_rratio 0.140449)
	)
	(pad "3" smd roundrect
		(at -3.81 2.54)
		(size 2 1.78)
		(layers "F.Cu" "F.Paste" "F.Mask")
		(roundrect_rratio 0.140449)
	)
	(pad "4" smd roundrect
		(at 3.81 2.54)
		(size 2 1.78)
		(layers "F.Cu" "F.Paste" "F.Mask")
		(roundrect_rratio 0.140449)
	)
	(pad "5" smd roundrect
		(at 3.81 0)
		(size 2 1.78)
		(layers "F.Cu" "F.Paste" "F.Mask")
		(roundrect_rratio 0.140449)
	)
	(pad "6" smd roundrect
		(at 3.81 -2.54)
		(size 2 1.78)
		(layers "F.Cu" "F.Paste" "F.Mask")
		(roundrect_rratio 0.140449)
	)
	(model "${KICAD8_3DMODEL_DIR}/Housings_DIP.3dshapes/SMDIP-6_W7.62mm.wrl"
		(offset
			(xyz 0 0 0)
		)
		(scale
			(xyz 1 1 1)
		)
		(rotate
			(xyz 0 0 0)
		)
	)
)
