(footprint "SMDIP-4_W9.53mm_Clearance8mm"
	(version 20240108)
	(generator "kicad-footprint-generator")
	(layer "F.Cu")
	(descr "4-lead surface-mounted (SMD) DIP package, row spacing 9.53mm (375 mils), Clearance8mm")
	(tags "SMD DIP DIL PDIP SMDIP 2.54mm 9.53mm 375mil Clearance8mm")
	(property "Reference" "REF**"
		(at 0 -3.6 0)
		(layer "F.SilkS")
		(effects
			(font
				(size 1 1)
				(thickness 0.15)
			)
		)
	)
	(property "Value" "SMDIP-4_W9.53mm_Clearance8mm"
		(at 0 3.6 0)
		(layer "F.Fab")
		(effects
			(font
				(size 1 1)
				(thickness 0.15)
			)
		)
	)
	(attr smd)
	(fp_line
		(start -3.235 -2.6)
		(end -3.235 2.6)
		(stroke
			(width 0.12)
			(type solid)
		)
		(layer "F.SilkS")
	)
	(fp_line
		(start -3.235 2.6)
		(end 3.235 2.6)
		(stroke
			(width 0.12)
			(type solid)
		)
		(layer "F.SilkS")
	)
	(fp_line
		(start -1 -2.6)
		(end -3.235 -2.6)
		(stroke
			(width 0.12)
			(type solid)
		)
		(layer "F.SilkS")
	)
	(fp_line
		(start 3.235 -2.6)
		(end 1 -2.6)
		(stroke
			(width 0.12)
			(type solid)
		)
		(layer "F.SilkS")
	)
	(fp_line
		(start 3.235 2.6)
		(end 3.235 -2.6)
		(stroke
			(width 0.12)
			(type solid)
		)
		(layer "F.SilkS")
	)
	(fp_arc
		(start 1 -2.6)
		(mid 0 -1.6)
		(end -1 -2.6)
		(stroke
			(width 0.12)
			(type solid)
		)
		(layer "F.SilkS")
	)
	(fp_rect
		(start -5.77 -2.79)
		(end 5.77 2.79)
		(stroke
			(width 0.05)
			(type solid)
		)
		(fill none)
		(layer "F.CrtYd")
	)
	(fp_line
		(start -3.175 -1.54)
		(end -2.175 -2.54)
		(stroke
			(width 0.1)
			(type solid)
		)
		(layer "F.Fab")
	)
	(fp_line
		(start -3.175 2.54)
		(end -3.175 -1.54)
		(stroke
			(width 0.1)
			(type solid)
		)
		(layer "F.Fab")
	)
	(fp_line
		(start -2.175 -2.54)
		(end 3.175 -2.54)
		(stroke
			(width 0.1)
			(type solid)
		)
		(layer "F.Fab")
	)
	(fp_line
		(start 3.175 -2.54)
		(end 3.175 2.54)
		(stroke
			(width 0.1)
			(type solid)
		)
		(layer "F.Fab")
	)
	(fp_line
		(start 3.175 2.54)
		(end -3.175 2.54)
		(stroke
			(width 0.1)
			(type solid)
		)
		(layer "F.Fab")
	)
	(fp_text user "${REFERENCE}"
		(at 0 0 0)
		(layer "F.Fab")
		(effects
			(font
				(size 1 1)
				(thickness 0.15)
			)
		)
	)
	(pad "1" smd roundrect
		(at -4.765 -1.27)
		(size 1.5 1.78)
		(layers "F.Cu" "F.Paste" "F.Mask")
		(roundrect_rratio 0.166667)
	)
	(pad "2" smd roundrect
		(at -4.765 1.27)
		(size 1.5 1.78)
		(layers "F.Cu" "F.Paste" "F.Mask")
		(roundrect_rratio 0.166667)
	)
	(pad "3" smd roundrect
		(at 4.765 1.27)
		(size 1.5 1.78)
		(layers "F.Cu" "F.Paste" "F.Mask")
		(roundrect_rratio 0.166667)
	)
	(pad "4" smd roundrect
		(at 4.765 -1.27)
		(size 1.5 1.78)
		(layers "F.Cu" "F.Paste" "F.Mask")
		(roundrect_rratio 0.166667)
	)
	(model "${KICAD8_3DMODEL_DIR}/Housings_DIP.3dshapes/SMDIP-4_W9.53mm_Clearance8mm.wrl"
		(offset
			(xyz 0 0 0)
		)
		(scale
			(xyz 1 1 1)
		)
		(rotate
			(xyz 0 0 0)
		)
	)
)
