(footprint "SMDIP-10_W11.48mm"
	(version 20240108)
	(generator "kicad-footprint-generator")
	(layer "F.Cu")
	(descr "10-lead surface-mounted (SMD) DIP package, row spacing 11.48mm (451 mils)")
	(tags "SMD DIP DIL PDIP SMDIP 2.54mm 11.48mm 451mil")
	(property "Reference" "REF**"
		(at 0 -7.41 0)
		(layer "F.SilkS")
		(effects
			(font
				(size 1 1)
				(thickness 0.15)
			)
		)
	)
	(property "Value" "SMDIP-10_W11.48mm"
		(at 0 7.41 0)
		(layer "F.Fab")
		(effects
			(font
				(size 1 1)
				(thickness 0.15)
			)
		)
	)
	(attr smd)
	(fp_line
		(start -3.235 -6.41)
		(end -3.235 6.41)
		(stroke
			(width 0.12)
			(type solid)
		)
		(layer "F.SilkS")
	)
	(fp_line
		(start -3.235 6.41)
		(end 3.235 6.41)
		(stroke
			(width 0.12)
			(type solid)
		)
		(layer "F.SilkS")
	)
	(fp_line
		(start -1 -6.41)
		(end -3.235 -6.41)
		(stroke
			(width 0.12)
			(type solid)
		)
		(layer "F.SilkS")
	)
	(fp_line
		(start 3.235 -6.41)
		(end 1 -6.41)
		(stroke
			(width 0.12)
			(type solid)
		)
		(layer "F.SilkS")
	)
	(fp_line
		(start 3.235 6.41)
		(end 3.235 -6.41)
		(stroke
			(width 0.12)
			(type solid)
		)
		(layer "F.SilkS")
	)
	(fp_arc
		(start 1 -6.41)
		(mid 0 -5.41)
		(end -1 -6.41)
		(stroke
			(width 0.12)
			(type solid)
		)
		(layer "F.SilkS")
	)
	(fp_rect
		(start -6.99 -6.6)
		(end 6.99 6.6)
		(stroke
			(width 0.05)
			(type solid)
		)
		(fill none)
		(layer "F.CrtYd")
	)
	(fp_line
		(start -3.175 -5.35)
		(end -2.175 -6.35)
		(stroke
			(width 0.1)
			(type solid)
		)
		(layer "F.Fab")
	)
	(fp_line
		(start -3.175 6.35)
		(end -3.175 -5.35)
		(stroke
			(width 0.1)
			(type solid)
		)
		(layer "F.Fab")
	)
	(fp_line
		(start -2.175 -6.35)
		(end 3.175 -6.35)
		(stroke
			(width 0.1)
			(type solid)
		)
		(layer "F.Fab")
	)
	(fp_line
		(start 3.175 -6.35)
		(end 3.175 6.35)
		(stroke
			(width 0.1)
			(type solid)
		)
		(layer "F.Fab")
	)
	(fp_line
		(start 3.175 6.35)
		(end -3.175 6.35)
		(stroke
			(width 0.1)
			(type solid)
		)
		(layer "F.Fab")
	)
	(fp_text user "${REFERENCE}"
		(at 0 0 90)
		(layer "F.Fab")
		(effects
			(font
				(size 1 1)
				(thickness 0.15)
			)
		)
	)
	(pad "1" smd roundrect
		(at -5.74 -5.08)
		(size 2 1.78)
		(layers "F.Cu" "F.Paste" "F.Mask")
		(roundrect_rratio 0.140449)
	)
	(pad "2" smd roundrect
		(at -5.74 -2.54)
		(size 2 1.78)
		(layers "F.Cu" "F.Paste" "F.Mask")
		(roundrect_rratio 0.140449)
	)
	(pad "3" smd roundrect
		(at -5.74 0)
		(size 2 1.78)
		(layers "F.Cu" "F.Paste" "F.Mask")
		(roundrect_rratio 0.140449)
	)
	(pad "4" smd roundrect
		(at -5.74 2.54)
		(size 2 1.78)
		(layers "F.Cu" "F.Paste" "F.Mask")
		(roundrect_rratio 0.140449)
	)
	(pad "5" smd roundrect
		(at -5.74 5.08)
		(size 2 1.78)
		(layers "F.Cu" "F.Paste" "F.Mask")
		(roundrect_rratio 0.140449)
	)
	(pad "6" smd roundrect
		(at 5.74 5.08)
		(size 2 1.78)
		(layers "F.Cu" "F.Paste" "F.Mask")
		(roundrect_rratio 0.140449)
	)
	(pad "7" smd roundrect
		(at 5.74 2.54)
		(size 2 1.78)
		(layers "F.Cu" "F.Paste" "F.Mask")
		(roundrect_rratio 0.140449)
	)
	(pad "8" smd roundrect
		(at 5.74 0)
		(size 2 1.78)
		(layers "F.Cu" "F.Paste" "F.Mask")
		(roundrect_rratio 0.140449)
	)
	(pad "9" smd roundrect
		(at 5.74 -2.54)
		(size 2 1.78)
		(layers "F.Cu" "F.Paste" "F.Mask")
		(roundrect_rratio 0.140449)
	)
	(pad "10" smd roundrect
		(at 5.74 -5.08)
		(size 2 1.78)
		(layers "F.Cu" "F.Paste" "F.Mask")
		(roundrect_rratio 0.140449)
	)
	(model "${KICAD8_3DMODEL_DIR}/Housings_DIP.3dshapes/SMDIP-10_W11.48mm.wrl"
		(offset
			(xyz 0 0 0)
		)
		(scale
			(xyz 1 1 1)
		)
		(rotate
			(xyz 0 0 0)
		)
	)
)
