(footprint "XTAL_ABLS2-12.000MHZ-D4Y-T_mkit"
	(version 20240108)
	(generator "pcbnew")
	(generator_version "8.0")
	(layer "F.Cu")
	(property "Reference" "REF**"
		(at -5.768 -3.2564 0)
		(layer "F.SilkS")
		(uuid "6132a9c4-c8e9-4ca6-91ad-f5fe7cd3c855")
		(effects
			(font
				(size 0.64 0.64)
				(thickness 0.15)
			)
		)
	)
	(property "Value" "XTAL_ABLS2-12.000MHZ-D4Y-T"
		(at 2.7664 3.2564 0)
		(layer "F.Fab")
		(uuid "ab2b4bf1-28f8-4852-9167-bfc53e2b1a97")
		(effects
			(font
				(size 0.64 0.64)
				(thickness 0.15)
			)
		)
	)
	(property "Footprint" ""
		(at 0 0 0)
		(unlocked yes)
		(layer "F.Fab")
		(hide yes)
		(uuid "57bcece2-20e1-4e8f-9d2a-8a8fc6008c9a")
		(effects
			(font
				(size 1.27 1.27)
			)
		)
	)
	(property "Datasheet" ""
		(at 0 0 0)
		(unlocked yes)
		(layer "F.Fab")
		(hide yes)
		(uuid "a6c8cc24-f968-49a6-9976-6236267773b1")
		(effects
			(font
				(size 1.27 1.27)
			)
		)
	)
	(property "Description" ""
		(at 0 0 0)
		(unlocked yes)
		(layer "F.Fab")
		(hide yes)
		(uuid "eaf99ab5-d9d8-49cd-8893-70d09b399a68")
		(effects
			(font
				(size 1.27 1.27)
			)
		)
	)
	(attr smd)
	(fp_line
		(start -5.7 -2.35)
		(end 5.7 -2.35)
		(stroke
			(width 0.127)
			(type solid)
		)
		(layer "F.SilkS")
		(uuid "8d6b21ca-e9ef-48a9-9d05-01e71473687e")
	)
	(fp_line
		(start -5.7 2.35)
		(end 5.7 2.35)
		(stroke
			(width 0.127)
			(type solid)
		)
		(layer "F.SilkS")
		(uuid "162964ed-c0fc-407a-a53b-9c557aa33bad")
	)
	(fp_rect
		(start -6.858 -2.54)
		(end 6.858 2.54)
		(stroke
			(width 0.05)
			(type default)
		)
		(fill none)
		(layer "F.CrtYd")
		(uuid "4b767aa3-73d1-4821-9101-004e6e001074")
	)
	(fp_line
		(start -5.7 -2.35)
		(end -5.7 2.35)
		(stroke
			(width 0.127)
			(type solid)
		)
		(layer "F.Fab")
		(uuid "e0d53e7f-c6aa-4553-a15a-3fb5e727adbc")
	)
	(fp_line
		(start -5.7 -2.35)
		(end 5.7 -2.35)
		(stroke
			(width 0.127)
			(type solid)
		)
		(layer "F.Fab")
		(uuid "92c530a7-0f2a-4ea0-b1b1-04324ae01ac0")
	)
	(fp_line
		(start -5.7 2.35)
		(end 5.7 2.35)
		(stroke
			(width 0.127)
			(type solid)
		)
		(layer "F.Fab")
		(uuid "ec989267-389b-43aa-9684-5a7b4bb1e4ce")
	)
	(fp_line
		(start 5.7 -2.35)
		(end 5.7 2.35)
		(stroke
			(width 0.127)
			(type solid)
		)
		(layer "F.Fab")
		(uuid "95093f56-957a-4196-a816-e140bf72a96a")
	)
	(pad "1" smd rect
		(at -3.75 0)
		(size 5.6 2.1)
		(layers "F.Cu" "F.Paste" "F.Mask")
		(solder_mask_margin 0.102)
		(uuid "3d537758-9fda-4b28-8cf9-6fd78c16aff8")
	)
	(pad "2" smd rect
		(at 3.75 0)
		(size 5.6 2.1)
		(layers "F.Cu" "F.Paste" "F.Mask")
		(solder_mask_margin 0.102)
		(uuid "e9b92071-d92d-4f50-89e3-34ae0aac611f")
	)
	(model "${KICAD7_3DMODEL_DIR}/Crystal.3dshapes/ABLS2-12.000MHZ-D4Y-T_mkit.STEP"
		(offset
			(xyz 0 0 0)
		)
		(scale
			(xyz 1 1 1)
		)
		(rotate
			(xyz 90 180 -180)
		)
	)
)