(footprint "SWITCHCRAFT_TRASM4MSX_mkit"
	(version 20240108)
	(generator "pcbnew")
	(generator_version "8.0")
	(layer "F.Cu")
	(property "Reference" "REF**"
		(at -4.191 -8.92 0)
		(layer "F.SilkS")
		(uuid "5fbff835-f529-40ec-a6f5-fb20ac26a88b")
		(effects
			(font
				(size 1.4 1.4)
				(thickness 0.15)
			)
		)
	)
	(property "Value" "SWITCHCRAFT_TRASM4MSX"
		(at 10.033 8.92 0)
		(layer "F.Fab")
		(uuid "0a301122-1866-43bd-9525-4e601d7f2ed8")
		(effects
			(font
				(size 1.4 1.4)
				(thickness 0.15)
			)
		)
	)
	(property "Footprint" ""
		(at 0 0 0)
		(layer "F.Fab")
		(hide yes)
		(uuid "4c984073-a584-47cf-8243-0509357fb7cc")
		(effects
			(font
				(size 1.27 1.27)
				(thickness 0.15)
			)
		)
	)
	(property "Datasheet" ""
		(at 0 0 0)
		(layer "F.Fab")
		(hide yes)
		(uuid "4a979351-7a3a-44dd-a626-ad9cf723eef2")
		(effects
			(font
				(size 1.27 1.27)
				(thickness 0.15)
			)
		)
	)
	(property "Description" ""
		(at 0 0 0)
		(layer "F.Fab")
		(hide yes)
		(uuid "725423ef-5272-4044-aeb5-f2d452ffa153")
		(effects
			(font
				(size 1.27 1.27)
				(thickness 0.15)
			)
		)
	)
	(attr smd)
	(fp_line
		(start -8.636 -6.731)
		(end -7.3152 -6.731)
		(stroke
			(width 0.127)
			(type solid)
		)
		(layer "F.SilkS")
		(uuid "111bc0ab-9814-400f-989e-a4cada3a6a56")
	)
	(fp_line
		(start -8.636 -4.77)
		(end -8.636 -6.731)
		(stroke
			(width 0.127)
			(type solid)
		)
		(layer "F.SilkS")
		(uuid "230374ab-4fad-4db1-a6fa-03da3dd69b75")
	)
	(fp_line
		(start -8.636 6.731)
		(end -8.636 4.77)
		(stroke
			(width 0.127)
			(type solid)
		)
		(layer "F.SilkS")
		(uuid "267a2bc0-4e6a-4d49-a5d6-6ad7db048252")
	)
	(fp_line
		(start -8.636 6.731)
		(end -7.3152 6.731)
		(stroke
			(width 0.127)
			(type solid)
		)
		(layer "F.SilkS")
		(uuid "726ef94a-a0c1-4fd5-bc3e-6a1fe6c6fa52")
	)
	(fp_line
		(start 1.524 -6.731)
		(end -4.8768 -6.731)
		(stroke
			(width 0.127)
			(type solid)
		)
		(layer "F.SilkS")
		(uuid "2f07eb42-70a1-4bd0-9eb3-0a9acb29bba4")
	)
	(fp_line
		(start 1.524 -6.731)
		(end 1.524 -4.953)
		(stroke
			(width 0.127)
			(type solid)
		)
		(layer "F.SilkS")
		(uuid "6cf94979-bd3c-4701-9fda-c9520f31de40")
	)
	(fp_line
		(start 1.524 -4.953)
		(end 8.636 -4.953)
		(stroke
			(width 0.127)
			(type solid)
		)
		(layer "F.SilkS")
		(uuid "25042085-9b19-42c3-83ea-a827848459f3")
	)
	(fp_line
		(start 1.524 4.953)
		(end 1.524 6.731)
		(stroke
			(width 0.127)
			(type solid)
		)
		(layer "F.SilkS")
		(uuid "c343d4f0-8ce7-4e2e-b642-85c36b871c44")
	)
	(fp_line
		(start 1.524 6.731)
		(end -4.8768 6.731)
		(stroke
			(width 0.127)
			(type solid)
		)
		(layer "F.SilkS")
		(uuid "f3cf0e26-9d67-458f-8120-ba8489e8525f")
	)
	(fp_line
		(start 8.636 -4.953)
		(end 8.636 4.953)
		(stroke
			(width 0.127)
			(type solid)
		)
		(layer "F.SilkS")
		(uuid "521c5b83-dadc-4fcd-9d2b-2f42c0ed4c56")
	)
	(fp_line
		(start 8.636 4.953)
		(end 1.524 4.953)
		(stroke
			(width 0.127)
			(type solid)
		)
		(layer "F.SilkS")
		(uuid "8b9ecb9e-6a44-4c24-9865-112f3860623a")
	)
	(fp_circle
		(center -9.8044 5.045)
		(end -9.7044 5.045)
		(stroke
			(width 0.2)
			(type solid)
		)
		(fill none)
		(layer "F.SilkS")
		(uuid "581d0942-6c19-4e82-8e51-5a29fae9a479")
	)
	(fp_circle
		(center -6.096 -5.715)
		(end -5.5245 -5.715)
		(stroke
			(width 1.143)
			(type solid)
		)
		(fill none)
		(layer "B.Mask")
		(uuid "d0b1db9d-4c84-421f-a3a3-161ed96ddbb9")
	)
	(fp_circle
		(center -6.096 5.715)
		(end -5.5245 5.715)
		(stroke
			(width 1.143)
			(type solid)
		)
		(fill none)
		(layer "B.Mask")
		(uuid "ea4b816c-c8fe-4afa-83e3-1a35b2d0b5e1")
	)
	(fp_circle
		(center -6.096 -5.715)
		(end -5.5245 -5.715)
		(stroke
			(width 1.143)
			(type solid)
		)
		(fill none)
		(layer "F.Mask")
		(uuid "840390f0-8778-4888-a14d-d83c2376d9ee")
	)
	(fp_circle
		(center -6.096 -5.715)
		(end -5.5245 -5.715)
		(stroke
			(width 1.143)
			(type solid)
		)
		(fill none)
		(layer "F.Mask")
		(uuid "ecc4c731-057e-408f-81c9-fdcceb67ef2b")
	)
	(fp_circle
		(center -6.096 5.715)
		(end -5.5245 5.715)
		(stroke
			(width 1.143)
			(type solid)
		)
		(fill none)
		(layer "F.Mask")
		(uuid "9f2fa303-bc94-4758-94de-c6f4220184cc")
	)
	(fp_line
		(start -9.394 -6.981)
		(end 1.774 -6.981)
		(stroke
			(width 0.05)
			(type solid)
		)
		(layer "F.CrtYd")
		(uuid "80361169-4110-4caa-b754-8643bbf7a7a3")
	)
	(fp_line
		(start -9.394 6.981)
		(end -9.394 -6.981)
		(stroke
			(width 0.05)
			(type solid)
		)
		(layer "F.CrtYd")
		(uuid "d2d87841-25e5-4159-abed-09dea9bcce9f")
	)
	(fp_line
		(start 1.774 -6.981)
		(end 1.774 -5.203)
		(stroke
			(width 0.05)
			(type solid)
		)
		(layer "F.CrtYd")
		(uuid "877bdc55-7207-4eb5-adf8-ff5a5dc263f3")
	)
	(fp_line
		(start 1.774 -5.203)
		(end 8.886 -5.203)
		(stroke
			(width 0.05)
			(type solid)
		)
		(layer "F.CrtYd")
		(uuid "f0e4dc03-69f6-492d-95d5-44251c396712")
	)
	(fp_line
		(start 1.774 5.203)
		(end 1.774 6.981)
		(stroke
			(width 0.05)
			(type solid)
		)
		(layer "F.CrtYd")
		(uuid "a7ce2412-9b0c-4ac8-9e3b-2da7e3f1e486")
	)
	(fp_line
		(start 1.774 6.981)
		(end -9.394 6.981)
		(stroke
			(width 0.05)
			(type solid)
		)
		(layer "F.CrtYd")
		(uuid "c99ec78e-6b05-437c-9022-35339ba12e0f")
	)
	(fp_line
		(start 8.886 -5.203)
		(end 8.886 5.203)
		(stroke
			(width 0.05)
			(type solid)
		)
		(layer "F.CrtYd")
		(uuid "37cd2063-5d6e-4267-b8e0-1d509c681e49")
	)
	(fp_line
		(start 8.886 5.203)
		(end 1.774 5.203)
		(stroke
			(width 0.05)
			(type solid)
		)
		(layer "F.CrtYd")
		(uuid "defb6c39-fc31-488f-9f66-7fc450925353")
	)
	(fp_line
		(start -8.636 -6.731)
		(end 1.524 -6.731)
		(stroke
			(width 0.127)
			(type solid)
		)
		(layer "F.Fab")
		(uuid "e5e3a328-de91-4f07-b4d2-f396b71fca14")
	)
	(fp_line
		(start -8.636 6.731)
		(end -8.636 -6.731)
		(stroke
			(width 0.127)
			(type solid)
		)
		(layer "F.Fab")
		(uuid "9cebca5a-c8a8-4f36-8e29-f2e16c0a1294")
	)
	(fp_line
		(start 1.524 -6.731)
		(end 1.524 -4.953)
		(stroke
			(width 0.127)
			(type solid)
		)
		(layer "F.Fab")
		(uuid "e552542b-9d24-45c9-85dd-71e394378c4b")
	)
	(fp_line
		(start 1.524 -4.953)
		(end 1.524 4.953)
		(stroke
			(width 0.127)
			(type solid)
		)
		(layer "F.Fab")
		(uuid "16df02e8-07d8-4445-80f7-e3ed063138a7")
	)
	(fp_line
		(start 1.524 -4.953)
		(end 8.636 -4.953)
		(stroke
			(width 0.127)
			(type solid)
		)
		(layer "F.Fab")
		(uuid "ce28a8a4-48a5-4566-b8c6-203d6cf367d4")
	)
	(fp_line
		(start 1.524 4.953)
		(end 1.524 6.731)
		(stroke
			(width 0.127)
			(type solid)
		)
		(layer "F.Fab")
		(uuid "dd5747ea-6085-45db-aaca-4f504184a8ce")
	)
	(fp_line
		(start 1.524 6.731)
		(end -8.636 6.731)
		(stroke
			(width 0.127)
			(type solid)
		)
		(layer "F.Fab")
		(uuid "3f6a6525-b474-4867-987a-532202306576")
	)
	(fp_line
		(start 8.636 -4.953)
		(end 8.636 4.953)
		(stroke
			(width 0.127)
			(type solid)
		)
		(layer "F.Fab")
		(uuid "59d271f3-4bda-4e5f-9c07-28ce5f6f24ea")
	)
	(fp_line
		(start 8.636 4.953)
		(end 1.524 4.953)
		(stroke
			(width 0.127)
			(type solid)
		)
		(layer "F.Fab")
		(uuid "7e21e72e-1b5b-4f06-96bb-c2f007039aa7")
	)
	(fp_circle
		(center -9.8044 5.045)
		(end -9.7044 5.045)
		(stroke
			(width 0.2)
			(type solid)
		)
		(fill none)
		(layer "F.Fab")
		(uuid "cb600fd8-3bf6-401a-954b-a0709641dbf3")
	)
	(pad "" np_thru_hole circle
		(at -6.096 -5.715)
		(size 1.778 1.778)
		(drill 1.778)
		(layers "*.Cu" "*.Mask")
		(uuid "fcc8fd73-fee0-4723-a40e-787abf614051")
	)
	(pad "" np_thru_hole circle
		(at -6.096 5.715)
		(size 1.778 1.778)
		(drill 1.778)
		(layers "*.Cu" "*.Mask")
		(uuid "c1e4cb56-99ab-4bf5-8d08-e7ae7a4cecad")
	)
	(pad "1" smd rect
		(at -7.112 3.81)
		(size 4.064 1.1684)
		(layers "F.Cu" "F.Paste" "F.Mask")
		(solder_mask_margin 0.102)
		(uuid "844c34d5-791d-413f-9224-04f1ec3706cd")
	)
	(pad "2" smd rect
		(at -7.112 -1.27)
		(size 4.064 1.1684)
		(layers "F.Cu" "F.Paste" "F.Mask")
		(solder_mask_margin 0.102)
		(uuid "b487ce73-a302-4ebb-9bb3-e77581eef1d2")
	)
	(pad "3" smd rect
		(at -7.112 -3.81)
		(size 4.064 1.1684)
		(layers "F.Cu" "F.Paste" "F.Mask")
		(solder_mask_margin 0.102)
		(uuid "6fe1c2c3-f5c8-4363-8330-e2fa23468e6b")
	)
	(pad "4" smd rect
		(at -7.112 1.27)
		(size 4.064 1.1684)
		(layers "F.Cu" "F.Paste" "F.Mask")
		(solder_mask_margin 0.102)
		(uuid "820d6d23-c231-4a50-8128-58fa6334b5e1")
	)
	(model "${KICAD7_3DMODEL_DIR}/Connector_Audio.3dshapes/TRASM4MSX_mkit.step"
		(offset
			(xyz -8.5 0 5.5)
		)
		(scale
			(xyz 1 1 1)
		)
		(rotate
			(xyz -90 0 0)
		)
	)
)
