
(footprint LEDC3216X110N_mkit (layer F.Cu) (tedit 660E8A2A)
  (descr "")
  (attr smd)
  (fp_text reference REF** (at -0.5967175 -1.6668085 0) (layer F.SilkS)
    (effects (font (size 0.480580314961 0.480580314961) (thickness 0.15)))
  )
  (fp_text value LEDC3216X110N (at 1.8650775 1.5574325 0) (layer F.Fab)
    (effects (font (size 0.480688976378 0.480688976378) (thickness 0.15)))
  )
  (pad 1 smd rect (at -1.795 0.0) (size 1.5 1.59) (layers F.Cu F.Mask F.Paste) (solder_mask_margin 0.102))
  (pad 2 smd rect (at 1.795 0.0) (size 1.5 1.59) (layers F.Cu F.Mask F.Paste) (solder_mask_margin 0.102))
  (pad None np_thru_hole circle (at 0.0 0.0) (size 2.0 2.0) (drill 2.0) (layers *.Cu *.Mask))
  (fp_line (start -2.88 -0.64) (end -2.88 0.56) (layer F.SilkS) (width 0.127))
  (fp_line (start -1.6 -0.8) (end -1.2 -0.8) (layer F.Fab) (width 0.127))
  (fp_line (start -1.2 -0.8) (end 1.6 -0.8) (layer F.Fab) (width 0.127))
  (fp_line (start 1.6 -0.8) (end 1.6 0.8) (layer F.Fab) (width 0.127))
  (fp_line (start 1.6 0.8) (end -1.2 0.8) (layer F.Fab) (width 0.127))
  (fp_line (start -1.2 0.8) (end -1.6 0.8) (layer F.Fab) (width 0.127))
  (fp_line (start -1.6 0.8) (end -1.6 -0.8) (layer F.Fab) (width 0.127))
  (fp_line (start -1.2 -0.8) (end -1.2 0.8) (layer F.Fab) (width 0.127))
  (fp_line (start -2.75 -1.25) (end 2.75 -1.25) (layer F.CrtYd) (width 0.05))
  (fp_line (start 2.75 -1.25) (end 2.75 1.25) (layer F.CrtYd) (width 0.05))
  (fp_line (start 2.75 1.25) (end -2.75 1.25) (layer F.CrtYd) (width 0.05))
  (fp_line (start -2.75 1.25) (end -2.75 -1.25) (layer F.CrtYd) (width 0.05))
)
